M48
;Layer_Color=9474304
;FILE_FORMAT=4:4
METRIC,LZ
;TYPE=PLATED
T1F00S00C0.2000
T2F00S00C0.9500
T3F00S00C1.0000
T4F00S00C1.0500
T5F00S00C1.1000
T6F00S00C1.2000
T7F00S00C1.3000
T8F00S00C1.5500
T9F00S00C3.8500
;TYPE=NON_PLATED
T10F00S00C1.2700
%
T01
X0119Y-0049
X0121
Y-0047
Y-0045
Y-0043
Y-0041
Y-0039
Y-0037
Y-0035
X011985Y-0035075
X011845Y-0033975
X0118375Y-0032
Y-0030075
X0121Y-0031
Y-0033
Y-0029
Y-0027
X01199Y-0027175
X0121Y-0025
Y-0023
Y-0021
X0117575Y-0035975
X011835Y-00379
X0118475Y-0039975
X0117525
X01177Y-00444
X0117025Y-0048975
X0115Y-0049
X0113
X0111
X0109
X0107
X0105
X0103
X0101
X0099
X0097
X0095
X0093
X0091
X0089
X0087
X0085
X0083
X0081
X0079
X00878Y-00448
X00893
X00908
X00893Y-0038625
X008785Y-003625
X008846Y-003462
X008719
Y-003335
X008846
Y-003208
X008973
Y-003081
Y-002954
X008846
Y-002827
X008719
X008592
X008465
X008338
Y-0027
Y-002573
X008465
Y-002446
X008338
Y-002319
X008465
X008592
X008719
Y-002446
Y-002573
X008846
X008973
Y-002446
Y-002319
Y-002192
X008846
Y-002065
X008719
Y-002192
X008592
Y-002065
X008465
X008338
Y-002192
X008465
X00816Y-00218
X00806Y-00218
Y-00207
X00816Y-00207
X00785Y-00209
Y-00218
Y-00227
Y-00236
X00789Y-00259
Y-0027
Y-00281
X00806Y-00281
X00816Y-00281
Y-0027
X00806Y-0027
Y-00259
X00816Y-00259
X008592Y-002573
Y-002954
X008465
X008338
X0082775Y-0031025
Y-0032125
Y-0033225
X008465Y-003208
Y-003081
X008719
X008846
X008719Y-002954
Y-003208
X008973Y-003335
Y-003462
X009227
X009354
X009481
Y-003335
Y-003208
Y-003081
Y-002954
Y-002827
X009608
X009735
X009862
Y-0027
Y-002573
Y-002446
X009735
Y-002573
X009608
X009481
Y-002446
X009354
Y-002573
X009227
Y-002446
Y-002319
X009354
Y-002192
X009481
X009608
Y-002319
X009735
X009862
Y-002192
X009735
Y-002065
X009608
X009481
X009354
X009227Y-002192
X009481Y-002319
X009975Y-0023825
X01004Y-00218
X01014Y-00218
Y-00207
X01004Y-00207
X009862Y-002065
X01035Y-00209
Y-00218
Y-00227
Y-00236
X01055Y-00236
Y-00227
Y-00218
Y-00209
X01077Y-0022975
X0108175Y-0025175
X01093Y-00259
Y-0027
Y-00281
Y-00291
Y-00302
Y-00313
X01071994Y-00299001
X010675Y-002875
X010775
X0111Y-00281
X0112Y-00281
Y-0027
X0111Y-0027
Y-00259
X0112Y-00259
X01137Y-00259
Y-0027
Y-00281
Y-00291
Y-00302
Y-00313
X0116Y-0031125
Y-0033025
X01159Y-0029175
X011595Y-0027125
X011575Y-003705
X01162807Y-00391269
X01151806
X01139Y-00402
X01127
X0111Y-00429
X01112Y-00454
X01091Y-0037475
Y-00367
Y-00358
Y-00349
X01071Y-00349
Y-00358
Y-00367
Y-0037475
X01055
Y-00367
Y-00358
Y-00349
X01035Y-00349
Y-00358
Y-00367
Y-0037475
X0102575Y-0034625
X0099225Y-00332
Y-00321
Y-0031
X01002Y-00301
X009862Y-002954
X009735
X009608
X009354
Y-002827
X009227
Y-002954
Y-003081
X009354
Y-003208
Y-003335
X009227
Y-003208
X008973Y-002827
X0089725Y-0027
X008846Y-002446
Y-002319
X01004Y-00259
X01014Y-00259
Y-0027
X01004Y-0027
Y-00281
X01014Y-00281
X01031Y-00281
Y-0027
Y-00259
X00794Y-00296
Y-00305
Y-00314
X00785Y-00324
Y-00333
Y-00342
Y-00351
X00765Y-00351
Y-00342
Y-00333
Y-00324
X00756Y-00314
Y-00305
Y-00296
X00745Y-002995
X00734
X00723
Y-003105
X00734
X00745
X00745Y-003275
X00745Y-003375
X00734
X00734Y-003275
X00723
X00723Y-003375
X00723Y-003545
X00734
X00745
X00718Y-00361
Y-0037
Y-00379
Y-00388
X00698Y-00388
Y-00379
Y-0037
Y-00361
X00682Y-00363
Y-0037
Y-00379
Y-00388
X00662282Y-00385519
X00662Y-00379
Y-0037
Y-00361
X00656Y-00348
Y-00337
Y-00326
X00639Y-00326
X00629Y-00326
Y-00337
X00639Y-00337
Y-00348
X00629Y-00348
X006112Y-003492
Y-003619
Y-003746
Y-003873
X005985
Y-003746
Y-003619
X005858
Y-003492
X005985
Y-003365
Y-003238
X006112
Y-003365
X005858
Y-003238
X005731
X005604
X005477
X005223
X005096
X004969
X004842
X004715
X004588
Y-003365
X004715
X004842
X004969
X005096
Y-003492
X004969
Y-003619
Y-003746
Y-003873
X005096
X005223
Y-003746
Y-003619
Y-003492
X005477
Y-003619
Y-003746
Y-003873
X005604
X005731
Y-003746
X005604
Y-003619
Y-003492
X005731
Y-003365
X005604
X005731Y-003619
X005858Y-003873
Y-004127
X005731
X005604
X005477
Y-004254
X005604
X005731
X005858
X005985
Y-004127
X006112
Y-004254
X0061725Y-0044025
Y-0045125
Y-0046225
X0061Y-0049
X0059
X0057
X005731Y-0047575
Y-004635
Y-004508
Y-004381
X005604
X005477
Y-004508
X00535
X005223
Y-004381
Y-004254
X005096
Y-004127
X004969
X00497Y-004005
X004842Y-004127
Y-004254
X004969
Y-004381
X005096
Y-004508
X004969
Y-004635
Y-0047575
X005096
Y-004635
X005223
Y-0047575
X0053Y-0049
X0051
X005Y-0048675
X0049Y-0049
X0047
X0045
X0043
X0041
X0039
X00397Y-00474
Y-00463
Y-00452
Y-00442
Y-00431
Y-0042
X00413Y-00411
Y-004
Y-00389
X00395Y-003945
X00414Y-00346
Y-00335
Y-00324
X00431Y-00324
X00441Y-00324
Y-00335
X00431Y-00335
Y-00346
X00441Y-00346
X004588Y-003492
Y-003619
Y-003746
X004715
Y-003873
X004842
X004588
X0045875Y-004
X004588Y-004127
X004715
Y-004254
Y-004381
X0045275Y-0044
Y-00451
Y-00462
X004588Y-004254
X004715Y-003619
X004842
Y-003492
X004715
X005096Y-003619
Y-003746
X005223Y-004127
X005604Y-004508
Y-004635
Y-0047575
X005477
Y-004635
X0055Y-0049
X0063
X0065
X0067
X0069
X00689Y-00471
X00699Y-00471
Y-0046
X00689Y-0046
Y-00449
Y-00439
X00699Y-00439
Y-00449
X00716Y-00449
Y-00439
Y-00428
Y-00417
X00699Y-00417
X00689Y-00417
Y-00428
X00699Y-00428
X00672
Y-00417
X00657Y-00411
Y-004
Y-00389
X0061125Y-004
X00672Y-00439
Y-00449
Y-0046
Y-00471
X00716Y-00471
Y-0046
X0071Y-0049
X0073
X0075
X0077
X00772Y-00312
X00778Y-00312
Y-00305
Y-00298
X00772Y-00298
X00745Y-002825
X00745Y-002725
X00734
X00734Y-002825
X00723
X00723Y-002725
X00723Y-002555
X00734
X00745
X00765Y-00236
Y-00227
Y-00218
Y-00209
X00688Y-00207
X0069375Y-00235
X0070425Y-0023125
X0070875Y-0026275
X00686Y-00249
X00675
X0067Y-00256
X006615Y-0025975
X00637Y-002525
X0063125Y-0023525
X00623Y-0021875
X0062925Y-0021125
X0058925
X0059125Y-0023525
X0059625Y-002665
X00595Y-00275
X0059625Y-002835
X0061925Y-0027975
X0062375Y-0028975
X0067Y-00291
X00675Y-00296
X0068Y-0030975
X006945Y-002985
X007045Y-002985
X006635Y-00222
X0054925Y-0021125
X0055125Y-0023525
X00566Y-0026
Y-002665
X0051625Y-0026675
X00515Y-00275
X005005Y-0028
X0048575Y-002665
X004815Y-0024925
X0047125Y-0023525
X0046925Y-0021125
X0050925
X0051125Y-0023525
X00515Y-0024925
X005295Y-0028075
X00484Y-002975
X00453Y-0028125
X004Y-00277
Y-00268
Y-00259
Y-00286
X00407Y-0045325
X0038Y-00452
Y-00442
X0037Y-00442
Y-00452
Y-00463
X0038Y-00463
Y-00474
X0037Y-00474
X0037Y-0049
X0035
X00353Y-00474
Y-00463
Y-00452
Y-00442
Y-00431
Y-0042
X0037Y-0042
X0038Y-0042
Y-00431
X0037Y-00431
X00372Y-00387
Y-00378
Y-00369
Y-0036
X00352Y-0036
X0035175Y-0035225
X00352Y-00369
Y-00378
Y-00387
X00336Y-00387
Y-00378
Y-00369
Y-0036025
X00316
Y-00369
Y-00378
Y-00387
X00305Y-0045
X00312Y-00475
X0031Y-0049
X0033
X003275Y-0046375
X0029Y-0049
X0027
X0025
X0023
X002335Y-00475
Y-0044875
Y-0042425
X002457Y-00425
X0025525Y-00413
X002203Y-00425
X0019475
X001695
X001525Y-003875
Y-00375
X00169426Y-00362544
X0021625Y-0035
X0022875
X00272Y-0028875
X0027875Y-0027
X00272Y-002525
X0031325Y-00255
X003085Y-0023725
X0025375Y-00225
X0024125
X001275Y-0025
X00115
X00101
X0010125Y-002625
X0008875
Y-002375
X0008875Y-00225
X0007625
X0008875Y-002125
X0003875
X-000125
Y-002375
X-00005Y-00375
X000076Y-00425
X00015
X0002275
X00033
X000425
X0005025
X000584
X000475Y-0043875
X0002125
X0002305Y-00411
X0006875Y-004
X00058326Y-00362544
X0007625Y-003375
X0008875
X0008875Y-00325
X0010125
X001275
Y-003375
Y-003125
X00115
X001275Y-003
X0014
Y-002625
X001275
X0013Y-0049
X0011
X0009
X0007
X0005
X0003
X0001
X-0001
X0015
X0017
X0019
X0021
X001825Y-00475
X003265Y-0030725
X00352Y-00308996
X003475Y-002975
X003575
X0038Y-00286
Y-00277
Y-00268
Y-00259
X0036175Y-0026175
X-00025Y-002375
Y-002125
X-0006375
X-0007625
X-0006375Y-00225
X-0005125
Y-002625
X-0006375
X-0008875Y-0025
X-0010125
X-0014Y-002625
X-001525
X-00165Y-002875
Y-003
X-001775
Y-002875
Y-00275
X-0019
Y-0025
X-001775
X-0014Y-00225
Y-003
Y-003125
X-001525
Y-00325
X-0014
X-001275
Y-003375
X-0014
X-0015625Y-0035075
X-00165
X-0017375
X-0017375Y-0036175
X-00165
X-0015625
X-001165
X-0010775
X-00099
X-00099Y-0035075
X-0010775
X-001165
X-0011375Y-003125
X-0010125
X-0007375Y-0031175
X-00065
X-0005625
X-0005625Y-0030075
X-00065
X-0007375
X-001275Y-003
X-0020375Y-002875
X-0021625
X-0024125
Y-003
Y-003125
Y-00325
Y-003375
X-0025125Y-0035075
X-0026
X-0026875
X-0026875Y-0036175
X-0026
X-0025125
X-0028425
X-00293
X-0030175
X-0030175Y-0035075
X-00293
X-0028425
X-0032Y-0036
Y-0037
X-0033
Y-0036
X-0034
X-0035
Y-0035
X-0034
Y-0034
X-0035
X-0036
Y-0035
Y-0036
Y-0037
X-0037
X-0038
X-0039
Y-0036
X-004
X-0041
Y-0035
Y-0034
X-004
X-0039
Y-0035
X-004
Y-0033
X-0039
X-0038
Y-0032
Y-0031
Y-003
Y-0029
X-0037
Y-003
X-0036
Y-0029
Y-0028
X-0037
X-0038
X-0039
X-004
Y-0027
X-0039
X-0038
Y-0026
X-0039
X-004
X-0041
Y-0027
Y-0028
Y-0029
Y-003
X-004
X-0039
Y-0029
X-004
Y-0031
X-0039
Y-0032
X-004
X-0041
Y-0031
Y-0033
X-0038Y-0034
Y-0035
Y-0036
X-0037
Y-0035
Y-0034
Y-0033
X-0036
X-0035
X-0034
X-0033
Y-0034
Y-0035
X-0032Y-0033
X-0034Y-0032
X-0035
Y-0031
X-0034
Y-003
X-0035
Y-0029
X-0034
Y-0028
X-0035
Y-0027
X-0034
Y-0026
X-0035
X-0036
X-0037
Y-0027
X-0036
Y-0024
Y-0023
X-0035
Y-0024
X-0034
Y-0023
X-0033
Y-0024
X-0032Y-0023
X-0033Y-0021
X-0034
X-0035
X-0037
X-0038
Y-0022
X-0039
Y-0023
Y-0024
X-0038
Y-0023
X-0037
Y-0024
Y-0022
X-004
X-0041
Y-0023
X-004
Y-0024
X-0041
Y-0021
X-004
X-0039
X-0037Y-0031
Y-0032
X-0036
Y-0031
X-0033Y-003
Y-0029
Y-0028
X-0032
X-0025375Y-00275
X-0024125
Y-002625
Y-0025
Y-002375
Y-00225
Y-002125
X-002265Y-0021225
X-002185Y-0021225
X-0025375Y-002375
Y-0025
X-0026625Y-002375
X-0022875Y-003125
Y-00325
X-0021625Y-003375
X-0020375
X-0021625Y-003625
X-0019Y-0038775
X-001825Y-004125
X-001625
X-001725Y-00425
X-001925
X-002125
X-0023375
X-002225Y-004125
X-002025
X-0021Y-0049
X-0019
X-0017
X-0015
X-0013
X-0011
X-0009
X-0007
X-0005
X-0003
X-000305Y-0045025
X-000178Y-00425
X-000432
X-00043274Y-00362544
X-000375Y-0035
X-0005
X-0008875Y-0038775
X-0010125Y-004
X-0023Y-0049
X-0025
X-0027
X-0029
X-0031
X-0033
X-0035
X-0037
X-0039
X-0038875Y-00475
X-00375561Y-00474951
X-003625Y-00475
X-0036175Y-004375
X-0035
X-0037785
X-0038385
X-0038725Y-004125
X-0039Y-0038
X-0038
X-0037
X-0036
X-0035
X-0034
X-0033
X-0032
X-0034Y-0037
X-0035
X-0041Y-0049
X-0043
X-0045
X-0047
X-0049
X-0051
X-0053
X-0055
X-0057
X-0059
X-0061
X-0063
X-0065
X-0067
X-0069
X-0071
X-0073
X-0075
X-0077
X-0079
X-007675Y-004625
Y-0045
X-00755
X-007425Y-004625
Y-004375
X-007675
X-007925Y-00425
X-00805
X-008Y-00448
X-0067025Y-004375
X-0066075
X-0066475Y-004625
X-006425Y-0041325
X-006425Y-0038
Y-0037
X-0063
Y-0034
X-006175
Y-0033
X-00605
X-0058Y-0033
Y-0034
X-0058825Y-00341
X-0057Y-0034
Y-0033
X-0056
X-0055
X-0054
Y-0034
X-0055
X-0056
Y-0036
X-0057
X-0058
Y-0037
X-0057
X-0056
X-0055
X-0054
X-0053
X-0052
X-0051
X-005
X-0049
Y-0038
X-005
Y-0039
X-0049
X-0048Y-004
Y-00413
X-0047Y-0042425
Y-0045
X-004715Y-004625
X-004915
X-00504
X-0051675
X-005295
X-0053Y-004375
X-0054425Y-0043675
X-0055525
X-0056625
X-0056625Y-0042575
X-0055525
X-00544093Y-00425593
X-0051Y-0042425
Y-004125
X-00511Y-0040175
X-0051Y-0038
X-0052
Y-0036
Y-0035
X-0053
Y-0034
X-0052
X-0051
Y-0033
X-005
X-0049
Y-0032
X-005
X-0051
Y-0031
Y-003
Y-0029
Y-0028
Y-0027
Y-0026
X-0052
Y-0027
X-0053
Y-0026
X-0054
Y-00250013
X-0055
X-0055Y-0026
Y-0027
X-0056Y-0027
X-0057
Y-0026
X-0058
Y-0027
Y-0029
X-0057
X-0056
X-0055
X-0054
Y-0028
X-0053
X-0052
Y-0029
X-0053
Y-0031
X-0054
X-0055
X-0056
X-0057
X-0058
X-0059175
X-006175Y-003055
X-0063
X-006425Y-0030875
X-00655Y-0033
X-006675
X-006925Y-0033
X-00705
X-007175Y-0032
X-0073
X-007175Y-0029
X-00705
X-00705Y-0028
X-006925
X-00705Y-0026
X-007175
X-0073Y-0026
X-007425
X-0080475Y-00247
Y-00241
X-00803Y-00231
X-00809
X-006925Y-0021
X-0068
X-0058
Y-0022
Y-0023
Y-0024
X-0057
Y-0023
X-0056
X-0055
X-0054Y-0022
X-0053
X-0052
Y-0021
X-0051
X-005
X-0049
Y-0022
X-0048
X-0047
X-0046
X-0045Y-0022
X-0044Y-0022
Y-0021
X-0043
X-0042
Y-0022
Y-0023
Y-0024
X-0043Y-0023
Y-0022
X-0044Y-0023
Y-0024
X-0045Y-0024
X-0046Y-0024
X-0047
X-0048
X-0049
Y-0023
X-005
X-0051
X-0052
Y-0024
X-0053
X-0054
Y-0027
X-0056Y-0026
X-0057Y-0022
Y-0021
X-0056
X-0055
X-0051Y-0022
X-005
Y-0024
X-0051
X-005Y-0026
X-0049
Y-0027
X-005
Y-0028
X-0049
Y-0029
X-005
Y-003
X-0049
Y-0031
X-0048
Y-003
Y-0029
X-0047
X-0046
Y-0028
Y-0027
Y-0026
X-0047
Y-0027
X-0048
Y-0026
X-0044Y-0026
X-0043
Y-0025
X-0042Y-0026
Y-0027
Y-0028
X-0043
X-0044
Y-0027
X-0043
Y-0029
X-0044
Y-003
X-0043
X-0042
Y-0029
Y-0031
Y-0032
X-0043
X-0044
Y-0033
X-0043
Y-0034
X-0044
Y-0035
X-0043
X-0042
Y-0034
Y-0033
Y-0036
X-0043
X-0044
Y-0037
X-0043
Y-0038
X-0044
Y-0039
X-0046
Y-0038
X-0047
Y-0037
Y-0036
Y-0035
X-0046
Y-0036
Y-0037
X-0048
Y-0036
Y-0035
Y-0034
Y-0033
Y-0032
X-0047
Y-0031
Y-003
X-0046
Y-0031
Y-0032
Y-0033
X-0047
Y-0034
X-0046
X-0049
X-005
Y-0035
Y-0036
X-0051
Y-0035
X-0049
X-0048Y-0038
X-0042
Y-0037
X-0043Y-0031
X-0044
X-0052Y-003
Y-0032
Y-0033
X-0053
X-0054Y-0035
X-0055Y-0036
Y-0038
X-0056
X-0053Y-00391
X-00588843Y-00425593
X-006Y-0042575
X-00611
X-00611Y-0043675
X-006
X-00589
X-00655Y-0038
X-0068Y-0036
X-006925
X-00605Y-00288
Y-00282
X-0047Y-0021
X-0044Y-004375
X-0042Y-00475
X-0081Y-0049
X-0083
X-0085
X-0087
X-0089
X-0091
X-0093
X-0095
X-0097
X-0099
X-0101
X-0103
X-0105
X-0107
X-0109
X-0111
X-0113
X-0115
X-0117
X-0119
X-01108Y-00397
Y-00388
Y-00379
X-01088Y-00379
Y-00388
Y-00397
Y-00406
X-01072Y-00406
Y-00397
Y-00388
Y-00379
X-01052Y-00379
Y-00388
X-01044Y-00388
Y-00399
X-01052Y-00397
Y-00406
X-01044Y-0041025
Y-00421
X-01027Y-00421
X-01017Y-00421
Y-0041025
X-01027
Y-00399
X-01017Y-00399
Y-00388
X-01027Y-00388
Y-00377
Y-003685
X-01017Y-00366
Y-00377
X-01Y-00377
Y-00366
X-00989Y-0036325
X-0098225Y-0038025
X-0097225
X-0094825Y-003805
Y-00389
X-00928Y-0038075
X-0092
X-00912
X-0092Y-004015
X-0088625Y-0040075
X-008825Y-004625
X-008675
Y-0045
X-0084375
X-0083775Y-004625
X-0084375Y-00475
X-009665Y-0045625
X-0096125Y-0044375
X-00954Y-0042325
X-0097225Y-0042025
X-0098225
X-01Y-00421
Y-0041025
Y-00399
X-0099325Y-003995
X-01Y-00388
X-01044Y-00377
Y-003685
X-01011Y-003365
X-00982Y-00345
X-0098Y-003
X-00972
X-00969Y-00308
X-00962
X-009595Y-003015
X-009525
X-00956Y-00292
X-00948
X-00924Y-00284
Y-00276
X-00924Y-00252
X-00916Y-00252
X-00916Y-00244
X-00916Y-00236
X-00916Y-00228
X-00908Y-00228
X-00908Y-00236
X-00908Y-00244
X-00892Y-00244
X-00884
X-00876
X-00868
X-00868Y-00236
X-00876
X-00876Y-00228
X-00884
X-00892
X-008925Y-002355
X-008845
X-00884Y-00212
X-00892
X-00908Y-00212
X-00916
X-00924
X-00932
X-0094
X-0094Y-00228
X-00948
X-00956
X-00964
X-009715Y-002275
X-0098Y-00228
X-0098Y-00212
X-00972
X-0096413Y-0021213
X-009635Y-002365
X-009555
X-00956Y-00252
X-00964Y-00252
X-00948Y-00252
X-0094Y-00236
X-00932Y-00228
X-00892Y-00252
X-00884Y-0026
X-00876
X-00868
Y-00252
Y-00228
Y-00212
X-00876
X-00844Y-0022
X-00836
Y-00228
X-00844Y-00228
X-00817149Y-00231
Y-00225
X-0082Y-00212
X-00828
Y-00252
X-00836
Y-0026
X-00828Y-00268
X-0082
X-00818Y-00281
X-0081829Y-00288014
X-00836Y-00292
X-00844
X-00852Y-00292
X-0086
X-00868Y-00292
X-00876
X-008805Y-00305
X-008875
X-009045
X-009115
X-009205Y-0030475
X-009275
X-00916Y-00292
X-00908
X-0086775Y-0030225
Y-0030825
X-0082Y-00252
X-00964Y-00268
X-00971925Y-00267925
X-00972Y-00284
X-0098Y-00284
X-00985Y-00289
Y-00295
X-00986Y-0027925
X-0099095Y-002743
X-009957Y-0026245
X-00996049Y-00254012
X-01Y-00249479
X-00991722Y-00245
X-0098725Y-00241
X-00994Y-002385
Y-002325
X-0100625Y-002235
Y-002165
X-0099075Y-002575
X-00982Y-00256
X-01061Y-00254
X-01072
X-01083
X-01095
X-01106
X-01117
X-0113Y-00249
X-01139
X-01148
X-01148Y-00227
X-01139
X-0113
X-01117Y-00227
X-01106Y-00227
X-01095Y-00227
X-01083
X-01072
X-01061
X-0106425Y-0028325
X-010685Y-00319
X-010785Y-00319
X-01072999Y-00330502
X-0111125Y-003305
X-0109075Y-0030275
X-0116Y-00291
Y-00282
Y-00273
Y-00264
X-0118Y-00264
Y-00273
Y-00282
Y-00291
X-0106275Y-00415
X-012338Y-004154
Y-004027
X-012465
X-012592
X-012719
X-012846
X-012973
Y-004154
Y-004281
Y-004408
X-012846
Y-004535
X-012719
Y-004408
Y-004281
Y-004154
X-012846
Y-004281
X-012592
X-012465
Y-004154
X-012338Y-004281
Y-004408
Y-004535
Y-004662
X-012465
X-012592
X-012719
X-012846
X-012973
X-013227
X-013354
X-013481
Y-004535
Y-004408
X-013608
Y-004281
X-013735
Y-004154
Y-004027
X-013862
Y-004154
Y-004281
Y-004408
X-013735
Y-004535
X-013608
Y-004662
X-013735
X-013862
Y-004535
X-01404Y-00453
X-01414Y-00453
Y-00442
X-01404Y-00442
Y-00431
X-01414Y-00431
Y-0042
X-01404Y-0042
Y-00409
X-01414Y-00409
X-01432Y-00429
Y-00438
Y-00447
Y-00456
X-01452Y-00456
Y-00447
Y-00438
Y-00429
X-0145775Y-0042275
X-01465Y-0044325
X-0147025Y-004535
Y-0046
X-0147Y-0049
X-0149
X-0151
X-0153
X-0155
X-0157
X-0159
X-01585Y-00423
Y-00412
Y-00401
Y-0039
Y-00379
Y-00368
X-01588Y-00354
X-01579
X-0157
X-01561
X-01558Y-00368
X-01568Y-00368
Y-00379
X-01558Y-00379
Y-0039
X-01568Y-0039
Y-00401
X-01558Y-00401
Y-00412
X-01568Y-00412
Y-00423
X-01558Y-00423
X-01541Y-00423
Y-00412
Y-00401
Y-0039
Y-00379
Y-00368
X-015245Y-003315
X-015015Y-003295
X-015015Y-003395
X-015065Y-00315
X-01561Y-00318
X-0157
X-01579
X-01588
X-01588Y-00334
X-01579
X-0157
X-01561
Y-00298
X-0157
X-01579
X-01588
X-0146575Y-0034275
X-01394Y-00347
Y-00336
Y-00324679
Y-00313
Y-00302
X-013481Y-003011
Y-003138
X-013354
X-013227
Y-003265
Y-003392
X-013354
X-013481
Y-003519
X-013354
X-013227
Y-003646
Y-003773
X-013354
Y-003646
X-013481
Y-003773
X-013608
Y-003646
X-013735
X-013862
Y-003773
X-013735
X-013608Y-004027
X-013481
X-013354
X-013227
Y-004154
Y-004281
X-013354
Y-004154
X-013481
Y-004281
X-013354Y-004408
Y-004535
X-013227Y-004408
X-0133Y-0049
X-0131
X-0129
X-0127
X-0125
X-0123
X-0121
X-012465Y-004535
X-012592
Y-004408
X-012465
Y-003773
Y-003646
X-012338
Y-003773
X-012592
Y-003646
X-012719
Y-003519
Y-003392
X-012846
X-012973
Y-003265
Y-003138
X-012846
X-012719
Y-003011
Y-003265
X-012846
Y-003519
X-012973
Y-003646
X-012846
Y-003773
X-012719
X-012973
X-013354Y-003265
X-013481
X-0135075Y-0025175
Y-0023575
Y-0021975
Y-0021175
X-01369Y-00226
Y-00247
X-01314Y-00238
X-01313Y-00228
X-012685Y-0021575
Y-0020775
X-012425Y-0022375
Y-0024775
X-012685Y-00251
X-01226Y-00302
Y-00313
Y-00324679
Y-00336
Y-00347
Y-00358
X-01394
X-01404Y-00464
X-01414Y-00464
X-0141Y-0049
X-0139
X-0137
X-0135
X-0143
X-0145
X-015Y-00445
X-0149875Y-004365
X-0152425Y-004415
X-015285Y-0043
X-0164
Y-0041
Y-0039
Y-0037
Y-0035
Y-0033
Y-0031
Y-0029
Y-0027
Y-0025
Y-0023
Y-0021
Y-0045
Y-0047
Y-0049
X-0163
X-0161
X-0164Y-0019
Y-0017
Y-0015
Y-0013
Y-0011
Y-0009
Y-0007
Y-0005
Y-0003
Y-0001
Y0001
Y0003
Y0005
Y0007
Y0009
Y0011
Y0013
Y0015
Y0017
Y0019
X-01368Y001765
X-0135075Y0017575
X-01313Y001905
X-012425Y0017975
X-01244Y00168
X-012425Y0010925
Y0008525
Y000615
X-012685Y0006925
Y0007725
X-0126875Y001125
X-01314Y000995
X-01313Y000895
Y000575
X-01314Y000475
X-0135075Y0004925
Y0003325
X-01368Y000375
Y000585
X-0135075Y0006525
Y0007325
Y0008125
Y0008925
Y0009725
Y0010525
X-01368Y001095
Y000885
X-01367Y-00029
X-0135075Y-0003725
Y-0004525
Y-0005325
Y-0006125
Y-0006925
Y-0007725
Y-0009325
Y-0010925
X-01367Y-00108
X-01367Y-00084
Y-00054
X-01313Y-00053
X-01314Y-00043
X-01313Y-00085
X-01314Y-00095
X-012685Y-0007325
Y-0006525
X-012425Y-0005725
Y-0008125
Y-0010525
X-01244Y-0011675
X-012425Y-00176
Y-0019975
X-012685Y-00173
X-01314Y-00186
X-01313Y-00196
X-0135075Y-0019575
Y-0020375
Y-0018775
Y-0017975
X-01369Y-00176
X-01369Y-00198
X-012685Y-0003
X-012425Y-0003325
X-012685Y000345
X-011325Y0004
X-011125Y0003875
X-0109675Y000515
X-0106Y0005
Y0006
X-0105Y0006
X-0104
Y0005
X-0103
Y0004
X-0104
Y0002
X-0105
X-0106
X-0106Y-0001
X-0105Y-0001
Y-0002
X-0106
Y-0003
Y-0005
X-0105
X-0104Y-0005
X-0103
X-0102
Y-0006
X-0101
Y-0005
Y-0004
X-0102
Y-0003
X-0103Y-0002
X-0102Y-0001
X-0101
Y-0002
X-0099
Y-0001
Y0001
Y0002
Y0003
Y0004
Y0005
Y0006
X-0098
X-0097
Y0005
X-0096
Y0004
X-0097
Y0003
X-0096
X-0095
Y0002
X-0094
Y0003
Y0004
X-0095
Y0005
Y0006
X-0096
X-0094
Y0005
X-0091925Y0004
X-0088Y0004
X-0087Y0005
X-0086
X-0085
X-0084
X-0083
Y0006
X-0084
X-0086
X-0087
X-0088Y0006
X-0088Y0002
X-0087
X-0086
X-0085Y0003
Y0004
X-0086
X-0084
X-0083
X-0081Y0004
Y0003
Y0002
Y0001
Y-0001
Y-0002
X-0083
Y-0001
X-0084
X-0084Y-0002
X-0084Y-0003
Y-0004
Y-0005
Y-0006
X-0085Y-0006
X-0086
Y-0005
X-0085
X-0086Y-0004
Y-0003
X-0087Y-0002
X-0088
Y-0003
Y-0005
X-0087
Y-0006
X-0088Y-0006
X-008625Y-000685
X-0083Y-0006
Y-0005
Y-0004
X-0081
Y-0005
X-0081Y-0006
X-008425Y-001
X-008825
X-008795Y-001395
X-008725
X-00876Y-00156
X-00868
X-0086Y-00148
X-00852
X-00852Y-0014
X-00844
X-00828Y-0014
Y-00148
X-008165Y-0013225
X-008105
X-008105Y-00177
Y-00183
X-00828Y-0018
X-00828Y-00188
Y-00196
X-00844
X-00844Y-00204
Y-0018
X-0086Y-00188
X-00868
X-00876
Y-00196
X-00868
Y-00204
X-00876
X-00884
Y-00196
Y-00188
X-00892
Y-00196
Y-00204
X-00908Y-00204
Y-00196
Y-00188
Y-0018
X-00916
X-00924Y-00196
X-00932
Y-00204
X-0094
X-00948
Y-00196
X-0094
X-00956
Y-00204
X-00964Y-00196
X-00972Y-00196
X-0098475Y-00193
Y-00199
X-0098Y-0018
X-00972
Y-00172
X-00964
Y-00164
X-00972
Y-00156
X-0098
X-00964Y-00156
X-00959Y-0013875
X-00953
X-009435
X-009365
X-009275Y-00135
X-009205
X-009115Y-001345
X-009045
X-00908Y-00148
X-00916
X-00892Y-00148
X-00884
X-00884Y-0018
X-00892Y-0018
X-00916Y-00204
X-00924Y-00204
X-00948Y-0018
X-00964Y-0018
X-0094Y-00164
X-0094Y-0006
X-0095
X-0096Y-0006
X-0097
Y-0005
X-0098
Y-0004
X-0097Y-0004
X-0096Y-0003
X-0095
Y-0004
Y-0005
X-0096
X-0094
Y-0004
Y-0003
Y-0002
Y-0001
X-0095
X-0096
X-0097
Y-0002
X-0098
X-0095
Y0001
X-0094
X-0096
X-0097
Y0002
X-0098Y0003
Y0004
X-0101Y0004
Y0005
Y0006
X-0102
Y0005
Y0004
Y0003
Y0002
X-0101
Y0001
X-0102
X-0103Y0003
X-0105Y0005
X-0104Y001
X-01061Y00121
X-01061Y00131
X-01072
X-01072Y00121
X-01083
X-01083Y00131
X-01095
X-01095Y00121
X-01106
X-01106Y00131
X-01117
X-01117Y00121
X-0113
X-0113Y00131
X-01141
X-01141Y00121
X-01152
X-01152Y00131
X-01148Y00148
X-01139
X-0113
X-01117Y00148
X-01106
X-01095
X-01083
X-01072
X-01061
Y00175
X-01072
X-01083
X-01095
X-01106
X-01117
X-0113Y00186
X-01139
X-01148
X-009805Y0018375
X-00972Y00172
X-00964
Y00188
X-00956Y00188
X-00948
X-00924Y00188
X-00916
X-00892
X-00884Y0018
X-00876
X-00868
Y00188
X-00836
Y0018
X-00828Y00172
X-0082
X-0081804Y00160008
X-00818Y00153
X-00836Y00148
X-00844
X-00852Y00156
X-0086
X-00868Y00148
X-00876
X-00876Y0014
X-00868
X-008805Y0013525
X-008875
X-009045Y001345
X-009115
X-009165Y001295
X-009235
X-009285Y001355
X-009355
X-009525Y0013525
X-009595
X-00964Y00129
X-00971
X-00972Y0014
X-0098
X-00985Y00145
Y00151
X-0098Y00156
X-00972Y00156
X-0098525Y0016225
X-00989493Y00166493
X-00956Y00148
X-00948
X-00916
X-00908
X-00816Y001845
X-0081Y0006
Y0005
X-0083Y0002
X-0084
Y0003
Y0001
X-0083
X-0087Y-0001
X-0088Y-0001
X-00905Y-000685
X-0098Y-0006
X-0099
Y-0005
Y-0004
X-0104
Y-0006
X-0103
X-0105
X-0106Y-0006
X-01061Y-001095
X-01072
X-01083
X-01095Y-000975
X-01106
X-01117
X-01129Y-001095
X-0114
X-01151
X-01148Y-00139
X-01139
X-0113
X-01117Y-00139
X-01106Y-00139
X-01095Y-00139
X-01083
X-01072
X-01061
Y-00166
X-01072
X-01083
X-01095
X-01106
X-01117
X-0113Y-00161
X-01139
X-01148
X-01148Y-00205
X-01139
X-0113
X-01117Y-002
X-01106
X-01095
X-01083
X-01072
X-01061
X-0109625Y-000285
X-011125Y-0004125
X-011325Y-0004
X-008Y-0004
Y-0005
X-0079
Y-0004
X-0078Y-0005
X-0077
Y-0004
X-0076
Y-0005
Y-0006
X-0077
X-0078Y-0006
X-0079
X-008Y-0006
Y-0002
X-0079
Y-0001
X-0078
X-0077
X-0076
Y-0002
Y-0003
X-0077
X-0078
X-0077Y-0002
Y0001
X-0076
Y0002
Y0003
Y0004
Y0005
Y0006
X-0077
X-0078
X-0079
Y0005
X-0078
Y0004
X-0079
Y0003
X-0078
X-0077
Y0002
Y0004
Y0005
X-008Y0006
Y0004
Y0003
X-0079Y0002
Y0001
X-0078
X-0073Y0004
X-00705Y0017
Y0018
X-0068Y0016
X-006675
X-006425Y0018
X-0063
X-0059175Y0019
X-0058
X-0057
X-0056
X-0055
X-0054
X-0053
X-0051
Y0018
Y0017
X-005
X-0049
Y0018
X-005
X-0049Y0019
X-0048
X-0047
X-0046
Y0018
X-0047
X-0048
Y0017
X-0047
X-0046
Y0016
Y0015
Y0014
X-0047
Y0015
Y0016
X-0048
X-0049
X-005
X-0051
X-0052
X-0053
X-0054
X-0055
Y0017
X-0054
X-0053
X-0052
Y0018
Y0015
Y0014
X-0051
Y0015
X-005
Y0014
Y0013
X-0049
Y0012
X-005
X-0051
Y0013
X-0052
X-0053
X-0054
X-0055
Y0014
X-0056
X-0057
X-0058
Y0013
X-0057
X-0056
Y0012
X-0055
X-0052
X-0053Y0015
X-0054
X-0056Y0016
X-0057
X-0058
Y0017
X-0057
X-0056
X-0059175Y001505
X-00551Y0009
X-00551Y0008
X-0053876Y00080086
X-0053075Y0008
X-0053075Y0009
X-0053876Y00090086
X-005365Y0006
X-005565
X-0055125Y0005
X-0051225Y0006
X-0049925
X-0048625
X-00461
Y0005
X-004505
X-004505Y0006
X-004395
X-004395Y0005
X-0043875Y0000125
X-0045125Y-0002
X-0044Y-0004
X-0043
Y-0006
X-0042
Y-0012
X-0043
X-0044
Y-0013
Y-0014
Y-0015
Y-0016
Y-0017
X-0043
Y-0018
X-0044
Y-0019
Y-002
X-0043
Y-0019
X-0042Y-002
Y-0018
Y-0017
Y-0016
X-0043
Y-0015
Y-0014
Y-0013
X-0042
Y-0014
Y-0015
X-0046Y-0015
Y-0016
X-0047
Y-0015
Y-0014
X-0046
Y-0013
X-0047
Y-0012
X-0046
X-0048
X-0049
Y-0013
X-0048
Y-0014
Y-0015
Y-0016
X-0049
Y-0015
X-005
X-0051
Y-0016
X-005
Y-0017
X-0051
X-0052
Y-0016
Y-0015
Y-0014
X-0051
X-005
Y-0013
X-0051
X-0052
X-0053Y-0012
X-0054
X-0055
Y-0013
Y-0014
X-0054
X-0053
Y-0016
X-0054
Y-0017
Y-0018
X-0053
X-0052
Y-0019
X-0051
X-005
Y-0018
X-0051
X-0049
Y-0017
X-0048
Y-0018
Y-0019
Y-002
X-0049
X-005
X-0051
X-0052
X-0053
X-0054
X-0055Y-0019
X-0056
X-0057
X-0058
Y-002
X-0057
Y-0018
Y-0017
Y-0016
Y-0015
X-0058
Y-0014
Y-0013
Y-0012
X-0057
X-0056
Y-0013
Y-0014
X-0057
Y-0013
X-0056Y-0015
X-0055
X-0049Y-0014
X-005Y-0012
X-0051Y-00059
Y-0003925
Y-0003
X-0051875
Y-0002
X-0051
X-005Y-0003
Y-0003875
X-0053125Y-000395
X-00531303Y-00019502
X-005115Y00000875
X-0048725Y-0001075
X-0048Y0002125
X-005195Y000295
X-0055125Y0000075
X-0048Y0012
X-0047
Y0013
X-0046
Y0012
X-0044
X-0043
Y0013
X-0044
Y0014
X-0043
X-0042
Y0015
Y0016
X-0043
X-0044
Y0015
X-0043
Y0017
X-0044
Y0018
X-0043
X-0042
Y0019
X-0043
X-0044
X-0042Y0017
Y0013
Y0012
Y0008
X-0048Y0013
Y0014
Y0015
X-0049
X-007675Y0016
X-0078
X-0079525Y001895
X-0080125
X-007925Y-001
X-008035Y-0014575
Y-0015175
X-0080675Y-00161
Y-00167
X-0080875Y-00197
X-0080275
X-00755Y-0012
X-007425
X-0068Y-002
X-006675
X-0049Y-0019
X-0047
X-0046
Y-002
X-0047
Y-0018
X-0046
Y-0017
X-0047
X-0041
X-004
Y-0018
X-0041
Y-0019
Y-002
X-004
Y-0019
X-0039
Y-002
X-0038
Y-0019
X-0037
Y-002
X-0036
Y-0019
X-0035
Y-002
X-0034
Y-0019
Y-0018
X-0035
X-0036
X-0037
Y-0017
X-0036
X-0035
X-0034
Y-0016
Y-0015
Y-0014
X-0035
Y-0015
X-0036
Y-0014
Y-0013
X-0035
X-0037
Y-0012
X-0036Y-0011
X-0035
X-0034Y-0012
X-0033
X-0032
X-0033Y-0014
X-0032Y-0017
X-0033Y-0019
Y-002
X-0035Y-0016
X-0036
X-0037
Y-0015
Y-0014
X-0038
Y-0015
X-0039
Y-0014
X-004
X-0041
Y-0015
X-004
Y-0016
X-0041
X-0039
X-0038
Y-0017
Y-0018
X-0039
Y-0017
X-004Y-0013
X-0041
Y-0009
X-004
X-0039Y-001
X-00346Y-0007825
Y-0006725
Y-0005625
X-00335Y-0005625
Y-0006725
Y-0007825
X-0030375Y-0007875
Y-0009
X-0029Y-0006875
X-0026625Y-0007875
X-0025375Y-000875
X-00240512Y-00099255
X-00224511
X-0021825Y-0009925
X-002225Y-001105
X-002185Y-0012525
X-002265Y-0012525
X-0024125Y-00125
Y-001375
Y-0015
Y-001625
Y-00175
Y-001875
Y-002
X-002265Y-0017525
X-002185Y-0017525
X-002185Y-0016225
X-002265Y-0016225
X-0020075
X-0019275Y-0016225
X-0019275Y-0012525
X-0020075Y-0012525
X-0020375Y-001125
X-0020275Y-00098765
X-001905Y-00099
X-00178Y-000995
X-0016575Y-0009925
X-0015975Y-0009925
X-00153507Y-00099255
X-0014Y-000995
X-0014Y-00125
X-001775
X-001905Y-000635
Y-000508
Y-000381
X-002032
Y-000254
X-002159
Y-000381
X-002286
Y-000254
Y-000127
Y0
Y000127
Y000254
X-002413
X-00254
Y000127
Y0
X-002413
Y-000127
X-00254
Y-000254
X-002413
X-0026375Y-0001875
X-00254Y-000508
X-002159
Y-000635
X-002032Y-000508
X-001651
X-001524
Y-000381
Y-000254
X-001397
X-00127
Y-000381
X-001143
X-001016
X-000889
Y-000254
X-001016
X-001143
Y-000127
Y0
Y000127
X-00127
X-001397
Y000254
X-001524
Y000381
X-001651
X-001778
Y000254
X-001905
Y000381
X-002032
X-002159
Y000508
X-001905
Y000635
Y001
X-00197
X-0020375
X-002195
X-002275
X-0024125
Y00125
Y001375
X-00241283Y00150074
X-0024125Y001625
Y00175
Y001875
X-0022875Y001625
X-0021625Y0015
Y001375
X-0020375Y0015
X-0019Y00175
X-001775
Y001875
X-00165
X-001525Y00175
Y001625
X-0014
X-001275
Y0015
X-0014
Y00125
X-001525
X-0015225Y001
X-0015875
X-00165008Y00100005
X-001775Y001
X-0014
X-001275Y000875
X-00127Y000508
Y000381
X-001397
X-001524Y000508
X-001651
X-001524Y000635
X-001143
Y000508
Y000381
X-001016
X-000889
Y000508
X-000762
X-000635
Y000381
X-000508
Y000508
X-000381
Y000635
Y000381
X-000254
Y000254
Y000127
X-000381
Y000254
X-000508
X-000635
X-000762
Y000381
Y000635
X-0006375Y000875
X-0005125
X-00025
X-0003875Y0015
X-0005125
X-0008875Y001125
X-0010125Y001
X-001016Y000254
X-001143
X-00127
Y0
X-001397
X-001524
Y000127
X-001651
Y000254
Y0
X-001778
X-001905
Y000127
X-002032
Y000254
X-002159
Y000127
Y0
X-002032
Y-000127
X-001905
Y-000254
X-001778
X-001651
Y-000381
X-001778
Y-000127
X-001651
X-001524
X-001397
X-00127
X-001016
Y0
X-000889
X-000762
Y000127
X-000635
Y0
X-000508
X-000381
X-000254
Y-000127
X-000381
Y-000254
X-000508
X-000635
X-000762
Y-000127
X-000889
X-000635
X-000508
Y-000381
X-000381
Y-000508
Y-000635
X-000635Y-000508
X-000762
Y-000381
X-000635
X-000762Y-000635
X-000889Y-000508
X-001143
X-00127
X-001143Y-000635
X-001524
X-001397Y-000381
X-001016Y000127
X-000889
Y000254
X-000508Y000127
X-000254Y-000254
Y-000381
X-00025Y-00125
Y-001875
Y-0019975
X-00037471Y-00199993
X-000375Y-001875
X-0006375Y-002
X-0007625
X-0008875
X-0010125
Y-00175
X-0011375
X-0010125Y-00125
X-001778Y000127
X-002413
X-002286Y000381
X-00254Y000508
X-002675Y0010075
X-0027625
Y0011175
X-002675
Y0015075
X-0027625Y0015075
Y0016175
X-002675
X-0032Y0017
X-0033
Y0016
Y0015
Y0014
X-0032
Y0013
X-0033
Y0012
X-0034
X-0035
X-0036
Y0013
Y0014
X-0035
X-0034
Y0015
X-0035
Y0016
X-0034
Y0017
X-0035
X-0036
Y0016
Y0015
X-0037
Y0016
X-0038
Y0015
X-0039
Y0016
X-004
Y0015
X-0041
Y0016
Y0017
Y0018
X-004
X-0039
X-0038
Y0019
X-0037
Y0018
Y0017
X-0038
X-0039
X-004
Y0019
X-0039
X-0041
Y0014
X-004
X-0039
Y0013
X-0038
X-0037
Y0014
X-0038
Y0012
X-0039
X-0037
X-0036925Y0010375
X-0036875Y00079
X-0036075
X-0034575
X-003365Y00079
X-0036Y0005
X-0037
Y0004
X-0038
X-0039
X-004Y0002
Y0001
X-004Y0
X-0039
X-00381Y-0003475
X-00365Y-00045
X-0030375Y0000625
X-002159Y-000127
X-0032Y0012
X-0034Y0013
X-0035
Y0018
X-0034
Y0019
X-0035
X-0036
Y0018
X-0041Y0008
Y0006
X-004
X-0011375Y00175
X-0010125
X0Y001125
Y00075
Y000635
Y000508
X-000127
Y000381
Y000254
Y000127
Y0
X0
Y000127
Y000254
X000127
X000254
X000381
Y000381
Y000508
Y000635
X0003875Y00075
X000125
Y000875
X00025Y0009875
X0005125
X0006375Y001125
X000762Y000635
Y000508
X000635
Y000381
X000508
Y000254
X000635
X000762
X000889
Y000381
X001016
X001143
Y000254
X00127
Y000381
X001397
Y000508
X001524Y000635
Y000381
Y000254
X001651
X001778
X001905
X002032
Y000381
X002159
X002286
Y000508
X002413
X00254
Y000635
X002413
X002286
X002159Y000508
X001905
X001778
Y000381
X001651
X001905
Y000635
Y000127
Y0
X002032
X002159
Y000127
Y000254
X002286
Y000127
X002413
X00254
Y000254
Y000381
X002413
Y000254
Y0
X00254
Y-000127
Y-000254
Y-000381
Y-000508
X002413
X002286
Y-000635
X002413
X00254
X002413Y-000381
Y-000254
X002286
X002159
X002032
X001905
Y-000127
X002032
X002159
X002286
Y0
X002413Y-000127
X002286Y-000381
X002159
Y-000508
X001905
Y-000381
X002032
X001778
Y-000254
X001651
X001524
Y-000127
Y0
X001651
X001778
Y000127
X001651
X001524
X001397
Y000254
Y0
X00127
X001143
Y000127
X00127
Y-000127
Y-000254
X001143
Y-000127
X001016
Y0
X000889
X000762
Y000127
X000635
Y0
X000508
X000381
Y000127
X000254
Y0
X000127
Y000127
Y000381
X000254
Y000508
X0Y000381
Y-000127
X-000127
Y-000254
X0
X000127
X000254
X000381
X000508
Y-000381
X000635
Y-000508
X000762
Y-000381
X000889
X001016
Y-000254
X000889
X000762
Y-000127
X000889
Y000127
X001016
Y000254
Y000508
X001143
Y000635
X000762Y000381
X000508Y000127
Y-000127
X000381
X000254
X000127
Y-000381
X0
Y-000508
X-000127
Y-000381
X0Y-000635
X000254Y-000508
X000381
Y-000381
X000254
X000381Y-000635
X000762
X001016Y-000508
X001143
Y-000381
X00127
X001397
X001524
Y-000508
Y-000635
X001397Y-000508
Y-000254
Y-000127
X001651
X001778
Y-000508
X001905Y-000635
X0019125Y-001125
X0020375
Y-00125
Y-001375
X0019125
Y-00125
X0021625Y-001375
Y-0015
X0020375
X001775
X00165
X001525
X0014
Y-00125
X001275
X0008875
X0006375Y-0011275
X0005125
Y-00125
X0003875Y-001375
Y-0015
Y-001625
X0005125
Y-001875
Y-002
X0003875
X0006375Y-001875
X000125
X0
X000125Y-001625
X00025
Y-0015
X000125
Y-00125
X000635Y-000254
Y-000127
X001143Y-000635
X001651Y-000381
X002032Y000127
X0019Y00125
X001775
X0021625Y001375
X0022875
X0024125
X0024375Y0016325
X00235
X0022625
X0022625Y0017425
X00235
X0024375
X0027175Y001825
X0032725Y0016175
X00325Y00135
X0034275Y0013725
X0032425Y00111
X00305Y00125
Y00095
X0030075Y0007825
X0032425Y0007325
Y0006675
X00324Y0005375
X0033075Y0007825
X0035425Y0007325
Y0006675
X0036075Y0007825
X0038Y00097
X0025375Y001125
X0008875Y001625
X0007625
X0008875Y00175
X0010125
X001525Y-001625
X00165
Y-00175
X001775
X00266Y-001375
X0026625Y-0011125
X00305Y-00125
Y-00155
X00324Y-0014
X003275Y-0011525
X0032575Y-0007425
Y-0006775
X0031925Y-0007925
X0029575Y-0007425
Y-0006775
X003225Y-00045
X0035575Y-0006775
Y-0007425
X0034925Y-0007925
X0037925
X0032325Y-0018125
X0039475Y-00124
X004325Y-001325
X004475Y-001325
X004625Y-001325
X004775Y-001325
X0046925Y-0007925
X0044575Y-0007425
Y-0006775
X0043925Y-0007925
X004225Y-00088
X0041575Y-0007425
Y-0006775
X0040925Y-0007925
X0038575Y-0007425
Y-0006775
X004315Y-0004025
X00432Y0004725
X0044425Y0006675
Y0007325
X0045075Y0007825
X0047425Y0007325
Y0006675
X00477523Y00081254
X004775Y0013225
X004625Y001325
X004475
X004325Y0013225
X0042075Y0007825
X0041425Y0007325
Y0006675
X0038425
Y0007325
X0039075Y0007825
X0049875Y0014375
X0050075Y0018225
X0051975Y00183
X005815Y0018775
X0066825Y00176
X00715Y00174
X00718Y00131
Y00122
Y00113
Y00104
X00719Y00092
Y00081
Y0007
Y0006
Y00049
Y00038
X00746
Y00049
Y0006
Y0007
Y00081
Y00092
X00763Y00092
Y00081
Y0007
Y0006
Y00049
Y00038
X00767Y-00033
Y-00044
Y-00055
Y-00065
Y-00076
Y-00087
X0075Y-00087
X0074Y-00087
Y-00076
X0075Y-00076
Y-00065
Y-00055
X0074Y-00055
Y-00065
X00723Y-00065
Y-00055
Y-00044
Y-00033
X0074Y-00033
X0075Y-00033
Y-00044
X0074Y-00044
X00723Y-00076
Y-00087
X0073Y-00107
Y-00116
Y-00125
Y-00134
X00714Y-00134
Y-00125
Y-00116
Y-00107
X00694Y-00107
Y-00116
Y-00125
Y-00134
X0075Y-00134
Y-00125
Y-00116
Y-00107
X007185Y-001955
X007085Y-001955
X0069975Y-0019125
X006805Y-00181
X0064625Y-001945
X0062925Y-0020125
X0060625Y-001945
X0058925Y-0020125
X0056725Y-001945
X0054925Y-0020125
X0052625Y-001945
X0050925Y-0020125
X0048625Y-001945
X00469245Y-00201241
X004575Y-002
X004475Y-001875
X0066825Y-00037375
X00682Y00104
Y00113
Y00122
Y00131
X00702Y00131
Y00122
Y00113
Y00104
X00738
Y00113
Y00122
Y00131
X0055825Y001095
X00789Y0010975
Y0009875
X00806Y0009875
X00816Y0009875
Y0010975
X00806Y0010975
Y0012075
X00816Y0012075
Y00142
X00806Y00142
Y00153
X00816Y00153
Y00164
X00806Y00164
X008338Y001662
X008465
X008592
Y001535
Y001408
Y001281
X008719
Y001154
Y001027
X008592
X008465
Y001154
X008338
Y001027
X00834Y0009
X008338Y000773
X008465
X008592
Y000646
X008719
X008846
Y000519
X008973
Y000392
Y000265
Y000138
X008846
Y000265
Y000392
X008719
Y000519
Y000773
X008846
X008973
Y000646
X009227
Y000773
X009354
X009481
X009608
X009735
X009862
Y000646
X009735
X009608
X009481
Y000519
X009354
Y000646
X009227Y000519
Y000392
X009354
X009481
Y000265
Y000138
X009354
Y000265
X009227
Y000138
Y-000138
X009354
Y-000265
Y-000392
X009227
Y-000519
Y-000646
Y-000773
X009354
X009481
X009608
X009735
X009862
Y-000646
X009735
Y-000519
Y-000392
Y-000265
Y-000138
X009608
X009481
Y-000265
X009608
Y-000392
X009481
Y-000519
Y-000646
X009354
Y-000519
X009608
X009862
Y-000392
Y-000265
Y-000138
X01004Y-00016
X01014Y-00016
Y-00027
Y-00034
X01004
Y-00027
X01031
Y-00034
Y-00016
X010685Y-0002075
X01075
X01093Y-00035
Y-00046
Y-00057
Y-00067
Y-00078
Y-00089
X0108675Y-001065
Y-001155
Y-001245
Y-001335
X0110275Y-001335
Y-001245
Y-001155
Y-001065
X0112275Y-001065
Y-001155
Y-001245
Y-001335
X0113Y-00144
Y-00153
Y-00162
Y-00171
X0115Y-00171
Y-00162
Y-00153
Y-00144
X0114175Y-00183
X010925Y-00181
X0109125Y-00194
X0108125
X01031Y-00196
X01014Y-00196
X01004Y-00196
X009862Y-001938
X009735
X009608
X009481
X009354
X009227
X008973
X008846
X008719
X008592
X008465
X008338
X00816Y-00196
X00806Y-00196
X00789Y-00196
X0078925Y-0011575
X00789453Y-00104953
X0078925Y-0009575
X0080625Y-0009575
Y-0010475
Y-0011575
X008338Y-001154
Y-001027
X008465
X008592
Y-001154
X008719
Y-001027
X008846
Y-001154
X008973
Y-001281
X008846
Y-001408
Y-001535
X008973
Y-001408
X009227
X009354
Y-001281
X009481
Y-001154
Y-001027
X009608
X009735
X009862
Y-001154
X009735
X009608
X009354
Y-001027
X009227
Y-001154
Y-001281
Y-001535
X009354
X009481
Y-001408
Y-001662
X009354
X009227
X008973
X008846
X008719
Y-001535
Y-001408
Y-001281
X008465Y-001154
X0082775Y-0013
Y-00141
Y-00152
X008338Y-0009
Y-000773
Y-000646
Y-000519
Y-000392
X008465
X008592
Y-000265
Y-000138
X008719
Y-000265
Y-000392
Y-000519
X008592
X008465
Y-000646
Y-000773
X008592
X008719
Y-000646
X008846
Y-000773
X008973
Y-000646
Y-000519
X008846
Y-000392
X008973
X008846Y-000265
Y-000138
X008973
X008465
Y-000265
X008338
Y-000138
X00816Y-00016
X00806Y-00016
Y-00027
Y-00034
X00816Y-00034
Y-00027
X00789
Y-00034
Y-00016
X008275Y00028
Y00039
Y0005
X008338Y000646
X008465
X008719Y000265
Y000138
X008846Y001027
X008973
Y001154
Y001281
Y001408
Y001535
Y001662
X008846
Y001535
X008719
Y001408
X008846
Y001281
Y001154
X009227
Y001281
X009354
Y001154
X009481
Y001027
X009608
X009735
Y001154
X009862
Y001027
X01004Y00108
X01014Y00108
Y00119
X01004Y00119
Y00097
X01014Y00097
X01031Y00097
Y00108
Y00119
X01035Y00144
Y00153
Y00162
Y00171
X01055Y00171
Y00162
Y00153
Y00144
X01014Y00142
X01004Y00142
Y00153
X01014Y00153
Y00164
X01004Y00164
X009862Y001662
Y001535
Y001408
Y001281
X009735
X009608
Y001408
X009735
Y001535
X009608
X009481
Y001408
X009354
Y001535
Y001662
X009481
X009608
X009735
X009227
Y001408
Y001027
X009354
X009481Y001281
X008465
X00834105Y00128405
X008338Y001408
Y001535
X008465
Y001408
X008719Y001662
X00789Y0012075
X0099225Y0005
Y00039
Y00028
X01093Y00036
Y00047
Y00058
Y00068
Y00079
Y0009
X01107Y00107
Y00116
Y00125
Y00134
X01127Y00134
Y00125
Y00116
Y00107
X01142306Y00107505
X01143Y00116
Y00125
X01163Y00125
Y00116
X01163057Y00108505
X01159Y00089
X01137Y0009
Y00079
Y00068
Y00058
Y00047
Y00036
X0116025Y0002925
X0116525Y00048
X01155Y000675
X01163Y00134
X0112275Y001835
X0107275Y0018825
X01027Y001905
X0106Y-0005
X010685Y-0005125
X0106Y-0007025
X01045Y-0007925
X010305Y-0009475
Y-0010375
Y-0011475
X010135Y-0011475
Y-0010375
X01013578Y-00094829
X0098625Y-0009
X0099225Y-0013
Y-00141
Y-00152
X0103375Y-0014275
X01033Y-0017575
X0102525Y-00172
X0106675Y-001335
Y-001245
Y-001155
Y-001065
X01137Y-00089
Y-00078
Y-00067
Y-00057
Y-00046
Y-00035
X0114225Y-0001975
X011425Y0
X0116Y-0007425
X0117
X0116Y-00097
X008973Y-001027
X0118Y-0007425
X0119
X0121Y-0007
Y-0005
Y-0003
Y-0001
Y0001
Y0003
X011995Y0003
X0118275Y0002
X0118325Y0000025
X01183Y-0002
X011835Y0006025
X0118225Y0007925
X0117625Y001005
X01193Y00109
X0121Y0011
Y0013
Y0015
Y0017
Y0019
X01187Y001865
X0121Y0009
Y0007
Y0005
Y-0009
Y-0011
Y-0013
Y-0015
Y-0017
Y-0019
Y0021
Y0023
Y0025
Y0027
Y0029
Y0031
Y0033
Y0035
Y0037
Y0039
Y0041
Y0043
Y0045
Y0047
Y0049
X0119
X0119Y0032075
X0118
X0119Y002985
X0117Y0032075
X0116
X01098Y00317
Y00306
X01081Y00306
X01071Y00306
Y00317
X01081Y00317
Y00328
Y00338
X01071Y00338
Y00328
X01054Y00328
Y00338
Y00349
Y0036
X01071Y0036
X01081Y0036
Y00349
X01071Y00349
X01098
Y00338
Y00328
Y0036
X01046503Y00389503
X01036Y0039
X01025Y0039
X01014
X00992Y00391
X00981
X0097
X0097Y00374
X0097Y00364
X00981
X00981Y00374
X00992
X00992Y00364
X009862Y003462
Y003335
Y003208
Y003081
X009735
X009608
X009481
X009354
X009227
Y002954
Y002827
X009354
X009481
Y002954
X009354
Y003208
X009481
X009608
X009735
Y003335
X009608
X009481
Y003462
X009608
X009735
X009354
Y003335
X009227Y003462
X008973
X008846
Y003335
X008719
Y003208
Y003081
X008846
X008973
Y002954
Y002827
X008846
X008719
Y002954
X008846
Y003208
X008973
X009227
Y002573
Y002446
X009354
X009481
X009608
X009735
Y002573
X009862
Y002446
X0099225Y0023
Y00219
Y00208
X0101625
X01014Y0025875
Y0026975
Y0028075
X01031Y0028075
Y0026975
Y0025875
X0103875Y0026425
X0104925Y0025975
Y0025075
Y0026875
Y0027775
X0106925Y0027775
Y0026875
Y0025975
Y0025075
X0108525Y0025075
Y0025975
Y0026875
Y0027775
X0110525Y0027775
Y0026875
Y0025975
Y0025075
X0114625Y00246
X011495Y00263
X0115275Y0023125
X01152Y00206
X011485Y001955
X011385Y001955
X011225Y0019475
X01128Y00208
Y00226
X0113Y002805
X01054Y00306
Y00317
X009862Y002954
X009735
Y002827
X009862
X0098625Y0027
X009608Y002827
Y002573
X009481
X009354
Y002319
X009227
Y002192
X009354
X009481
Y002319
Y002065
Y001938
X009354
X009227
Y002065
X009354
X008973
Y001938
X008846
X008719
X008592
X008719Y002065
Y002192
Y002319
Y002446
X008592
X008465
Y002573
X008338
Y002446
X0082775Y0023
Y00219
Y00208
X00785Y00209
Y00218
Y00227
Y00236
X00788Y00276
Y00287
Y00298
X00805Y00298
X00815Y00298
Y00287
X00805Y00287
Y00276
X00815Y00276
X008338Y002827
Y002954
Y003081
X008465
X008592
Y003208
Y003335
Y003462
X008465
X008338
Y003335
X008465
Y003208
X008338
X00817Y00323003
X00807Y00323003
Y00334003
X00817Y00334002
Y00345003
X00807Y00345003
X00785Y00342
Y00351
Y00333
Y00324
X008465Y002954
Y002827
X008592
Y002573
X008719
X008846
Y002446
X008973
Y002319
X008846
Y002192
X008973
X008846Y002065
X008973Y002573
X008719Y003462
X00878Y00397
X00893Y00397
X00908
X00893Y0046425
X0089Y0049
X0087
X0085
X0083
X0081
X0079
X0091
X0093
X0095
X0097
X0099
X0101
X0103
X0105
X0107
X0109
X0111
X0113
X0115
X0117
X01047Y00466
X0105225Y00449
X01035Y00454
X01017Y00434
X01068255Y00199747
X0116425Y0019525
X00765Y00209
Y00218
Y00227
Y00236
X00757Y00239
Y00228
Y00217
X00740005Y00217005
X0074Y00228
Y00239
X007425Y0025325
Y0026225
Y0027125
X007585Y0027125
X007645Y0027125
Y0026225
X007585Y0026225
Y0025325
X007645Y0025325
X0072875Y0022825
X007245Y001925
X007145Y001925
X0070325Y0019225
X006825Y0023575
X006645Y00236
X00647Y0023725
X006365Y0024575
X0063Y002305
Y002205
X00632Y001965
X00592
X0059Y002205
Y002305
X005825Y0023875
X005815Y00246
X00567Y0023725
X0055Y002305
Y002205
X00552Y001965
X00512
X0051Y002205
X0050325Y0021875
X0051Y002305
X00527Y0023725
X00522Y0024575
X00525Y0027
X00515783Y0027075
X005285Y00294
X0052325Y00305
X005223Y003238
X005096
X004969
Y003365
X005096
X005223
Y003492
Y003619
Y003746
X005096
Y003873
X004969
X004842
Y003746
X004969
Y003619
X005096
Y003492
X004969
Y003055
X0048Y0029925
X004625Y00295
X00457Y0031625
X00450022Y00311515
X004425Y003125
X0045275Y00338
Y00349
Y0036
X004588Y003746
Y003873
X004715
Y003746
Y004127
Y004254
X004588
Y004127
X004842
X004969
Y004254
Y004381
Y004508
Y004635
Y00476
X004842
Y004635
X004715
Y00476
X004588
Y004635
Y004508
Y004381
X004715
X004842
Y004508
X004715
X005096
Y004635
Y00476
X005223
X0053Y0049
X0051
X0049
X0047
X0045
X0043
X0043Y00476
X0044Y00476
Y00465
X0043Y00465
Y00456
X00413Y00456
Y00465
Y00476
X004045Y004745
X00396Y00474
Y00463
Y00452
Y00442
Y00431
Y0042
X00413Y00419
Y00408
Y0043
X0040475Y003875
Y003785
Y003695
Y003605
X0042475Y003605
Y003695
Y003785
Y003875
X0038875
Y003785
Y003695
X004325Y0035575
X003915Y0031275
X0039325Y003
X0038325Y003
X0040327Y00288264
X0040675Y0027925
X0040302Y00268513
X00390019Y00249262
X0043675Y0023575
X004565Y0024125
X0047Y002305
Y002205
X00472Y001965
X0044475Y00213
X00487Y0023725
X00465Y0027
X0045675Y0027075
X0054Y00299
X0055675Y003055
X005604Y003238
Y003365
X005731
Y003492
Y003619
Y003746
Y003873
X005858
X005985
X006112
Y003746
X005985
X005858
X005604
Y003873
X005477
Y003746
Y003619
X005604
Y003492
X005477
Y003365
Y003238
X005731
X0058375Y00305
X0058875Y00294
X006Y00299
X00611Y0030525
X0061725Y00338
Y00349
Y0036
X006112Y004127
Y004254
X005985
Y004127
X005858
X005731
Y004254
X005604
X005477
Y004381
X005604
Y004508
X005731
X005858
Y004381
X005985
X006112
Y004508
X005985
Y004635
Y00476
X006112
Y004635
X0063Y00465
X0064Y00465
Y00456
X00657Y00456
Y00465
Y00476
X0064Y00476
X0063Y00476
Y0049
X0065
X0067
X0069
X0071
X0073
X0075
X0077
X00718Y00464502
Y00453503
Y00442503
Y00433
Y00422
Y00411
X00701Y00411
X00691Y00411
Y00422
X00701Y00422
Y00433
Y00442503
X00691Y00442503
Y00433
X00674Y00433
Y00442503
Y00453503
Y00464502
X00691Y00464502
X00701Y00464502
Y00453503
X00691Y00453503
X00674Y00422
Y00411
X00657Y00409
Y0042
Y00431
X0067975Y0038075
Y0037175
Y0036275
X0069975Y0036275
X00700234Y00354234
X0071575Y0035375
Y0036275
Y0037175
Y0038075
X0069975Y0038075
Y0037175
X0073575
Y0036275
Y0035375
X00739Y00343
Y00332
Y00321
X00756Y00321
Y00332
X00765Y00333
Y00342
Y00351
X00756Y00343
X00765Y00324
X00704422Y00307922
X0070675Y0029575
X0069675
X0069Y00286
Y00277
Y00268
Y00259
X0067Y00259
Y00268
Y00277
Y00286
X0066175Y002835
X00645Y002845
X0064025Y0027
X0063175Y0027075
X00585Y0027
X0057675Y0027075
X00607Y0023725
X0065425Y0030925
X0073575Y0038075
X005604Y004127
X005477
X005223
Y004254
Y004381
Y004508
X00535Y004635
X005477Y00476
X005604
Y004635
X005731
Y00476
X005858
Y004635
X0059Y0049
X0061
X0057
X0055
X005477Y004508
X005731Y004381
X005096
Y004254
Y004127
X0051Y004
X005223Y003873
X0041Y0049
X0039
X0037
X00369Y00474
X00379Y00474
Y00463
X00369Y00463
Y00452
Y00442
X00379Y00442
Y00452
Y00431
X00369Y00431
Y0042
X00379Y0042
X00352
Y00431
Y00442
Y00452
Y00463
Y00474
X0035Y0049
X0033
X0031
X0029
X0027
X0027375Y00481
X0025Y0049
X0023
X0023675Y00481
X0021Y0049
X0019
X001825Y0048
X0017Y0049
X0015
X0013
X0011
X0009
X0007
X0005
X0003
X0001
X-0001
X-0000725Y004375
X00000551Y00425
X000074
X000328
X0004525
X000582
X00048Y004
Y003875
X0005125Y0036175
X0003875
X000175Y003625
Y00375
X000125Y0035
X00025
X0003875Y003375
Y00325
X0005125Y003375
X0006375Y003625
X0007625Y003
X0008875
X0007625Y00275
X0006375
X0005125
X00025Y0025
Y002375
X-000125Y0025
Y002875
X0Y003
X000125
Y002875
X00025Y003
X0008875Y0025
Y00225
Y002125
X0010125Y00225
X00115Y002125
X001275
Y002
X0014
X001525
Y002125
X0014
Y00225
X001275
X00115Y002625
Y00275
X001275
X00165Y003125
Y00325
Y003375
X001525
X0019
Y00325
X001775
Y003125
X0019125Y0035
X0020375
X0021625
X002225Y0035225
Y0036025
X0020475Y003625
Y00375
X0020975Y0039075
X001945Y004185
X001947Y00425
X00182
X001693
X0018225Y0044575
X002201Y00425
X0021625Y003375
X002675Y0035
X002805Y0031875
X0028225Y0038125
X0036875Y003785
Y003875
Y003695
Y003605
X0036Y0036875
X0035925Y0031875
X0034125Y003085
X0035875Y0028875
X0037875Y0029025
X00379Y0026425
X003135Y0023525
Y00215
X00272Y002175
X0027875Y002
X0028225Y002365
X0024375Y00224
X00235
X0022625
X0022625Y00213
X00235
X0024375
X00169374Y00362544
X-00025Y003625
X-00043326Y00362544
X-000375Y003125
X-00025
Y002875
Y002625
X-000375
X-00025Y0025
X-0005125Y00275
X-0006375
Y003
X-0007625
X-0008875Y003125
X-0010125
Y003375
Y0035
X-0011375
X-0007625Y00325
X-0006375
Y00225
X-0005125
X-0008875Y002375
X-0010125
X-0011825Y0023675
X-00127
X-0013575
X-0013575Y0022575
X-00127
X-0011825
X-00165Y00225
X-001775
Y002375
X-0019
X-0024125
Y00225
Y002125
X-0024125Y002
X-0022875
X-0021625
X-0020375
X-00226Y0026275
X-00234Y0026275
X-0024125Y002625
Y0025
X-0025375
Y00275
X-0026625
X-0024125Y0027525
Y002875
Y003
X-00234Y0029975
X-00226Y0029975
X-00226Y0031275
X-00234Y0031275
X-0024125Y003125
Y00325
X-0024175Y003375
X-0024125Y0035
X-00234Y0034975
X-00226Y0034975
X-00226Y0036275
X-00234Y0036275
X-00234Y0039975
X-00226Y0039975
X-002025Y004125
X-001825
X-001625
X-001425
X-001225
X-001525Y00425
X-001725
X-001925
X-0019Y0049
X-0021
X-0023
X-0025
X-0027
X-0029
X-0031
X-0033
X-0035
X-0037
X-0039
X-0041
X-00405Y004625
X-0039175
X-00386Y0043675
X-00375
X-00364
X-00364Y0042575
X-00375
X-00386
X-0035Y00425
Y004375
X-0034Y0038
X-0033
X-0032
X-0033Y0036
X-0034
Y0035
X-0035
Y0036
X-0036
Y0035
X-0037
Y0036
Y0037
X-0036
X-0035
X-0037Y0038
X-0038Y0036
Y0035
X-0039
Y0036
X-004
X-0041
Y0035
X-004
Y0034
X-0041
Y0033
X-004
Y0032
X-0041
Y0031
Y003
X-004
Y0031
X-0039
Y003
X-0038
Y0031
X-0037
Y003
Y0029
X-0038
Y0028
X-0039
X-004
X-0041
Y0027
X-004
Y0026
X-0041
X-0039
Y0027
X-0038
Y0026
X-0037
Y0027
X-0036
Y0026
X-0035
Y0027
X-0034
Y0026
X-0033
Y0027
X-0032
X-0033Y0029
Y003
Y0031
X-0034
Y003
X-0035
Y0031
X-0036
Y003
X-0035Y0029
X-0034
Y0032
X-0035
X-0036
Y0033
X-0035
X-0034
Y0034
X-0035
X-0036
X-0037
X-0038
X-0039
Y0033
Y0032
X-0038
X-0037
Y0033
X-0038
X-0039Y0029
X-004
X-0041
X-0037Y0028
Y0024
X-0038
Y0023
Y0022
Y0021
Y002
X-0039
X-004
Y0021
X-0039
Y0022
X-004
Y0023
X-0039
Y0024
X-004
X-0041
Y0023
Y0022
Y0021
Y002
X-0037
Y0021
X-0036
Y002
X-0035
X-0034
Y0021
X-0035
Y0022
X-0034
Y0023
X-0035
X-0036
X-0037
Y0022
X-0036
Y0024
X-0035
X-0034
X-0033Y0022
X-0032
X-0033Y0021
Y002
X-0032Y0033
X-004Y0037
X-0041
X-0039925Y004
X-0017Y0049
X-0015
X-0013
X-0011
X-0009
X-0007
X-0005
X-0003
X-0003625Y00425
X-000434
X-00018
X-0014Y002625
X-001525
Y00275
X-0042Y0028
Y0029
X-0043
Y003
Y0031
X-0044
Y003
Y0029
Y0028
X-0043
Y0027
X-0042
Y0026
X-0043Y0025
Y0024
X-0044
Y0023
X-0043
Y0022
X-0044
Y0021
X-0043
Y002
X-0044
X-0042
Y0021
Y0022
Y0023
Y0024
X-0046Y0024
Y0023
X-0047
Y0024
X-0048
Y0023
X-0049
Y0024
X-005
Y0023
X-0051
Y0024
X-0052
Y0023
X-0053
Y0024
X-0054
X-0055
X-0056
X-0057
Y0023
X-0058
Y0024
Y0026
Y0027
Y0028
Y0029
Y003
Y0031
X-0057
Y003
Y0029
X-0056
X-0055
X-0054Y003
X-0053
X-0052
Y0029
X-0051
Y003
X-005
Y0029
X-0049
Y003
X-0048
Y0031
Y0032
X-0049
X-005
X-0051
Y0033
X-005
X-0049
Y0034
Y0035
X-0048
Y0034
X-0047
X-0046
Y0035
X-0047
Y0036
X-0046
Y0037
X-0047
Y0038
X-0046
X-0048
X-0049
Y0037
X-0048
Y0036
X-0049
X-005
X-0051
Y0035
Y0034
X-005
Y0035
X-0052
Y0034
Y0033
Y0032
Y0031
X-0051
X-005
X-0049
X-0047
X-0046
Y003
X-0047
Y0029
Y0028
X-0046
X-0045Y0028
Y0026
X-0044Y0026
Y0027
X-0046Y0026
X-0047
X-0048
X-0049
Y0027
X-005
X-0051
X-0052
Y0028
X-0053
X-0054
X-0055Y0027
X-0056
X-0057
Y0026
X-0056Y0025
X-0055
X-0054Y0026
X-0053
X-0052
X-0051
X-005
Y0028
X-0051
X-0049
X-0048
X-0047Y0032
X-0046
Y0033
X-0047
X-0048
X-0044
Y0032
X-0043
Y0033
X-0042
Y0032
Y003
Y0034
X-0043
X-0044
Y0035
Y0036
Y0037
X-0043
Y0038
X-0044
X-0042
Y0037
Y0036
Y0035
X-0043
Y0036
X-0042Y00425
X-004185Y004625
X-0044Y0045
X-0045Y0049
X-0043
X-0047
X-0049
X-0051
X-0053
X-0055
X-0057
X-0059
X-0061
X-0063
X-0065
X-0067
X-0069
X-0071
X-0073
X-0075
X-0077
X-0079
X-008Y004375
X-0077125
X-00755
X-007425Y0039
X-0073
Y0038
X-007175
X-006925Y0037
X-0068
Y0036
X-006675
Y0035
X-00655
X-006425Y0033
X-0063
X-0057Y0033
Y0034
Y0035
X-0058
Y0036
Y0037
Y0038
X-0057
X-0056
X-0055
X-0054
X-0053
X-0052Y0037
X-0051
X-005
Y0038
X-005Y0040075
X-0051Y0041325
X-0048Y004125
X-0046
X-0049Y00425
X-0053Y00438
Y0036
X-0052
X-0054
X-0055
Y0035
X-0056
Y0036
Y0037
X-0055
X-0057
Y0036
Y0032
X-0056Y0031
X-0055
X-0054Y0032
Y0033
Y0034
X-0053
Y0032
X-0057Y0028
X-0056Y0023
X-0055Y0023
X-0054Y0023
Y0022
X-0053
X-0052
X-0051
X-005
X-0049
Y0021
X-005
X-0051
Y002
X-0052
Y0021
X-0053
X-0054
X-0055
X-0056
X-0057
X-0058
X-006175Y00203
Y00197
X-006425Y0021
X-00655
Y0022
X-006675
X-0068Y002
X-006925
Y0032
X-00705
X-007175
X-0073
Y003
X-007425
X-00755Y00275
X-007675
X-00797
X-0078225Y00238
Y00232
X-008065Y00228
X-00705Y003505
X-006925
X-00655Y0039
X-006425
X-006595Y0042625
X-0066875Y004375
X-0068325Y0046475
X-0071675
X-005Y002
X-0049
X-0048
Y0021
X-0047
X-0046
Y0022
Y002
X-0047
X-00817693Y00201
X-0081775Y00207
X-00816Y001915
X-008135Y00228
X-0082Y00228
X-00828
X-0081725Y002405
Y002475
X-00817882Y00257
Y00263
X-00817261Y00273
Y00279
X-00817Y00299
X-0081
X-00828Y003
Y00292
X-00844Y00284
X-00852
X-00852Y00292
X-0086
X-00852Y003
X-00844
X-008725Y003015
X-008795
X-00884Y00292
X-00892
X-00908
X-00916
X-009115Y0030525
X-009045
X-00921
X-00927
X-009365Y0030125
X-0094325
X-0095325Y003015
X-0095925
X-00964Y00284
X-00964Y00276
X-00972
Y00284
X-0098
Y0026
X-00972
Y00268
X-00964
X-00964Y0026
Y00244
X-00956035Y00244014
Y00236014
X-00948Y00236
X-0094
X-00932
Y00244
X-00924
Y00236
X-00916Y00236
Y00228
X-00924
X-00932
X-0094
X-0094Y00212
Y00204
X-00932
X-00924
X-00916
X-00908
Y00212
X-00916
X-00932
X-00948
X-00956
Y00204
X-00948
Y00196
X-00964Y00204
Y00212
X-00972
X-00972Y00204
X-0098
Y00196
X-00972
X-00972Y00228
X-00964
X-0098
X-0099025
X-0099625
X-0100625Y002235
Y002165
X-00993Y0021225
X-00972Y00244
X-00948
X-0094
X-00948Y0026
X-0094Y00276
X-00916Y0026
X-00908
Y00252
Y00244
Y00236
Y00228
X-00892
Y00236
Y00244
Y00252
Y0026
X-00884Y0026
X-00884Y00252
Y00244
X-00876
Y00252
X-00868
Y00244
Y00236
X-00876
Y00228
X-00868
X-00884
Y00236
Y00212
X-00892
X-0089225Y002045
X-00892Y00196
X-00884Y00196
Y00204
X-00876
X-00868
Y00212
X-00876Y00212
X-00876Y00196
X-00868
X-00908Y00196
X-00916Y00196
X-00844Y00212
X-00844Y0022
X-00844Y00236
X-00844Y00244
X-00844Y0026
X-00828
X-0086Y00252
X-00868Y00284
X-00876
X-0085875Y0037
Y0038
X-0086375Y0040075
X-008675Y004145
Y004395
X-008375Y0045
X-00829Y004375
X-0082875Y0047525
X-0083Y0049
X-0085
X-0087
X-0089
X-0091
X-0093
X-0095
X-0097
X-0099
X-0101
X-0103
X-0105
X-0107
X-0109
X-01094Y00477
X-01105
X-01105Y0046
X-01105Y0045
X-01094
X-01094Y0046
X-01083
X-01083Y0045
X-01083Y00433
X-01094
X-01105
X-01105922Y00416922
X-01106Y00408
Y00399
Y0039
X-01086Y0039
Y00399
Y00408
Y00417
X-0107Y00417
Y00408
Y00399
Y0039
X-0105Y0039
Y00399
Y00408
Y00417
X-0104025Y004245
X-0102925
X-0101825
X-0101825Y004075
X-0101825Y003975
X-0102925
X-0102925Y004075
X-0104025
X-0104025Y003975
X-0104025Y003805
X-0102925
X-0101825
X-0099925Y004
X-0098925
X-0096525Y00402
X-00948547Y00401453
X-009425Y0040075
X-009195Y004005
X-0092775Y0041375
X-00937Y0041875
X-009375Y0045625
X-0095875Y0044715
X-0096525Y00442
X-0098925Y0044
X-0099925
X-01006Y00457
Y00417
X-0097625Y0034075
Y0030875
X-009455Y0037025
X-009275Y00379
X-009195
X-009115
X-00905Y0036075
X-008825Y0038875
X-0081Y0049
X-01083Y00477
X-0111Y0049
X-0113
X-0115
X-0117
X-0119
X-01189Y00336997
Y00325998
Y00314998
X-01206Y00314997
Y00325997
Y00336997
X-011575Y00335
Y00346
X-011405Y00346
X-011305Y00346
Y00335
X-011405Y00335
Y00324
X-011305Y00324
X-011135Y00324
Y00335
Y00346
X-01087002Y00339998
X-010825Y003285
X-010925
X-0110525Y003205
X-0109675Y0029275
X-01095Y00263
X-01106
X-01117
X-0113Y00258
X-01139
X-01148
X-0116Y00264
Y00273
Y00282
Y00291
X-0118Y00291
Y00282
Y00273
Y00264
X-01148Y00236
X-01139
X-0113
X-01117Y00236
X-01106Y00236
X-01095Y00236
X-01083
X-01072
X-01061
Y00263
X-01072
X-01083
Y00209
X-01072
X-01061
X-01095
X-01106
X-01117
X-0113Y00214
X-01139
X-01148
X-011575Y00324
X-011225Y003785
X-012338Y003773
Y003646
X-012465
Y003773
X-012592
X-012719
Y003646
X-012846
X-012973
Y003773
X-012846
Y004027
Y004154
X-012719
X-012592
X-012465
X-012338
Y004027
X-012465
X-012592
X-012719
Y004281
Y004408
Y004535
Y0046475
X-012846
Y004535
X-012973
Y0046475
Y004408
X-012846
Y004281
X-012973
Y004154
Y004027
X-013227
Y004154
Y004281
Y004408
Y004535
Y004662
X-013354
Y004535
X-013481
Y004662
Y004408
X-013354
Y004281
Y004154
X-013481
Y004281
X-013608Y004154
X-013735
X-013862
Y004027
X-013735
X-013608
X-013481
X-013354
Y003773
Y003646
X-013227
Y003773
X-013481
Y003646
Y003519
X-013608
X-013735
Y003646
X-013862
Y003773
Y0039
X-01403Y0039
X-01413Y0039
Y00379
X-01403Y00379
Y00401
X-01413Y00401
X-0143Y00401
Y0039
Y00379
X-01432Y00351
Y00342
Y00333
Y00324
X-01452Y00324
Y00333
Y00342
Y00351
X-01487Y00336
Y00327
Y00318
Y00309
X-01507Y00309
Y00318
Y00327
Y00336
X-01523Y00336
Y00327
Y00318
Y00309
X-01543Y00309
Y00318
Y00327
Y00336
X-01544Y00401
X-01533
X-01533Y00418
X-01533Y00428
X-01544
X-01544Y00418
X-01555
X-01565
X-01565Y00428
X-01555
X-01555Y00445
X-01565
X-01576
X-01587
X-01587Y00428
X-01587Y00418
X-01576
X-01576Y00428
Y00401
X-01565
X-01555
X-01587
X-01544Y00445
X-01533
X-0152675Y00489
X-0151Y0049
X-0149
X-0147
X-0145
X-0143
X-0141
X-0139
X-0137
X-0135
X-0133
X-0131
X-0129
X-0127
X-0125
X-0123
X-0121
X-01227Y00452
Y00441
Y0043
X-012338Y003519
X-012465
X-012592
X-012719
Y003392
X-012846
Y003265
Y003138
X-012973
X-012719
Y003265
X-012592Y003265
Y003138
X-012465
X-012338
Y003265
X-012465
Y003392
X-012338
X-01216Y00336997
Y00325998
Y00314998
X-012592Y003392
X-012973
Y003519
X-012846
X-013227
X-013354
Y003392
X-013481
X-013608
X-013735
X-013862
Y003519
Y003265
X-013735
X-013608
X-013481
Y003138
X-013608
X-013735
X-013862
X-01404Y00316
X-01414Y00316
Y00327
X-01404Y00327
Y00338
X-01414Y00338
X-013735Y003773
X-013608
X-013354Y003265
Y003138
X-013227
Y003392
X-01313Y002405
X-01312Y002305
Y002005
X-0135075Y0020775
Y0021575
Y0022375
Y0023175
Y0023975
Y0024775
X-01368Y002545
X-01368Y002305
Y002005
X-0135075Y0019175
X-012685Y0021175
Y0021975
Y002535
X-012425Y0025175
Y0022775
Y0020375
X-014525Y002605
X-01479Y00275
X-01502Y0024725
X-015195Y002485
X-015295
X-0153375Y0021275
X-0154725Y00489
X-0157Y0049
X-0159
X-01394Y00452
Y00441
Y0043
X-0164
Y0041
Y0039
Y0037
Y0035
Y0033
Y0031
Y0029
Y0027
Y0025
Y0023
Y0021
Y0045
Y0047
Y0049
X-0163
X-0161
T02
X-013775Y-0028505
X-013305Y-0028495
X-012805
X-012345Y-0021375
Y-0016575
Y-0007125
Y-0002325
X-012555Y0
X-012345Y0007125
Y0011925
X-012805Y0014255
X-013305
X-013775
X-013555Y0
X-014555
X-015555
X-013775Y-0014255
Y0028505
X-012345Y0026175
Y0021375
T03
X0118Y-0039
Y-0029
X-001325Y-0045
X-002325
X0118Y-0001
Y0009
X01101Y0039275
X-001325Y0045
X-002325
T04
X-015055Y-00285
X-014055
X-016055
Y001425
X-015055
X-014055
X-014555Y-001425
X-015555
X-013555
X-012555
Y00285
X-013555
X-014555
X-015555
T05
X003Y-0034
Y-003146
X-01195Y-001724
Y-00147
Y-001216
Y001216
Y00147
Y001724
X005196Y001658
X00545
Y001404
Y00115
X005196
Y001404
Y000896
Y000642
X00545
Y000896
X006146
Y000642
X0064
Y000896
Y00115
Y001404
Y001658
X006146
Y001404
Y00115
Y-000642
X0064
Y-000896
X006146
Y-00115
X0064
Y-001404
Y-001658
X006146
Y-001404
X00545
Y-001658
X005196
Y-001404
Y-00115
X00545
Y-000896
Y-000642
X005196
Y-000896
X004679Y-000175
X004425
Y000175
X004679
X003Y003146
Y0034
T06
X008Y-0045
X00825Y-00425
X0085Y-004
Y-0045
X008Y-004
X00775Y-00425
X008Y004
X00825Y00425
X0085Y0045
Y004
X008Y0045
X00775Y00425
T07
X0095Y-0045
Y-004
Y004
Y0045
T08
X-012965Y-0026175
Y-0016575
Y-0011925
Y-0002325
Y0002325
Y0011925
Y0016575
Y0026175
T09
X0105Y-00425
X-0117
X-0035Y0
X0035
X0115Y00425
X-0117
T10
X-00271907Y-0003048
X00271907Y0
M30
