Timing Violation Report Max Delay Analysis

SmartTime Version v11.9 SP5
Microsemi Corporation - Microsemi Libero Software Release v11.9 SP5 (Version 11.9.5.5)
Date: Thu Apr 16 17:31:13 2020


Design: jtag_interface_top
Family: ProASIC3
Die: A3P250
Package: 144 FBGA
Temperature Range: -40 - 85 C
Voltage Range: 1.425 - 1.575 V
Speed Grade: -1
Design State: Post-Layout
Data source: Silicon verified
Min Operating Conditions: BEST - 1.575 V - -40 C
Max Operating Conditions: WORST - 1.425 V - 85 C
Using Enhanced Min Delay Analysis
Scenario for Timing Analysis: Primary


Path 1
  From:                  fc1/counter[0]:CLK
  To:                    fc1/counter[3]:D
  Delay (ns):            3.877
  Slack (ns):            -0.153
  Arrival (ns):          9.648
  Required (ns):         9.495

Path 2
  From:                  fc0/counter[0]:CLK
  To:                    fc0/counter[3]:D
  Delay (ns):            3.830
  Slack (ns):            -0.129
  Arrival (ns):          9.624
  Required (ns):         9.495

Path 3
  From:                  fc2/counter[1]:CLK
  To:                    fc2/counter[3]:D
  Delay (ns):            3.687
  Slack (ns):            -0.016
  Arrival (ns):          9.458
  Required (ns):         9.442

Path 4
  From:                  fc2/counter[0]:CLK
  To:                    fc2/counter[1]:D
  Delay (ns):            3.672
  Slack (ns):            -0.001
  Arrival (ns):          9.443
  Required (ns):         9.442

Path 5
  From:                  fc1/counter[1]:CLK
  To:                    fc1/counter[3]:D
  Delay (ns):            3.663
  Slack (ns):            0.061
  Arrival (ns):          9.434
  Required (ns):         9.495

Path 6
  From:                  fc0/counter[1]:CLK
  To:                    fc0/counter[3]:D
  Delay (ns):            3.660
  Slack (ns):            0.064
  Arrival (ns):          9.431
  Required (ns):         9.495

Path 7
  From:                  fc2/counter[0]:CLK
  To:                    fc2/final_count[1]:D
  Delay (ns):            3.570
  Slack (ns):            0.101
  Arrival (ns):          9.341
  Required (ns):         9.442

Path 8
  From:                  fc1/counter[0]:CLK
  To:                    fc1/counter[1]:D
  Delay (ns):            3.542
  Slack (ns):            0.129
  Arrival (ns):          9.313
  Required (ns):         9.442

Path 9
  From:                  fc0/counter[0]:CLK
  To:                    fc0/counter[1]:D
  Delay (ns):            3.496
  Slack (ns):            0.152
  Arrival (ns):          9.290
  Required (ns):         9.442

Path 10
  From:                  fc2/counter[2]:CLK
  To:                    fc2/counter[3]:D
  Delay (ns):            3.396
  Slack (ns):            0.275
  Arrival (ns):          9.167
  Required (ns):         9.442

Path 11
  From:                  fc1/counter[1]:CLK
  To:                    fc1/counter[2]:D
  Delay (ns):            3.311
  Slack (ns):            0.360
  Arrival (ns):          9.082
  Required (ns):         9.442

Path 12
  From:                  fc1/counter[2]:CLK
  To:                    fc1/counter[3]:D
  Delay (ns):            3.341
  Slack (ns):            0.383
  Arrival (ns):          9.112
  Required (ns):         9.495

Path 13
  From:                  fc0/counter[2]:CLK
  To:                    fc0/counter[3]:D
  Delay (ns):            3.338
  Slack (ns):            0.386
  Arrival (ns):          9.109
  Required (ns):         9.495

Path 14
  From:                  fc0/state:CLK
  To:                    fc1/counter[0]:D
  Delay (ns):            3.289
  Slack (ns):            0.412
  Arrival (ns):          9.060
  Required (ns):         9.472

Path 15
  From:                  fc1/counter[0]:CLK
  To:                    fc1/counter[2]:D
  Delay (ns):            3.242
  Slack (ns):            0.429
  Arrival (ns):          9.013
  Required (ns):         9.442

Path 16
  From:                  fc0/state:CLK
  To:                    fc2/counter[0]:D
  Delay (ns):            3.263
  Slack (ns):            0.438
  Arrival (ns):          9.034
  Required (ns):         9.472

Path 17
  From:                  fc0/state:CLK
  To:                    fc0/counter[2]:D
  Delay (ns):            3.263
  Slack (ns):            0.438
  Arrival (ns):          9.034
  Required (ns):         9.472

Path 18
  From:                  fc0/state:CLK
  To:                    fc1/counter[1]:D
  Delay (ns):            3.263
  Slack (ns):            0.438
  Arrival (ns):          9.034
  Required (ns):         9.472

Path 19
  From:                  fc0/state:CLK
  To:                    fc2/counter[3]:D
  Delay (ns):            3.263
  Slack (ns):            0.438
  Arrival (ns):          9.034
  Required (ns):         9.472

Path 20
  From:                  fc0/state:CLK
  To:                    fc1/counter[2]:D
  Delay (ns):            3.263
  Slack (ns):            0.438
  Arrival (ns):          9.034
  Required (ns):         9.472

Path 21
  From:                  fc0/state:CLK
  To:                    fc0/counter[0]:D
  Delay (ns):            3.263
  Slack (ns):            0.461
  Arrival (ns):          9.034
  Required (ns):         9.495

Path 22
  From:                  fc1/counter[0]:CLK
  To:                    fc1/final_count[3]:D
  Delay (ns):            3.257
  Slack (ns):            0.467
  Arrival (ns):          9.028
  Required (ns):         9.495

Path 23
  From:                  fc0/counter[0]:CLK
  To:                    fc0/final_count[3]:D
  Delay (ns):            3.221
  Slack (ns):            0.489
  Arrival (ns):          9.015
  Required (ns):         9.504

Path 24
  From:                  fc0/state:CLK
  To:                    fc2/counter[1]:D
  Delay (ns):            3.193
  Slack (ns):            0.508
  Arrival (ns):          8.964
  Required (ns):         9.472

Path 25
  From:                  fc0/state:CLK
  To:                    fc1/counter[3]:D
  Delay (ns):            3.190
  Slack (ns):            0.534
  Arrival (ns):          8.961
  Required (ns):         9.495

Path 26
  From:                  fc2/counter[0]:CLK
  To:                    fc2/counter[2]:D
  Delay (ns):            3.126
  Slack (ns):            0.545
  Arrival (ns):          8.897
  Required (ns):         9.442

Path 27
  From:                  fc0/state:CLK
  To:                    fc0/final_count[3]:E
  Delay (ns):            3.262
  Slack (ns):            0.562
  Arrival (ns):          9.033
  Required (ns):         9.595

Path 28
  From:                  fc2/counter[1]:CLK
  To:                    fc2/final_count[3]:D
  Delay (ns):            3.071
  Slack (ns):            0.600
  Arrival (ns):          8.842
  Required (ns):         9.442

Path 29
  From:                  fc0/state:CLK
  To:                    fc2/final_count[1]:E
  Delay (ns):            3.185
  Slack (ns):            0.607
  Arrival (ns):          8.956
  Required (ns):         9.563

Path 30
  From:                  fc0/state:CLK
  To:                    fc0/counter[3]:D
  Delay (ns):            3.104
  Slack (ns):            0.620
  Arrival (ns):          8.875
  Required (ns):         9.495

Path 31
  From:                  fc0/state:CLK
  To:                    fc2/counter[2]:D
  Delay (ns):            3.045
  Slack (ns):            0.656
  Arrival (ns):          8.816
  Required (ns):         9.472

Path 32
  From:                  fc0/counter[0]:CLK
  To:                    fc0/final_count[2]:D
  Delay (ns):            3.003
  Slack (ns):            0.668
  Arrival (ns):          8.797
  Required (ns):         9.465

Path 33
  From:                  fc1/counter[1]:CLK
  To:                    fc1/final_count[3]:D
  Delay (ns):            3.043
  Slack (ns):            0.681
  Arrival (ns):          8.814
  Required (ns):         9.495

Path 34
  From:                  fc0/counter[1]:CLK
  To:                    fc0/final_count[3]:D
  Delay (ns):            3.051
  Slack (ns):            0.682
  Arrival (ns):          8.822
  Required (ns):         9.504

Path 35
  From:                  fc0/counter[1]:CLK
  To:                    fc0/counter[1]:D
  Delay (ns):            2.993
  Slack (ns):            0.708
  Arrival (ns):          8.764
  Required (ns):         9.472

Path 36
  From:                  fc0/counter[0]:CLK
  To:                    fc0/counter[2]:D
  Delay (ns):            2.939
  Slack (ns):            0.709
  Arrival (ns):          8.733
  Required (ns):         9.442

Path 37
  From:                  fc1/counter[0]:CLK
  To:                    fc1/final_count[1]:D
  Delay (ns):            2.928
  Slack (ns):            0.743
  Arrival (ns):          8.699
  Required (ns):         9.442

Path 38
  From:                  fc0/state:CLK
  To:                    fc2/final_count[3]:E
  Delay (ns):            3.029
  Slack (ns):            0.763
  Arrival (ns):          8.800
  Required (ns):         9.563

Path 39
  From:                  fc0/state:CLK
  To:                    fc2/final_count[0]:E
  Delay (ns):            3.029
  Slack (ns):            0.763
  Arrival (ns):          8.800
  Required (ns):         9.563

Path 40
  From:                  fc2/counter[1]:CLK
  To:                    fc2/counter[2]:D
  Delay (ns):            2.859
  Slack (ns):            0.812
  Arrival (ns):          8.630
  Required (ns):         9.442

Path 41
  From:                  fc2/counter[0]:CLK
  To:                    fc2/counter[3]:D
  Delay (ns):            2.858
  Slack (ns):            0.813
  Arrival (ns):          8.629
  Required (ns):         9.442

Path 42
  From:                  fc0/counter[1]:CLK
  To:                    fc0/final_count[2]:D
  Delay (ns):            2.874
  Slack (ns):            0.820
  Arrival (ns):          8.645
  Required (ns):         9.465

Path 43
  From:                  fc1/counter[2]:CLK
  To:                    fc1/counter[2]:D
  Delay (ns):            2.821
  Slack (ns):            0.850
  Arrival (ns):          8.592
  Required (ns):         9.442

Path 44
  From:                  fc0/counter[1]:CLK
  To:                    fc0/counter[2]:D
  Delay (ns):            2.810
  Slack (ns):            0.861
  Arrival (ns):          8.581
  Required (ns):         9.442

Path 45
  From:                  fc2/counter[2]:CLK
  To:                    fc2/final_count[3]:D
  Delay (ns):            2.780
  Slack (ns):            0.891
  Arrival (ns):          8.551
  Required (ns):         9.442

Path 46
  From:                  fc0/state:CLK
  To:                    fc1/final_count[3]:E
  Delay (ns):            2.913
  Slack (ns):            0.902
  Arrival (ns):          8.684
  Required (ns):         9.586

Path 47
  From:                  fc1/counter[1]:CLK
  To:                    fc1/final_count[2]:D
  Delay (ns):            2.773
  Slack (ns):            0.921
  Arrival (ns):          8.544
  Required (ns):         9.465

Path 48
  From:                  fc1/counter[0]:CLK
  To:                    fc1/final_count[2]:D
  Delay (ns):            2.704
  Slack (ns):            0.990
  Arrival (ns):          8.475
  Required (ns):         9.465

Path 49
  From:                  fc1/counter[2]:CLK
  To:                    fc1/final_count[3]:D
  Delay (ns):            2.721
  Slack (ns):            1.003
  Arrival (ns):          8.492
  Required (ns):         9.495

Path 50
  From:                  fc0/counter[2]:CLK
  To:                    fc0/final_count[3]:D
  Delay (ns):            2.729
  Slack (ns):            1.004
  Arrival (ns):          8.500
  Required (ns):         9.504

Path 51
  From:                  fc0/final_count[0]:CLK
  To:                    fc0/ck_ok:D
  Delay (ns):            2.657
  Slack (ns):            1.053
  Arrival (ns):          8.451
  Required (ns):         9.504

Path 52
  From:                  fc0/state:CLK
  To:                    fc0/counter[1]:D
  Delay (ns):            2.632
  Slack (ns):            1.069
  Arrival (ns):          8.403
  Required (ns):         9.472

Path 53
  From:                  fc2/final_count[0]:CLK
  To:                    fc2/ck_ok:D
  Delay (ns):            2.630
  Slack (ns):            1.071
  Arrival (ns):          8.401
  Required (ns):         9.472

Path 54
  From:                  fc1/final_count[0]:CLK
  To:                    fc1/ck_ok:D
  Delay (ns):            2.638
  Slack (ns):            1.072
  Arrival (ns):          8.432
  Required (ns):         9.504

Path 55
  From:                  fc0/state:CLK
  To:                    fc2/final_count[2]:E
  Delay (ns):            2.639
  Slack (ns):            1.153
  Arrival (ns):          8.410
  Required (ns):         9.563

Path 56
  From:                  fc2/counter[0]:CLK
  To:                    fc2/final_count[2]:D
  Delay (ns):            2.512
  Slack (ns):            1.159
  Arrival (ns):          8.283
  Required (ns):         9.442

Path 57
  From:                  fc0/final_count[1]:CLK
  To:                    fc0/ck_ok:D
  Delay (ns):            2.467
  Slack (ns):            1.213
  Arrival (ns):          8.261
  Required (ns):         9.474

Path 58
  From:                  fc2/final_count[1]:CLK
  To:                    fc2/ck_ok:D
  Delay (ns):            2.437
  Slack (ns):            1.234
  Arrival (ns):          8.208
  Required (ns):         9.442

Path 59
  From:                  fc1/counter[1]:CLK
  To:                    fc1/counter[1]:D
  Delay (ns):            2.433
  Slack (ns):            1.238
  Arrival (ns):          8.204
  Required (ns):         9.442

Path 60
  From:                  fc1/final_count[1]:CLK
  To:                    fc1/ck_ok:D
  Delay (ns):            2.445
  Slack (ns):            1.258
  Arrival (ns):          8.216
  Required (ns):         9.474

Path 61
  From:                  fc0/counter[2]:CLK
  To:                    fc0/final_count[2]:D
  Delay (ns):            2.439
  Slack (ns):            1.285
  Arrival (ns):          8.210
  Required (ns):         9.495

Path 62
  From:                  fc2/counter[1]:CLK
  To:                    fc2/counter[1]:D
  Delay (ns):            2.382
  Slack (ns):            1.289
  Arrival (ns):          8.153
  Required (ns):         9.442

Path 63
  From:                  fc0/counter[0]:CLK
  To:                    fc0/final_count[1]:D
  Delay (ns):            2.370
  Slack (ns):            1.301
  Arrival (ns):          8.164
  Required (ns):         9.465

Path 64
  From:                  fc2/counter[2]:CLK
  To:                    fc2/counter[2]:D
  Delay (ns):            2.369
  Slack (ns):            1.302
  Arrival (ns):          8.140
  Required (ns):         9.442

Path 65
  From:                  fc0/final_count[3]:CLK
  To:                    fc0/ck_ok:D
  Delay (ns):            2.357
  Slack (ns):            1.314
  Arrival (ns):          8.160
  Required (ns):         9.474

Path 66
  From:                  fc2/final_count[3]:CLK
  To:                    fc2/ck_ok:D
  Delay (ns):            2.327
  Slack (ns):            1.344
  Arrival (ns):          8.098
  Required (ns):         9.442

Path 67
  From:                  fc1/final_count[3]:CLK
  To:                    fc1/ck_ok:D
  Delay (ns):            2.335
  Slack (ns):            1.345
  Arrival (ns):          8.129
  Required (ns):         9.474

Path 68
  From:                  fc0/counter[2]:CLK
  To:                    fc0/counter[2]:D
  Delay (ns):            2.320
  Slack (ns):            1.351
  Arrival (ns):          8.091
  Required (ns):         9.442

Path 69
  From:                  fc1/counter[3]:CLK
  To:                    fc1/counter[3]:D
  Delay (ns):            2.310
  Slack (ns):            1.361
  Arrival (ns):          8.104
  Required (ns):         9.465

Path 70
  From:                  fc2/counter[3]:CLK
  To:                    fc2/counter[3]:D
  Delay (ns):            2.310
  Slack (ns):            1.361
  Arrival (ns):          8.081
  Required (ns):         9.442

Path 71
  From:                  fc0/counter[3]:CLK
  To:                    fc0/counter[3]:D
  Delay (ns):            2.309
  Slack (ns):            1.362
  Arrival (ns):          8.103
  Required (ns):         9.465

Path 72
  From:                  fc2/counter[1]:CLK
  To:                    fc2/final_count[1]:D
  Delay (ns):            2.280
  Slack (ns):            1.391
  Arrival (ns):          8.051
  Required (ns):         9.442

Path 73
  From:                  fc0/state:CLK
  To:                    fc0/final_count[0]:E
  Delay (ns):            2.406
  Slack (ns):            1.409
  Arrival (ns):          8.177
  Required (ns):         9.586

Path 74
  From:                  fc1/counter[2]:CLK
  To:                    fc1/final_count[2]:D
  Delay (ns):            2.283
  Slack (ns):            1.411
  Arrival (ns):          8.054
  Required (ns):         9.465

Path 75
  From:                  fc2/counter[1]:CLK
  To:                    fc2/final_count[2]:D
  Delay (ns):            2.245
  Slack (ns):            1.426
  Arrival (ns):          8.016
  Required (ns):         9.442

Path 76
  From:                  fc2/counter[0]:CLK
  To:                    fc2/final_count[3]:D
  Delay (ns):            2.242
  Slack (ns):            1.429
  Arrival (ns):          8.013
  Required (ns):         9.442

Path 77
  From:                  fc0/state:CLK
  To:                    fc1/final_count[1]:E
  Delay (ns):            2.344
  Slack (ns):            1.448
  Arrival (ns):          8.115
  Required (ns):         9.563

Path 78
  From:                  fc0/state:CLK
  To:                    fc1/final_count[0]:E
  Delay (ns):            2.344
  Slack (ns):            1.471
  Arrival (ns):          8.115
  Required (ns):         9.586

Path 79
  From:                  fc0/state:CLK
  To:                    fc0/final_count[2]:E
  Delay (ns):            2.344
  Slack (ns):            1.471
  Arrival (ns):          8.115
  Required (ns):         9.586

Path 80
  From:                  fc0/state:CLK
  To:                    fc1/final_count[2]:E
  Delay (ns):            2.344
  Slack (ns):            1.471
  Arrival (ns):          8.115
  Required (ns):         9.586

Path 81
  From:                  fc0/state:CLK
  To:                    fc0/final_count[1]:E
  Delay (ns):            2.344
  Slack (ns):            1.471
  Arrival (ns):          8.115
  Required (ns):         9.586

Path 82
  From:                  fc1/counter[1]:CLK
  To:                    fc1/final_count[1]:D
  Delay (ns):            1.819
  Slack (ns):            1.852
  Arrival (ns):          7.590
  Required (ns):         9.442

Path 83
  From:                  fc0/counter[1]:CLK
  To:                    fc0/final_count[1]:D
  Delay (ns):            1.819
  Slack (ns):            1.875
  Arrival (ns):          7.590
  Required (ns):         9.465

Path 84
  From:                  fc0/counter[0]:CLK
  To:                    fc0/counter[0]:D
  Delay (ns):            1.806
  Slack (ns):            1.895
  Arrival (ns):          7.600
  Required (ns):         9.495

Path 85
  From:                  fc2/counter[2]:CLK
  To:                    fc2/final_count[2]:D
  Delay (ns):            1.755
  Slack (ns):            1.916
  Arrival (ns):          7.526
  Required (ns):         9.442

Path 86
  From:                  fc0/final_count[2]:CLK
  To:                    fc0/ck_ok:D
  Delay (ns):            1.762
  Slack (ns):            1.948
  Arrival (ns):          7.556
  Required (ns):         9.504

Path 87
  From:                  fc2/final_count[2]:CLK
  To:                    fc2/ck_ok:D
  Delay (ns):            1.743
  Slack (ns):            1.958
  Arrival (ns):          7.514
  Required (ns):         9.472

Path 88
  From:                  fc1/final_count[2]:CLK
  To:                    fc1/ck_ok:D
  Delay (ns):            1.751
  Slack (ns):            1.959
  Arrival (ns):          7.545
  Required (ns):         9.504

Path 89
  From:                  fc1/counter[3]:CLK
  To:                    fc1/final_count[3]:D
  Delay (ns):            1.694
  Slack (ns):            1.977
  Arrival (ns):          7.488
  Required (ns):         9.465

Path 90
  From:                  fc2/counter[3]:CLK
  To:                    fc2/final_count[3]:D
  Delay (ns):            1.694
  Slack (ns):            1.977
  Arrival (ns):          7.465
  Required (ns):         9.442

Path 91
  From:                  fc0/counter[3]:CLK
  To:                    fc0/final_count[3]:D
  Delay (ns):            1.702
  Slack (ns):            1.978
  Arrival (ns):          7.496
  Required (ns):         9.474

Path 92
  From:                  fc2/counter[0]:CLK
  To:                    fc2/counter[0]:D
  Delay (ns):            1.669
  Slack (ns):            2.032
  Arrival (ns):          7.440
  Required (ns):         9.472

Path 93
  From:                  fc1/counter[0]:CLK
  To:                    fc1/final_count[0]:D
  Delay (ns):            1.674
  Slack (ns):            2.050
  Arrival (ns):          7.445
  Required (ns):         9.495

Path 94
  From:                  fc1/counter[0]:CLK
  To:                    fc1/counter[0]:D
  Delay (ns):            1.607
  Slack (ns):            2.094
  Arrival (ns):          7.378
  Required (ns):         9.472

Path 95
  From:                  fc0/counter[0]:CLK
  To:                    fc0/final_count[0]:D
  Delay (ns):            1.137
  Slack (ns):            2.564
  Arrival (ns):          6.931
  Required (ns):         9.495

Path 96
  From:                  fc2/counter[0]:CLK
  To:                    fc2/final_count[0]:D
  Delay (ns):            1.020
  Slack (ns):            2.681
  Arrival (ns):          6.791
  Required (ns):         9.472

