Timing Violation Report Min Delay Analysis

SmartTime Version v11.9 SP5
Microsemi Corporation - Microsemi Libero Software Release v11.9 SP5 (Version 11.9.5.5)
Date: Wed Apr 15 16:16:24 2020


Design: jtag_interface_top
Family: ProASIC3
Die: A3P250
Package: 144 FBGA
Temperature Range: -40 - 85 C
Voltage Range: 1.425 - 1.575 V
Speed Grade: -1
Design State: Post-Layout
Data source: Silicon verified
Min Operating Conditions: BEST - 1.575 V - -40 C
Max Operating Conditions: WORST - 1.425 V - 85 C
Using Enhanced Min Delay Analysis
Scenario for Timing Analysis: Primary


Path 1
  From:                  fc2/counter[0]:CLK
  To:                    fc2/final_count[0]:D
  Delay (ns):            0.377
  Slack (ns):            0.360
  Arrival (ns):          3.029
  Required (ns):         2.669

Path 2
  From:                  fc0/counter[0]:CLK
  To:                    fc0/final_count[0]:D
  Delay (ns):            0.553
  Slack (ns):            0.543
  Arrival (ns):          3.207
  Required (ns):         2.664

Path 3
  From:                  fc0/counter[0]:CLK
  To:                    fc0/counter[0]:D
  Delay (ns):            0.576
  Slack (ns):            0.576
  Arrival (ns):          3.230
  Required (ns):         2.654

Path 4
  From:                  fc1/counter[0]:CLK
  To:                    fc1/counter[0]:D
  Delay (ns):            0.576
  Slack (ns):            0.576
  Arrival (ns):          3.221
  Required (ns):         2.645

Path 5
  From:                  fc0/counter[0]:CLK
  To:                    fc0/final_count[1]:D
  Delay (ns):            0.612
  Slack (ns):            0.594
  Arrival (ns):          3.266
  Required (ns):         2.672

Path 6
  From:                  fc2/counter[0]:CLK
  To:                    fc2/counter[0]:D
  Delay (ns):            0.596
  Slack (ns):            0.596
  Arrival (ns):          3.248
  Required (ns):         2.652

Path 7
  From:                  fc1/counter[0]:CLK
  To:                    fc1/final_count[0]:D
  Delay (ns):            0.630
  Slack (ns):            0.611
  Arrival (ns):          3.275
  Required (ns):         2.664

Path 8
  From:                  fc1/counter[2]:CLK
  To:                    fc1/final_count[2]:D
  Delay (ns):            0.633
  Slack (ns):            0.614
  Arrival (ns):          3.278
  Required (ns):         2.664

Path 9
  From:                  fc2/counter[0]:CLK
  To:                    fc2/final_count[1]:D
  Delay (ns):            0.631
  Slack (ns):            0.614
  Arrival (ns):          3.283
  Required (ns):         2.669

Path 10
  From:                  fc0/counter[3]:CLK
  To:                    fc0/final_count[3]:D
  Delay (ns):            0.670
  Slack (ns):            0.640
  Arrival (ns):          3.312
  Required (ns):         2.672

Path 11
  From:                  fc1/counter[0]:CLK
  To:                    fc1/final_count[1]:D
  Delay (ns):            0.661
  Slack (ns):            0.642
  Arrival (ns):          3.306
  Required (ns):         2.664

Path 12
  From:                  fc1/counter[3]:CLK
  To:                    fc1/final_count[3]:D
  Delay (ns):            0.671
  Slack (ns):            0.652
  Arrival (ns):          3.316
  Required (ns):         2.664

Path 13
  From:                  fc1/counter[0]:CLK
  To:                    fc1/final_count[2]:D
  Delay (ns):            0.692
  Slack (ns):            0.673
  Arrival (ns):          3.337
  Required (ns):         2.664

Path 14
  From:                  fc0/state:CLK
  To:                    fc1/final_count[1]:E
  Delay (ns):            0.689
  Slack (ns):            0.677
  Arrival (ns):          3.341
  Required (ns):         2.664

Path 15
  From:                  fc1/counter[1]:CLK
  To:                    fc1/final_count[2]:D
  Delay (ns):            0.694
  Slack (ns):            0.677
  Arrival (ns):          3.341
  Required (ns):         2.664

Path 16
  From:                  fc0/counter[2]:CLK
  To:                    fc0/final_count[2]:D
  Delay (ns):            0.708
  Slack (ns):            0.690
  Arrival (ns):          3.362
  Required (ns):         2.672

Path 17
  From:                  fc2/counter[1]:CLK
  To:                    fc2/final_count[1]:D
  Delay (ns):            0.714
  Slack (ns):            0.690
  Arrival (ns):          3.359
  Required (ns):         2.669

Path 18
  From:                  fc0/counter[1]:CLK
  To:                    fc0/final_count[1]:D
  Delay (ns):            0.714
  Slack (ns):            0.696
  Arrival (ns):          3.368
  Required (ns):         2.672

Path 19
  From:                  fc1/counter[1]:CLK
  To:                    fc1/final_count[1]:D
  Delay (ns):            0.715
  Slack (ns):            0.698
  Arrival (ns):          3.362
  Required (ns):         2.664

Path 20
  From:                  fc0/state:CLK
  To:                    fc1/counter[1]:D
  Delay (ns):            0.723
  Slack (ns):            0.711
  Arrival (ns):          3.375
  Required (ns):         2.664

Path 21
  From:                  fc0/state:CLK
  To:                    fc1/counter[0]:D
  Delay (ns):            0.722
  Slack (ns):            0.713
  Arrival (ns):          3.374
  Required (ns):         2.661

Path 22
  From:                  fc0/state:CLK
  To:                    fc2/counter[3]:D
  Delay (ns):            0.723
  Slack (ns):            0.714
  Arrival (ns):          3.375
  Required (ns):         2.661

Path 23
  From:                  fc1/final_count[1]:CLK
  To:                    fc1/ck_ok:D
  Delay (ns):            0.797
  Slack (ns):            0.780
  Arrival (ns):          3.444
  Required (ns):         2.664

Path 24
  From:                  fc0/final_count[1]:CLK
  To:                    fc0/ck_ok:D
  Delay (ns):            0.797
  Slack (ns):            0.787
  Arrival (ns):          3.451
  Required (ns):         2.664

Path 25
  From:                  fc2/final_count[1]:CLK
  To:                    fc2/ck_ok:D
  Delay (ns):            0.816
  Slack (ns):            0.796
  Arrival (ns):          3.468
  Required (ns):         2.672

Path 26
  From:                  fc0/counter[2]:CLK
  To:                    fc0/counter[2]:D
  Delay (ns):            0.804
  Slack (ns):            0.804
  Arrival (ns):          3.458
  Required (ns):         2.654

Path 27
  From:                  fc0/counter[0]:CLK
  To:                    fc0/final_count[2]:D
  Delay (ns):            0.830
  Slack (ns):            0.812
  Arrival (ns):          3.484
  Required (ns):         2.672

Path 28
  From:                  fc0/counter[1]:CLK
  To:                    fc0/final_count[2]:D
  Delay (ns):            0.832
  Slack (ns):            0.814
  Arrival (ns):          3.486
  Required (ns):         2.672

Path 29
  From:                  fc2/counter[3]:CLK
  To:                    fc2/final_count[3]:D
  Delay (ns):            0.852
  Slack (ns):            0.828
  Arrival (ns):          3.497
  Required (ns):         2.669

Path 30
  From:                  fc1/counter[0]:CLK
  To:                    fc1/final_count[3]:D
  Delay (ns):            0.859
  Slack (ns):            0.840
  Arrival (ns):          3.504
  Required (ns):         2.664

Path 31
  From:                  fc2/counter[0]:CLK
  To:                    fc2/counter[1]:D
  Delay (ns):            0.865
  Slack (ns):            0.856
  Arrival (ns):          3.517
  Required (ns):         2.661

Path 32
  From:                  fc2/counter[2]:CLK
  To:                    fc2/final_count[2]:D
  Delay (ns):            0.884
  Slack (ns):            0.860
  Arrival (ns):          3.529
  Required (ns):         2.669

Path 33
  From:                  fc1/counter[0]:CLK
  To:                    fc1/counter[1]:D
  Delay (ns):            0.895
  Slack (ns):            0.876
  Arrival (ns):          3.540
  Required (ns):         2.664

Path 34
  From:                  fc1/final_count[2]:CLK
  To:                    fc1/ck_ok:D
  Delay (ns):            0.898
  Slack (ns):            0.881
  Arrival (ns):          3.545
  Required (ns):         2.664

Path 35
  From:                  fc2/counter[3]:CLK
  To:                    fc2/counter[3]:D
  Delay (ns):            0.885
  Slack (ns):            0.885
  Arrival (ns):          3.530
  Required (ns):         2.645

Path 36
  From:                  fc0/state:CLK
  To:                    fc2/counter[0]:D
  Delay (ns):            0.904
  Slack (ns):            0.887
  Arrival (ns):          3.556
  Required (ns):         2.669

Path 37
  From:                  fc0/final_count[2]:CLK
  To:                    fc0/ck_ok:D
  Delay (ns):            0.898
  Slack (ns):            0.888
  Arrival (ns):          3.552
  Required (ns):         2.664

Path 38
  From:                  fc1/counter[2]:CLK
  To:                    fc1/final_count[3]:D
  Delay (ns):            0.907
  Slack (ns):            0.888
  Arrival (ns):          3.552
  Required (ns):         2.664

Path 39
  From:                  fc2/final_count[0]:CLK
  To:                    fc2/ck_ok:D
  Delay (ns):            0.909
  Slack (ns):            0.889
  Arrival (ns):          3.561
  Required (ns):         2.672

Path 40
  From:                  fc1/final_count[0]:CLK
  To:                    fc1/ck_ok:D
  Delay (ns):            0.909
  Slack (ns):            0.892
  Arrival (ns):          3.556
  Required (ns):         2.664

Path 41
  From:                  fc0/final_count[0]:CLK
  To:                    fc0/ck_ok:D
  Delay (ns):            0.909
  Slack (ns):            0.892
  Arrival (ns):          3.556
  Required (ns):         2.664

Path 42
  From:                  fc0/counter[3]:CLK
  To:                    fc0/counter[3]:D
  Delay (ns):            0.905
  Slack (ns):            0.905
  Arrival (ns):          3.547
  Required (ns):         2.642

Path 43
  From:                  fc1/counter[3]:CLK
  To:                    fc1/counter[3]:D
  Delay (ns):            0.905
  Slack (ns):            0.905
  Arrival (ns):          3.550
  Required (ns):         2.645

Path 44
  From:                  fc0/counter[0]:CLK
  To:                    fc0/counter[2]:D
  Delay (ns):            0.926
  Slack (ns):            0.908
  Arrival (ns):          3.580
  Required (ns):         2.672

Path 45
  From:                  fc0/counter[2]:CLK
  To:                    fc0/final_count[3]:D
  Delay (ns):            0.928
  Slack (ns):            0.910
  Arrival (ns):          3.582
  Required (ns):         2.672

Path 46
  From:                  fc0/counter[1]:CLK
  To:                    fc0/counter[2]:D
  Delay (ns):            0.928
  Slack (ns):            0.910
  Arrival (ns):          3.582
  Required (ns):         2.672

Path 47
  From:                  fc0/counter[0]:CLK
  To:                    fc0/counter[1]:D
  Delay (ns):            0.937
  Slack (ns):            0.919
  Arrival (ns):          3.591
  Required (ns):         2.672

Path 48
  From:                  fc0/counter[1]:CLK
  To:                    fc0/final_count[3]:D
  Delay (ns):            0.941
  Slack (ns):            0.923
  Arrival (ns):          3.595
  Required (ns):         2.672

Path 49
  From:                  fc0/counter[0]:CLK
  To:                    fc0/final_count[3]:D
  Delay (ns):            0.941
  Slack (ns):            0.923
  Arrival (ns):          3.595
  Required (ns):         2.672

Path 50
  From:                  fc0/state:CLK
  To:                    fc0/counter[0]:D
  Delay (ns):            0.944
  Slack (ns):            0.924
  Arrival (ns):          3.596
  Required (ns):         2.672

Path 51
  From:                  fc1/counter[1]:CLK
  To:                    fc1/final_count[3]:D
  Delay (ns):            0.941
  Slack (ns):            0.924
  Arrival (ns):          3.588
  Required (ns):         2.664

Path 52
  From:                  fc0/state:CLK
  To:                    fc2/final_count[3]:E
  Delay (ns):            0.957
  Slack (ns):            0.940
  Arrival (ns):          3.609
  Required (ns):         2.669

Path 53
  From:                  fc0/state:CLK
  To:                    fc0/counter[3]:D
  Delay (ns):            0.945
  Slack (ns):            0.940
  Arrival (ns):          3.597
  Required (ns):         2.657

Path 54
  From:                  fc0/state:CLK
  To:                    fc0/counter[2]:D
  Delay (ns):            0.960
  Slack (ns):            0.940
  Arrival (ns):          3.612
  Required (ns):         2.672

Path 55
  From:                  fc0/state:CLK
  To:                    fc0/final_count[1]:E
  Delay (ns):            0.968
  Slack (ns):            0.948
  Arrival (ns):          3.620
  Required (ns):         2.672

Path 56
  From:                  fc2/counter[1]:CLK
  To:                    fc2/counter[1]:D
  Delay (ns):            0.948
  Slack (ns):            0.948
  Arrival (ns):          3.593
  Required (ns):         2.645

Path 57
  From:                  fc1/counter[1]:CLK
  To:                    fc1/counter[1]:D
  Delay (ns):            0.949
  Slack (ns):            0.949
  Arrival (ns):          3.596
  Required (ns):         2.647

Path 58
  From:                  fc0/state:CLK
  To:                    fc0/final_count[2]:E
  Delay (ns):            0.976
  Slack (ns):            0.956
  Arrival (ns):          3.628
  Required (ns):         2.672

Path 59
  From:                  fc0/state:CLK
  To:                    fc0/counter[1]:D
  Delay (ns):            0.976
  Slack (ns):            0.956
  Arrival (ns):          3.628
  Required (ns):         2.672

Path 60
  From:                  fc0/state:CLK
  To:                    fc0/final_count[0]:E
  Delay (ns):            0.969
  Slack (ns):            0.957
  Arrival (ns):          3.621
  Required (ns):         2.664

Path 61
  From:                  fc0/state:CLK
  To:                    fc2/counter[2]:D
  Delay (ns):            0.971
  Slack (ns):            0.962
  Arrival (ns):          3.623
  Required (ns):         2.661

Path 62
  From:                  fc2/final_count[2]:CLK
  To:                    fc2/ck_ok:D
  Delay (ns):            0.991
  Slack (ns):            0.971
  Arrival (ns):          3.643
  Required (ns):         2.672

Path 63
  From:                  fc0/state:CLK
  To:                    fc1/final_count[2]:E
  Delay (ns):            0.990
  Slack (ns):            0.978
  Arrival (ns):          3.642
  Required (ns):         2.664

Path 64
  From:                  fc1/counter[2]:CLK
  To:                    fc1/counter[2]:D
  Delay (ns):            0.978
  Slack (ns):            0.978
  Arrival (ns):          3.623
  Required (ns):         2.645

Path 65
  From:                  fc2/counter[1]:CLK
  To:                    fc2/final_count[2]:D
  Delay (ns):            1.008
  Slack (ns):            0.984
  Arrival (ns):          3.653
  Required (ns):         2.669

Path 66
  From:                  fc0/state:CLK
  To:                    fc0/final_count[3]:E
  Delay (ns):            1.026
  Slack (ns):            1.006
  Arrival (ns):          3.678
  Required (ns):         2.672

Path 67
  From:                  fc0/state:CLK
  To:                    fc2/final_count[2]:E
  Delay (ns):            1.027
  Slack (ns):            1.010
  Arrival (ns):          3.679
  Required (ns):         2.669

Path 68
  From:                  fc0/state:CLK
  To:                    fc2/counter[1]:D
  Delay (ns):            1.020
  Slack (ns):            1.011
  Arrival (ns):          3.672
  Required (ns):         2.661

Path 69
  From:                  fc2/counter[2]:CLK
  To:                    fc2/counter[2]:D
  Delay (ns):            1.012
  Slack (ns):            1.012
  Arrival (ns):          3.657
  Required (ns):         2.645

Path 70
  From:                  fc1/counter[0]:CLK
  To:                    fc1/counter[2]:D
  Delay (ns):            1.037
  Slack (ns):            1.021
  Arrival (ns):          3.682
  Required (ns):         2.661

Path 71
  From:                  fc1/counter[1]:CLK
  To:                    fc1/counter[2]:D
  Delay (ns):            1.039
  Slack (ns):            1.025
  Arrival (ns):          3.686
  Required (ns):         2.661

Path 72
  From:                  fc0/counter[1]:CLK
  To:                    fc0/counter[1]:D
  Delay (ns):            1.039
  Slack (ns):            1.039
  Arrival (ns):          3.693
  Required (ns):         2.654

Path 73
  From:                  fc0/state:CLK
  To:                    fc1/counter[3]:D
  Delay (ns):            1.051
  Slack (ns):            1.042
  Arrival (ns):          3.703
  Required (ns):         2.661

Path 74
  From:                  fc2/counter[0]:CLK
  To:                    fc2/final_count[3]:D
  Delay (ns):            1.064
  Slack (ns):            1.047
  Arrival (ns):          3.716
  Required (ns):         2.669

Path 75
  From:                  fc2/counter[0]:CLK
  To:                    fc2/final_count[2]:D
  Delay (ns):            1.079
  Slack (ns):            1.062
  Arrival (ns):          3.731
  Required (ns):         2.669

Path 76
  From:                  fc0/state:CLK
  To:                    fc2/final_count[0]:E
  Delay (ns):            1.082
  Slack (ns):            1.065
  Arrival (ns):          3.734
  Required (ns):         2.669

Path 77
  From:                  fc0/state:CLK
  To:                    fc1/counter[2]:D
  Delay (ns):            1.088
  Slack (ns):            1.079
  Arrival (ns):          3.740
  Required (ns):         2.661

Path 78
  From:                  fc1/counter[0]:CLK
  To:                    fc1/counter[3]:D
  Delay (ns):            1.098
  Slack (ns):            1.082
  Arrival (ns):          3.743
  Required (ns):         2.661

Path 79
  From:                  fc2/counter[0]:CLK
  To:                    fc2/counter[3]:D
  Delay (ns):            1.094
  Slack (ns):            1.085
  Arrival (ns):          3.746
  Required (ns):         2.661

Path 80
  From:                  fc2/counter[2]:CLK
  To:                    fc2/final_count[3]:D
  Delay (ns):            1.114
  Slack (ns):            1.090
  Arrival (ns):          3.759
  Required (ns):         2.669

Path 81
  From:                  fc0/state:CLK
  To:                    fc1/final_count[3]:E
  Delay (ns):            1.106
  Slack (ns):            1.094
  Arrival (ns):          3.758
  Required (ns):         2.664

Path 82
  From:                  fc2/counter[1]:CLK
  To:                    fc2/final_count[3]:D
  Delay (ns):            1.127
  Slack (ns):            1.103
  Arrival (ns):          3.772
  Required (ns):         2.669

Path 83
  From:                  fc2/counter[1]:CLK
  To:                    fc2/counter[2]:D
  Delay (ns):            1.136
  Slack (ns):            1.120
  Arrival (ns):          3.781
  Required (ns):         2.661

Path 84
  From:                  fc2/counter[2]:CLK
  To:                    fc2/counter[3]:D
  Delay (ns):            1.144
  Slack (ns):            1.128
  Arrival (ns):          3.789
  Required (ns):         2.661

Path 85
  From:                  fc1/counter[2]:CLK
  To:                    fc1/counter[3]:D
  Delay (ns):            1.146
  Slack (ns):            1.130
  Arrival (ns):          3.791
  Required (ns):         2.661

Path 86
  From:                  fc0/state:CLK
  To:                    fc1/final_count[0]:E
  Delay (ns):            1.145
  Slack (ns):            1.133
  Arrival (ns):          3.797
  Required (ns):         2.664

Path 87
  From:                  fc0/state:CLK
  To:                    fc2/final_count[1]:E
  Delay (ns):            1.154
  Slack (ns):            1.137
  Arrival (ns):          3.806
  Required (ns):         2.669

Path 88
  From:                  fc2/counter[1]:CLK
  To:                    fc2/counter[3]:D
  Delay (ns):            1.157
  Slack (ns):            1.141
  Arrival (ns):          3.802
  Required (ns):         2.661

Path 89
  From:                  fc0/counter[2]:CLK
  To:                    fc0/counter[3]:D
  Delay (ns):            1.167
  Slack (ns):            1.164
  Arrival (ns):          3.821
  Required (ns):         2.657

Path 90
  From:                  fc1/counter[1]:CLK
  To:                    fc1/counter[3]:D
  Delay (ns):            1.180
  Slack (ns):            1.166
  Arrival (ns):          3.827
  Required (ns):         2.661

Path 91
  From:                  fc0/counter[1]:CLK
  To:                    fc0/counter[3]:D
  Delay (ns):            1.180
  Slack (ns):            1.177
  Arrival (ns):          3.834
  Required (ns):         2.657

Path 92
  From:                  fc0/counter[0]:CLK
  To:                    fc0/counter[3]:D
  Delay (ns):            1.180
  Slack (ns):            1.177
  Arrival (ns):          3.834
  Required (ns):         2.657

Path 93
  From:                  fc2/counter[0]:CLK
  To:                    fc2/counter[2]:D
  Delay (ns):            1.207
  Slack (ns):            1.198
  Arrival (ns):          3.859
  Required (ns):         2.661

Path 94
  From:                  fc2/final_count[3]:CLK
  To:                    fc2/ck_ok:D
  Delay (ns):            1.282
  Slack (ns):            1.262
  Arrival (ns):          3.934
  Required (ns):         2.672

Path 95
  From:                  fc1/final_count[3]:CLK
  To:                    fc1/ck_ok:D
  Delay (ns):            1.282
  Slack (ns):            1.265
  Arrival (ns):          3.929
  Required (ns):         2.664

Path 96
  From:                  fc0/final_count[3]:CLK
  To:                    fc0/ck_ok:D
  Delay (ns):            1.282
  Slack (ns):            1.272
  Arrival (ns):          3.936
  Required (ns):         2.664

