********************************************************************
                            Global Net Report
********************************************************************
  
Product: Designer
Release: v11.9 SP5
Version: 11.9.5.5
Date: Thu Apr 30 11:32:09 2020
Design Name: jtag_interface_top  Family: ProASIC3  Die: A3P250  Package: 144 FBGA


Automatic Global Net Placement Result:
Status: Global net placement completed successfully


Global Nets Information:

        |-----------------------------------------------------|
        |Global Nets         |Loads                           |
        |-----------------------------------------------------|
        |Name                |Core      |IO        |RAM       |
        |-----------------------------------------------------|
        |GLA                 |        9 |        0 |        0 |
        |-----------------------------------------------------|
        |GLB                 |       28 |        0 |        0 |
        |-----------------------------------------------------|

Summary of Global Net Placement:

        |------------------------------------------------------------------------|
        |Global Net          |Assignment          |Violation                     |
        |------------------------------------------------------------------------|
        |GLA                 |MIDDLE_LEFT         |                              |
        |------------------------------------------------------------------------|
        |GLB                 |MIDDLE_LEFT         |                              |
        |------------------------------------------------------------------------|
