Timing Report Max Delay Analysis

SmartTime Version v11.9 SP5
Microsemi Corporation - Microsemi Libero Software Release v11.9 SP5 (Version 11.9.5.5)
Date: Wed Apr 15 16:15:23 2020


Design: jtag_interface_top
Family: ProASIC3
Die: A3P250
Package: 144 FBGA
Temperature Range: -40 - 85 C
Voltage Range: 1.425 - 1.575 V
Speed Grade: -1
Design State: Post-Layout
Data source: Silicon verified
Min Operating Conditions: BEST - 1.575 V - -40 C
Max Operating Conditions: WORST - 1.425 V - 85 C
Using Enhanced Min Delay Analysis
Scenario for Timing Analysis: Primary


-----------------------------------------------------
SUMMARY

Clock Domain:               clocking/Core:GLA
Period (ns):                0.856
Frequency (MHz):            1168.224
Required Period (ns):       25.000
Required Frequency (MHz):   40.000
External Setup (ns):        -1.612
Max Clock-To-Out (ns):      12.155

Clock Domain:               clocking/Core:GLB
Period (ns):                4.196
Frequency (MHz):            238.322
Required Period (ns):       4.167
Required Frequency (MHz):   239.981
External Setup (ns):        -0.641
Max Clock-To-Out (ns):      N/A

Clock Domain:               gbt_clk40
Period (ns):                4.000
Frequency (MHz):            250.000
Required Period (ns):       24.950
Required Frequency (MHz):   40.080
External Setup (ns):        N/A
Max Clock-To-Out (ns):      N/A

Clock Domain:               osc_clk40
Period (ns):                4.000
Frequency (MHz):            250.000
Required Period (ns):       25.000
Required Frequency (MHz):   40.000
External Setup (ns):        N/A
Max Clock-To-Out (ns):      N/A

                            Input to Output
Max Delay (ns):             N/A

END SUMMARY
-----------------------------------------------------

Clock Domain clocking/Core:GLA

Info: The maximum frequency of this clock domain is limited by the minimum pulse widths of pin jtag_out_loc[2]:CLK

SET Register to Register

No Path

END SET Register to Register

----------------------------------------------------

SET External Setup

Path 1
  From:                  gbt_dvalid
  To:                    jtag_out_rem_tri_enable:D
  Delay (ns):            2.926
  Slack (ns):
  Arrival (ns):          2.926
  Required (ns):
  Setup (ns):            0.616
  External Setup (ns):   -1.612

Path 2
  From:                  gbt_tck_p[1]
  To:                    jtag_out_rem[2]:D
  Delay (ns):            2.800
  Slack (ns):
  Arrival (ns):          2.800
  Required (ns):
  Setup (ns):            0.616
  External Setup (ns):   -1.748

Path 3
  From:                  gbt_rst_p[1]
  To:                    jtag_out_rem[3]:D
  Delay (ns):            2.784
  Slack (ns):
  Arrival (ns):          2.784
  Required (ns):
  Setup (ns):            0.616
  External Setup (ns):   -1.761

Path 4
  From:                  gbt_tck_n[1]
  To:                    jtag_out_rem[2]:D
  Delay (ns):            2.786
  Slack (ns):
  Arrival (ns):          2.786
  Required (ns):
  Setup (ns):            0.616
  External Setup (ns):   -1.762

Path 5
  From:                  gbt_rst_n[1]
  To:                    jtag_out_rem[3]:D
  Delay (ns):            2.770
  Slack (ns):
  Arrival (ns):          2.770
  Required (ns):
  Setup (ns):            0.616
  External Setup (ns):   -1.775


Expanded Path 1
  From: gbt_dvalid
  To: jtag_out_rem_tri_enable:D
  data required time                             N/C
  data arrival time                          -   2.926
  slack                                          N/C
  ________________________________________________________
  Data arrival time calculation
  0.000                        gbt_dvalid (r)
               +     0.000          net: gbt_dvalid
  0.000                        gbt_dvalid_pad/U0/U0:PAD (r)
               +     0.875          cell: ADLIB:IOPAD_IN
  0.875                        gbt_dvalid_pad/U0/U0:Y (r)
               +     0.000          net: gbt_dvalid_pad/U0/NET1
  0.875                        gbt_dvalid_pad/U0/U1:YIN (r)
               +     0.037          cell: ADLIB:IOIN_IB
  0.912                        gbt_dvalid_pad/U0/U1:Y (r)
               +     1.075          net: gbt_dvalid_c
  1.987                        HIEFFPLA_INST_2_2005:C (r)
               +     0.649          cell: ADLIB:AND3
  2.636                        HIEFFPLA_INST_2_2005:Y (r)
               +     0.290          net: HIEFFPLA_NET_2_2542
  2.926                        jtag_out_rem_tri_enable:D (r)
                                    
  2.926                        data arrival time
  ________________________________________________________
  Data required time calculation
  N/C                          clocking/Core:GLA
               +     0.000          Clock source
  N/C                          clocking/Core:GLA (f)
               +     4.552          Clock generation
  N/C
               +     0.602          net: GLA
  N/C                          jtag_out_rem_tri_enable:CLK (f)
               -     0.616          Library setup time: ADLIB:DFN0
  N/C                          jtag_out_rem_tri_enable:D


END SET External Setup

----------------------------------------------------

SET Clock to Output

Path 1
  From:                  jtag_out_rem_tri_enable:CLK
  To:                    proasic_tck[1]
  Delay (ns):            7.001
  Slack (ns):
  Arrival (ns):          12.155
  Required (ns):
  Clock to Out (ns):     12.155

Path 2
  From:                  jtag_out_rem_tri_enable:CLK
  To:                    proasic_rst[0]
  Delay (ns):            6.693
  Slack (ns):
  Arrival (ns):          11.847
  Required (ns):
  Clock to Out (ns):     11.847

Path 3
  From:                  jtag_out_rem_tri_enable:CLK
  To:                    proasic_tdi[0]
  Delay (ns):            6.321
  Slack (ns):
  Arrival (ns):          11.475
  Required (ns):
  Clock to Out (ns):     11.475

Path 4
  From:                  jtag_out_rem_tri_enable:CLK
  To:                    proasic_tdi[1]
  Delay (ns):            6.034
  Slack (ns):
  Arrival (ns):          11.188
  Required (ns):
  Clock to Out (ns):     11.188

Path 5
  From:                  jtag_out_rem_tri_enable:CLK
  To:                    proasic_tms[1]
  Delay (ns):            5.742
  Slack (ns):
  Arrival (ns):          10.896
  Required (ns):
  Clock to Out (ns):     10.896


Expanded Path 1
  From: jtag_out_rem_tri_enable:CLK
  To: proasic_tck[1]
  data required time                             N/C
  data arrival time                          -   12.155
  slack                                          N/C
  ________________________________________________________
  Data arrival time calculation
  0.000                        clocking/Core:GLA
               +     0.000          Clock source
  0.000                        clocking/Core:GLA (f)
               +     4.552          Clock generation
  4.552
               +     0.602          net: GLA
  5.154                        jtag_out_rem_tri_enable:CLK (f)
               +     0.565          cell: ADLIB:DFN0
  5.719                        jtag_out_rem_tri_enable:Q (f)
               +     3.262          net: jtag_out_rem_tri_enable
  8.981                        proasic_tck_pad[1]/U0/U1:E (f)
               +     0.360          cell: ADLIB:IOTRI_OB_EB
  9.341                        proasic_tck_pad[1]/U0/U1:EOUT (f)
               +     0.000          net: proasic_tck_pad[1]/U0/NET2
  9.341                        proasic_tck_pad[1]/U0/U0:E (f)
               +     2.814          cell: ADLIB:IOPAD_TRI
  12.155                       proasic_tck_pad[1]/U0/U0:PAD (f)
               +     0.000          net: proasic_tck_0[1]
  12.155                       proasic_tck[1] (f)
                                    
  12.155                       data arrival time
  ________________________________________________________
  Data required time calculation
  N/C                          clocking/Core:GLA
               +     0.000          Clock source
  N/C                          clocking/Core:GLA (r)
               +     4.552          Clock generation
  N/C
                                    
  N/C                          proasic_tck[1] (f)


END SET Clock to Output

----------------------------------------------------

SET Register to Asynchronous

No Path

END SET Register to Asynchronous

----------------------------------------------------

SET External Recovery

No Path

END SET External Recovery

----------------------------------------------------

SET Asynchronous to Register

No Path

END SET Asynchronous to Register

----------------------------------------------------

Clock Domain clocking/Core:GLB

SET Register to Register

Path 1
  From:                  fc2/counter[2]:CLK
  To:                    fc2/counter[3]:D
  Delay (ns):            3.657
  Slack (ns):            -0.029
  Arrival (ns):          9.508
  Required (ns):         9.479
  Setup (ns):            0.496
  Minimum Period (ns):   4.196

Path 2
  From:                  fc0/counter[1]:CLK
  To:                    fc0/counter[3]:D
  Delay (ns):            3.643
  Slack (ns):            0.026
  Arrival (ns):          9.483
  Required (ns):         9.509
  Setup (ns):            0.496
  Minimum Period (ns):   4.141

Path 3
  From:                  fc1/counter[2]:CLK
  To:                    fc1/counter[3]:D
  Delay (ns):            3.631
  Slack (ns):            0.086
  Arrival (ns):          9.423
  Required (ns):         9.509
  Setup (ns):            0.496
  Minimum Period (ns):   4.081

Path 4
  From:                  fc2/counter[1]:CLK
  To:                    fc2/counter[3]:D
  Delay (ns):            3.493
  Slack (ns):            0.146
  Arrival (ns):          9.333
  Required (ns):         9.479
  Setup (ns):            0.496
  Minimum Period (ns):   4.021

Path 5
  From:                  fc0/counter[0]:CLK
  To:                    fc0/counter[2]:D
  Delay (ns):            3.506
  Slack (ns):            0.165
  Arrival (ns):          9.344
  Required (ns):         9.509
  Setup (ns):            0.496
  Minimum Period (ns):   4.002


Expanded Path 1
  From: fc2/counter[2]:CLK
  To: fc2/counter[3]:D
  data required time                             9.479
  data arrival time                          -   9.508
  slack                                          -0.029
  ________________________________________________________
  Data arrival time calculation
  0.000                        clocking/Core:GLB
               +     0.000          Clock source
  0.000                        clocking/Core:GLB (r)
               +     5.201          Clock generation
  5.201
               +     0.650          net: GLB
  5.851                        fc2/counter[2]:CLK (r)
               +     0.637          cell: ADLIB:DFN1
  6.488                        fc2/counter[2]:Q (f)
               +     0.350          net: fc2/counter[2]
  6.838                        HIEFFPLA_INST_2_1999:B (f)
               +     0.545          cell: ADLIB:AND2
  7.383                        HIEFFPLA_INST_2_1999:Y (f)
               +     0.298          net: HIEFFPLA_NET_2_2544
  7.681                        HIEFFPLA_INST_2_2001:B (f)
               +     0.863          cell: ADLIB:AX1C
  8.544                        HIEFFPLA_INST_2_2001:Y (f)
               +     0.328          net: HIEFFPLA_NET_2_2543
  8.872                        HIEFFPLA_INST_2_1973:C (f)
               +     0.350          cell: ADLIB:OA1A
  9.222                        HIEFFPLA_INST_2_1973:Y (f)
               +     0.286          net: HIEFFPLA_NET_2_2551
  9.508                        fc2/counter[3]:D (f)
                                    
  9.508                        data arrival time
  ________________________________________________________
  Data required time calculation
  4.167                        clocking/Core:GLB
               +     0.000          Clock source
  4.167                        clocking/Core:GLB (r)
               +     5.201          Clock generation
  9.368
               +     0.607          net: GLB
  9.975                        fc2/counter[3]:CLK (r)
               -     0.496          Library setup time: ADLIB:DFN1
  9.479                        fc2/counter[3]:D
                                    
  9.479                        data required time


END SET Register to Register

----------------------------------------------------

SET External Setup

Path 1
  From:                  gbt_clk40
  To:                    fc1/final_count[2]:E
  Delay (ns):            4.822
  Slack (ns):
  Arrival (ns):          4.822
  Required (ns):
  Setup (ns):            0.375
  External Setup (ns):   -0.641

Path 2
  From:                  gbt_clk40
  To:                    fc2/final_count[0]:E
  Delay (ns):            4.748
  Slack (ns):
  Arrival (ns):          4.748
  Required (ns):
  Setup (ns):            0.375
  External Setup (ns):   -0.685

Path 3
  From:                  gbt_clk40
  To:                    fc2/final_count[1]:E
  Delay (ns):            4.742
  Slack (ns):
  Arrival (ns):          4.742
  Required (ns):
  Setup (ns):            0.375
  External Setup (ns):   -0.723

Path 4
  From:                  gbt_clk40
  To:                    fc0/final_count[1]:E
  Delay (ns):            4.557
  Slack (ns):
  Arrival (ns):          4.557
  Required (ns):
  Setup (ns):            0.375
  External Setup (ns):   -0.919

Path 5
  From:                  gbt_clk40
  To:                    fc2/final_count[2]:E
  Delay (ns):            4.521
  Slack (ns):
  Arrival (ns):          4.521
  Required (ns):
  Setup (ns):            0.375
  External Setup (ns):   -0.944


Expanded Path 1
  From: gbt_clk40
  To: fc1/final_count[2]:E
  data required time                             N/C
  data arrival time                          -   4.822
  slack                                          N/C
  ________________________________________________________
  Data arrival time calculation
  0.000                        gbt_clk40 (r)
               +     0.000          net: gbt_clk40
  0.000                        gbt_clk40_pad/U0/U0:PAD (r)
               +     0.875          cell: ADLIB:IOPAD_IN
  0.875                        gbt_clk40_pad/U0/U0:Y (r)
               +     0.000          net: gbt_clk40_pad/U0/NET1
  0.875                        gbt_clk40_pad/U0/U1:YIN (r)
               +     0.037          cell: ADLIB:IOIN_IB
  0.912                        gbt_clk40_pad/U0/U1:Y (r)
               +     1.801          net: gbt_clk40_c
  2.713                        HIEFFPLA_INST_2_1929:B (r)
               +     0.445          cell: ADLIB:NOR2A
  3.158                        HIEFFPLA_INST_2_1929:Y (f)
               +     1.664          net: HIEFFPLA_NET_2_2565
  4.822                        fc1/final_count[2]:E (f)
                                    
  4.822                        data arrival time
  ________________________________________________________
  Data required time calculation
  N/C                          clocking/Core:GLB
               +     0.000          Clock source
  N/C                          clocking/Core:GLB (r)
               +     5.201          Clock generation
  N/C
               +     0.637          net: GLB
  N/C                          fc1/final_count[2]:CLK (r)
               -     0.375          Library setup time: ADLIB:DFN1E1
  N/C                          fc1/final_count[2]:E


END SET External Setup

----------------------------------------------------

SET Clock to Output

No Path

END SET Clock to Output

----------------------------------------------------

SET Register to Asynchronous

No Path

END SET Register to Asynchronous

----------------------------------------------------

SET External Recovery

No Path

END SET External Recovery

----------------------------------------------------

SET Asynchronous to Register

No Path

END SET Asynchronous to Register

----------------------------------------------------

Clock Domain gbt_clk40

Info: The maximum frequency of this clock domain is limited by the minimum pulse widths of pin gbt_clk40_pad/U0/U0:PAD

SET Register to Register

No Path

END SET Register to Register

----------------------------------------------------

SET External Setup

No Path

END SET External Setup

----------------------------------------------------

SET Clock to Output

No Path

END SET Clock to Output

----------------------------------------------------

SET Register to Asynchronous

No Path

END SET Register to Asynchronous

----------------------------------------------------

SET External Recovery

No Path

END SET External Recovery

----------------------------------------------------

SET Asynchronous to Register

No Path

END SET Asynchronous to Register

----------------------------------------------------

Clock Domain osc_clk40

Info: The maximum frequency of this clock domain is limited by the minimum pulse widths of pin osc_clk40_pad/U0/U0:PAD

SET Register to Register

No Path

END SET Register to Register

----------------------------------------------------

SET External Setup

No Path

END SET External Setup

----------------------------------------------------

SET Clock to Output

No Path

END SET Clock to Output

----------------------------------------------------

SET Register to Asynchronous

No Path

END SET Register to Asynchronous

----------------------------------------------------

SET External Recovery

No Path

END SET External Recovery

----------------------------------------------------

SET Asynchronous to Register

No Path

END SET Asynchronous to Register

----------------------------------------------------

Path set Pin to Pin

SET Input to Output

No Path

END SET Input to Output

----------------------------------------------------

Path set User Sets

