
Power Report for design jtag_interface_top with the following settings:

 Vendor:    Microsemi Corporation                                            
 Program:   Microsemi Libero Software, Release v11.9 SP5 (Version 11.9.5.5)  
            Copyright (C) 1989-2019                                          
 Date:      Thu Apr 16 17:36:49 2020                                         
 Version:   3.0                                                              


 Design:                 jtag_interface_top  
 Family:                 ProASIC3            
 Die:                    A3P250              
 Package:                144 FBGA            
 Temperature Range:      IND                 
 Voltage Range:          IND                 
 Operating Conditions:   Typical             
 Operating Mode:         Active              
 Data Source:            Silicon verified    


Power Summary
+---------------+------------+------------+
|               | Power (mW) | Percentage |
+---------------+------------+------------+
| Total Power   |     65.471 |     100.0% |
| Static Power  |     54.560 |      83.3% |
| Dynamic Power |     10.911 |      16.7% |
+---------------+------------+------------+


Annotation Coverage: Frequency Annotation
+-----------------------+------------+------------+-------------+--------------+--------------+-------+
| Frequency>=0          | VCD        | Manual     | SmartTime   | Vectorless   | Fixed Values | Total |
|                       | Annotation | Annotation | Constraint  | Estimation   |              |       |
+-----------------------+------------+------------+-------------+--------------+--------------+-------+
| Clocks                | 0 (0.00%)  | 0 (0.00%)  | 21 (91.30%) | 0 (0.00%)    | 2 (8.70%)    | 23    |
| Register outputs      | 0 (0.00%)  | 0 (0.00%)  | 0 (0.00%)   | 63 (100.00%) | 0 (0.00%)    | 63    |
| Combinational outputs | 0 (0.00%)  | 0 (0.00%)  | 0 (0.00%)   | 97 (69.29%)  | 43 (30.71%)  | 140   |
| Set/Reset nets        | 0 (0.00%)  | 0 (0.00%)  | 0 (0.00%)   | 0 (0.00%)    | 0 (0.00%)    | 0     |
| Primary inputs        | 0 (0.00%)  | 0 (0.00%)  | 0 (0.00%)   | 0 (0.00%)    | 24 (100.00%) | 24    |
| Enable pins           | 0 (0.00%)  | 0 (0.00%)  | 0 (0.00%)   | 8 (100.00%)  | 0 (0.00%)    | 8     |
| Other pins            | 0 (0.00%)  | 0 (0.00%)  | 0 (0.00%)   | 0 (0.00%)    | 0 (0.00%)    | 0     |
+-----------------------+------------+------------+-------------+--------------+--------------+-------+

+-----------------------+------------+------------+------------+--------------+-------------+-------+
| Frequency=0           | VCD        | Manual     | SmartTime  | Vectorless   | Fixed       | Total |
|                       | Annotation | Annotation | Constraint | Estimation   | Values      |       |
+-----------------------+------------+------------+------------+--------------+-------------+-------+
| Clocks                | 0 (0.00%)  | 0 (0.00%)  | 0 (0.00%)  | 0 (0.00%)    | 2 (100.00%) | 2     |
| Register outputs      | 0 (0.00%)  | 0 (0.00%)  | 0 (0.00%)  | 44 (100.00%) | 0 (0.00%)   | 44    |
| Combinational outputs | 0 (0.00%)  | 0 (0.00%)  | 0 (0.00%)  | 47 (100.00%) | 0 (0.00%)   | 47    |
| Set/Reset nets        | 0 (0.00%)  | 0 (0.00%)  | 0 (0.00%)  | 0 (0.00%)    | 0 (0.00%)   | 0     |
| Primary inputs        | 0 (0.00%)  | 0 (0.00%)  | 0 (0.00%)  | 0 (0.00%)    | 7 (100.00%) | 7     |
| Enable pins           | 0 (0.00%)  | 0 (0.00%)  | 0 (0.00%)  | 8 (100.00%)  | 0 (0.00%)   | 8     |
| Other pins            | 0 (0.00%)  | 0 (0.00%)  | 0 (0.00%)  | 0 (0.00%)    | 0 (0.00%)   | 0     |
+-----------------------+------------+------------+------------+--------------+-------------+-------+

Annotation Coverage: Probability Annotation
+-----------------------+------------+------------+-------------+--------------+--------------+-------+
| Probability>=0        | VCD        | Manual     | SmartTime   | Vectorless   | Fixed Values | Total |
|                       | Annotation | Annotation | Constraint  | Estimation   |              |       |
+-----------------------+------------+------------+-------------+--------------+--------------+-------+
| Clocks                | 0 (0.00%)  | 0 (0.00%)  | 21 (91.30%) | 0 (0.00%)    | 2 (8.70%)    | 23    |
| Register outputs      | 0 (0.00%)  | 0 (0.00%)  | 0 (0.00%)   | 63 (100.00%) | 0 (0.00%)    | 63    |
| Combinational outputs | 0 (0.00%)  | 0 (0.00%)  | 0 (0.00%)   | 97 (69.29%)  | 43 (30.71%)  | 140   |
| Set/Reset nets        | 0 (0.00%)  | 0 (0.00%)  | 0 (0.00%)   | 0 (0.00%)    | 0 (0.00%)    | 0     |
| Primary inputs        | 0 (0.00%)  | 0 (0.00%)  | 0 (0.00%)   | 0 (0.00%)    | 24 (100.00%) | 24    |
| Enable pins           | 0 (0.00%)  | 0 (0.00%)  | 0 (0.00%)   | 8 (100.00%)  | 0 (0.00%)    | 8     |
| Other pins            | 0 (0.00%)  | 0 (0.00%)  | 0 (0.00%)   | 0 (0.00%)    | 0 (0.00%)    | 0     |
+-----------------------+------------+------------+-------------+--------------+--------------+-------+


Operating Condition Summary
+----------------------+---------+----------------------------------+
|                      | Value   | Range Definition                 |
+----------------------+---------+----------------------------------+
| Junction Temperature | 25.00 C | Design operating range (default) |
|                      |         |                                  |
| VCC                  | 1.500 V | Design operating range(default)  |
| VCCI 2.5             | 2.500 V | Design operating range(default)  |
| VCCI 3.3             | 3.300 V | Design operating range(default)  |
+----------------------+---------+----------------------------------+


Breakdown by Rail
+---------------+------------+-------------+--------------+
|               | Power (mW) | Voltage (V) | Current (mA) |
+---------------+------------+-------------+--------------+
| Rail VCC      |     13.441 |      1.500  |      8.961   |
| Rail VCCI 2.5 |     50.031 |      2.500  |     20.012   |
| Rail VCCI 3.3 |      1.999 |      3.300  |      0.606   |
+---------------+------------+-------------+--------------+


Breakdown by Clock
+-------------------------------------------+------------+------------+
|                                           | Power (mW) | Percentage |
+-------------------------------------------+------------+------------+
| osc_clk40 (clocks)                        |      0.781 |       7.2% |
| osc_clk40 (register outputs)              |      0.000 |       0.0% |
| osc_clk40 (primary inputs)                |      0.000 |       0.0% |
| osc_clk40 (combinational outputs)         |      0.000 |       0.0% |
| osc_clk40 (set/reset nets)                |      0.000 |       0.0% |
| gbt_clk40 (clocks)                        |      1.534 |      14.1% |
| gbt_clk40 (register outputs)              |      1.140 |      10.4% |
| gbt_clk40 (primary inputs)                |      0.000 |       0.0% |
| gbt_clk40 (combinational outputs)         |      0.217 |       2.0% |
| gbt_clk40 (set/reset nets)                |      0.000 |       0.0% |
| clocking/Core:GLA (clocks)                |      0.993 |       9.1% |
| clocking/Core:GLA (register outputs)      |      0.022 |       0.2% |
| clocking/Core:GLA (primary inputs)        |      0.000 |       0.0% |
| clocking/Core:GLA (combinational outputs) |      0.085 |       0.8% |
| clocking/Core:GLA (set/reset nets)        |      0.000 |       0.0% |
| clocking/Core:GLB (clocks)                |      5.867 |      53.8% |
| clocking/Core:GLB (register outputs)      |      0.001 |       0.0% |
| clocking/Core:GLB (primary inputs)        |      0.000 |       0.0% |
| clocking/Core:GLB (combinational outputs) |      0.270 |       2.5% |
| clocking/Core:GLB (set/reset nets)        |      0.000 |       0.0% |
| clksig/U0/U0:Y (clocks)                   |      0.000 |       0.0% |
| clksig/U0/U0:Y (register outputs)         |      0.000 |       0.0% |
| clksig/U0/U0:Y (primary inputs)           |      0.000 |       0.0% |
| clksig/U0/U0:Y (combinational outputs)    |      0.002 |       0.0% |
| clksig/U0/U0:Y (set/reset nets)           |      0.000 |       0.0% |
| Input to Output                           |      0.000 |       0.0% |
+-------------------------------------------+------------+------------+


Breakdown by Type
+-------------------+------------+------------+
|                   | Power (mW) | Percentage |
+-------------------+------------+------------+
| Type Net          |      7.356 |      11.2% |
| Type Gate         |      2.185 |       3.3% |
| Type I/O          |     50.870 |      77.7% |
| Type Core Static  |      3.900 |       6.0% |
| Type Banks Static |      1.160 |       1.8% |
+-------------------+------------+------------+


Clock Domains Summary: Frequency
+-------------------+---------+------------------+----------------+------------------+------------------+
| Name              | Clocks  | Register         | Set/Reset      | Primary          | Combinational    |
|                   | (MHz)   | outputs          | nets           | inputs           | outputs          |
|                   |         | (MHz)            | (MHz)          | (MHz)            | (MHz)            |
+-------------------+---------+------------------+----------------+------------------+------------------+
| osc_clk40         | 40.000  | 0.000 (0.00 %)   | 0.000 (0.00 %) | 2.000 (10.00 %)  | 0.000 (0.00 %)   |
| gbt_clk40         | 40.080  | 17.742 (88.53 %) | 0.000 (0.00 %) | 2.004 (10.00 %)  | 14.970 (74.70 %) |
| clocking/Core:GLA | 40.000  | 1.782 (8.91 %)   | 0.000 (0.00 %) | 2.000 (10.00 %)  | 1.621 (8.10 %)   |
| clocking/Core:GLB | 239.981 | 0.234 (0.19 %)   | 0.000 (0.00 %) | 11.999 (10.00 %) | 14.436 (12.03 %) |
| clksig/U0/U0:Y    | 0.000   | 0.000 (0.00 %)   | 0.000 (0.00 %) | 0.000 (0.00 %)   | 0.019 (0.00 %)   |
+-------------------+---------+------------------+----------------+------------------+------------------+

Clock Domains Summary: Probability
+-------------------+--------+----------+-----------+---------+---------------+
| Name              | Clocks | Register | Set/Reset | Primary | Combinational |
|                   | (%)    | outputs  | nets      | inputs  | outputs       |
|                   |        | (%)      | (%)       | (%)     | (%)           |
+-------------------+--------+----------+-----------+---------+---------------+
| osc_clk40         | 50.000 | 50.000   | 50.000    | 50.000  | 50.000        |
| gbt_clk40         | 50.000 | 22.219   | 50.000    | 50.000  | 6.258         |
| clocking/Core:GLA | 50.000 | 41.989   | 50.000    | 50.000  | 38.249        |
| clocking/Core:GLB | 50.000 | 99.709   | 50.000    | 50.000  | 45.998        |
| clksig/U0/U0:Y    | 50.000 | 0.097    | 50.000    | 50.000  | 8.154         |
+-------------------+--------+----------+-----------+---------+---------------+

Set Of Pins Summary: Frequency
+--------------+-------+
| Name         | Data  |
|              | (MHz) |
+--------------+-------+
| IOsEnableSet | 0.000 |
+--------------+-------+

Set Of Pins Summary: Probability
+--------------+-------+
| Name         | Data  |
|              | (%)   |
+--------------+-------+
| IOsEnableSet | 0.098 |
+--------------+-------+


