Timing Report Max Delay Analysis

SmartTime Version v11.9 SP5
Microsemi Corporation - Microsemi Libero Software Release v11.9 SP5 (Version 11.9.5.5)
Date: Wed Apr 15 16:16:05 2020


Design: jtag_interface_top
Family: ProASIC3
Die: A3P250
Package: 144 FBGA
Temperature Range: -40 - 85 C
Voltage Range: 1.425 - 1.575 V
Speed Grade: -1
Design State: Post-Layout
Data source: Silicon verified
Min Operating Conditions: BEST - 1.575 V - -40 C
Max Operating Conditions: WORST - 1.425 V - 85 C
Using Enhanced Min Delay Analysis
Scenario for Timing Analysis: Primary


-----------------------------------------------------
SUMMARY

Clock Domain:               clocking/Core:GLA
Period (ns):                0.858
Frequency (MHz):            1165.501
Required Period (ns):       25.000
Required Frequency (MHz):   40.000
External Setup (ns):        -1.696
Max Clock-To-Out (ns):      12.495

Clock Domain:               clocking/Core:GLB
Period (ns):                4.013
Frequency (MHz):            249.190
Required Period (ns):       4.167
Required Frequency (MHz):   239.981
External Setup (ns):        -1.535
Max Clock-To-Out (ns):      N/A

Clock Domain:               gbt_clk40
Period (ns):                4.000
Frequency (MHz):            250.000
Required Period (ns):       24.950
Required Frequency (MHz):   40.080
External Setup (ns):        N/A
Max Clock-To-Out (ns):      N/A

Clock Domain:               osc_clk40
Period (ns):                4.000
Frequency (MHz):            250.000
Required Period (ns):       25.000
Required Frequency (MHz):   40.000
External Setup (ns):        N/A
Max Clock-To-Out (ns):      N/A

                            Input to Output
Max Delay (ns):             N/A

END SUMMARY
-----------------------------------------------------

Clock Domain clocking/Core:GLA

Info: The maximum frequency of this clock domain is limited by the minimum pulse widths of pin jtag_out_rem[3]:CLK

SET Register to Register

No Path

END SET Register to Register

----------------------------------------------------

SET External Setup

Path 1
  From:                  gbt_dvalid
  To:                    jtag_out_rem_tri_enable:D
  Delay (ns):            2.842
  Slack (ns):
  Arrival (ns):          2.842
  Required (ns):
  Setup (ns):            0.616
  External Setup (ns):   -1.696

Path 2
  From:                  gbt_tdi_p[0]
  To:                    jtag_out_loc[1]:D
  Delay (ns):            2.732
  Slack (ns):
  Arrival (ns):          2.732
  Required (ns):
  Setup (ns):            0.616
  External Setup (ns):   -1.816

Path 3
  From:                  gbt_tdi_n[0]
  To:                    jtag_out_loc[1]:D
  Delay (ns):            2.718
  Slack (ns):
  Arrival (ns):          2.718
  Required (ns):
  Setup (ns):            0.616
  External Setup (ns):   -1.830

Path 4
  From:                  gbt_rst_p[0]
  To:                    jtag_out_loc[3]:D
  Delay (ns):            2.707
  Slack (ns):
  Arrival (ns):          2.707
  Required (ns):
  Setup (ns):            0.616
  External Setup (ns):   -1.840

Path 5
  From:                  gbt_rst_n[0]
  To:                    jtag_out_loc[3]:D
  Delay (ns):            2.693
  Slack (ns):
  Arrival (ns):          2.693
  Required (ns):
  Setup (ns):            0.616
  External Setup (ns):   -1.854


Expanded Path 1
  From: gbt_dvalid
  To: jtag_out_rem_tri_enable:D
  data required time                             N/C
  data arrival time                          -   2.842
  slack                                          N/C
  ________________________________________________________
  Data arrival time calculation
  0.000                        gbt_dvalid (r)
               +     0.000          net: gbt_dvalid
  0.000                        gbt_dvalid_pad/U0/U0:PAD (r)
               +     0.875          cell: ADLIB:IOPAD_IN
  0.875                        gbt_dvalid_pad/U0/U0:Y (r)
               +     0.000          net: gbt_dvalid_pad/U0/NET1
  0.875                        gbt_dvalid_pad/U0/U1:YIN (r)
               +     0.037          cell: ADLIB:IOIN_IB
  0.912                        gbt_dvalid_pad/U0/U1:Y (r)
               +     0.991          net: gbt_dvalid_c
  1.903                        jtag_out_rem_tri_enable_RNO:C (r)
               +     0.649          cell: ADLIB:AND3
  2.552                        jtag_out_rem_tri_enable_RNO:Y (r)
               +     0.290          net: jtag_loc_en
  2.842                        jtag_out_rem_tri_enable:D (r)
                                    
  2.842                        data arrival time
  ________________________________________________________
  Data required time calculation
  N/C                          clocking/Core:GLA
               +     0.000          Clock source
  N/C                          clocking/Core:GLA (f)
               +     4.552          Clock generation
  N/C
               +     0.602          net: GLA
  N/C                          jtag_out_rem_tri_enable:CLK (f)
               -     0.616          Library setup time: ADLIB:DFN0
  N/C                          jtag_out_rem_tri_enable:D


END SET External Setup

----------------------------------------------------

SET Clock to Output

Path 1
  From:                  jtag_out_rem_tri_enable:CLK
  To:                    proasic_tck[0]
  Delay (ns):            7.341
  Slack (ns):
  Arrival (ns):          12.495
  Required (ns):
  Clock to Out (ns):     12.495

Path 2
  From:                  jtag_out_rem_tri_enable:CLK
  To:                    proasic_tms[0]
  Delay (ns):            7.219
  Slack (ns):
  Arrival (ns):          12.373
  Required (ns):
  Clock to Out (ns):     12.373

Path 3
  From:                  jtag_out_rem_tri_enable:CLK
  To:                    proasic_tdi[1]
  Delay (ns):            7.019
  Slack (ns):
  Arrival (ns):          12.173
  Required (ns):
  Clock to Out (ns):     12.173

Path 4
  From:                  jtag_out_rem_tri_enable:CLK
  To:                    proasic_rst[1]
  Delay (ns):            6.927
  Slack (ns):
  Arrival (ns):          12.081
  Required (ns):
  Clock to Out (ns):     12.081

Path 5
  From:                  jtag_out_rem_tri_enable:CLK
  To:                    proasic_rst[0]
  Delay (ns):            6.887
  Slack (ns):
  Arrival (ns):          12.041
  Required (ns):
  Clock to Out (ns):     12.041


Expanded Path 1
  From: jtag_out_rem_tri_enable:CLK
  To: proasic_tck[0]
  data required time                             N/C
  data arrival time                          -   12.495
  slack                                          N/C
  ________________________________________________________
  Data arrival time calculation
  0.000                        clocking/Core:GLA
               +     0.000          Clock source
  0.000                        clocking/Core:GLA (f)
               +     4.552          Clock generation
  4.552
               +     0.602          net: GLA
  5.154                        jtag_out_rem_tri_enable:CLK (f)
               +     0.565          cell: ADLIB:DFN0
  5.719                        jtag_out_rem_tri_enable:Q (f)
               +     3.602          net: jtag_out_rem_tri_enable
  9.321                        proasic_tck_pad[0]/U0/U1:E (f)
               +     0.360          cell: ADLIB:IOTRI_OB_EB
  9.681                        proasic_tck_pad[0]/U0/U1:EOUT (f)
               +     0.000          net: proasic_tck_pad[0]/U0/NET2
  9.681                        proasic_tck_pad[0]/U0/U0:E (f)
               +     2.814          cell: ADLIB:IOPAD_TRI
  12.495                       proasic_tck_pad[0]/U0/U0:PAD (f)
               +     0.000          net: proasic_tck_0[0]
  12.495                       proasic_tck[0] (f)
                                    
  12.495                       data arrival time
  ________________________________________________________
  Data required time calculation
  N/C                          clocking/Core:GLA
               +     0.000          Clock source
  N/C                          clocking/Core:GLA (r)
               +     4.552          Clock generation
  N/C
                                    
  N/C                          proasic_tck[0] (f)


END SET Clock to Output

----------------------------------------------------

SET Register to Asynchronous

No Path

END SET Register to Asynchronous

----------------------------------------------------

SET External Recovery

No Path

END SET External Recovery

----------------------------------------------------

SET Asynchronous to Register

No Path

END SET Asynchronous to Register

----------------------------------------------------

Clock Domain clocking/Core:GLB

SET Register to Register

Path 1
  From:                  fc0/state:CLK
  To:                    fc0/counter[1]:D
  Delay (ns):            3.547
  Slack (ns):            0.154
  Arrival (ns):          9.379
  Required (ns):         9.533
  Setup (ns):            0.466
  Minimum Period (ns):   4.013

Path 2
  From:                  fc1/final_count[3]:CLK
  To:                    fc1/ck_ok:D
  Delay (ns):            3.428
  Slack (ns):            0.205
  Arrival (ns):          9.273
  Required (ns):         9.478
  Setup (ns):            0.496
  Minimum Period (ns):   3.962

Path 3
  From:                  fc2/final_count[3]:CLK
  To:                    fc2/ck_ok:D
  Delay (ns):            3.426
  Slack (ns):            0.207
  Arrival (ns):          9.271
  Required (ns):         9.478
  Setup (ns):            0.496
  Minimum Period (ns):   3.960

Path 4
  From:                  fc0/final_count[3]:CLK
  To:                    fc0/ck_ok:D
  Delay (ns):            3.426
  Slack (ns):            0.207
  Arrival (ns):          9.271
  Required (ns):         9.478
  Setup (ns):            0.496
  Minimum Period (ns):   3.960

Path 5
  From:                  fc0/state:CLK
  To:                    fc0/counter[3]:D
  Delay (ns):            3.419
  Slack (ns):            0.295
  Arrival (ns):          9.251
  Required (ns):         9.546
  Setup (ns):            0.466
  Minimum Period (ns):   3.872


Expanded Path 1
  From: fc0/state:CLK
  To: fc0/counter[1]:D
  data required time                             9.533
  data arrival time                          -   9.379
  slack                                          0.154
  ________________________________________________________
  Data arrival time calculation
  0.000                        clocking/Core:GLB
               +     0.000          Clock source
  0.000                        clocking/Core:GLB (r)
               +     5.201          Clock generation
  5.201
               +     0.631          net: GLB
  5.832                        fc0/state:CLK (r)
               +     0.637          cell: ADLIB:DFN1
  6.469                        fc0/state:Q (f)
               +     1.758          net: fc0/state
  8.227                        fc0/HIEFFPLA_INST_1_2471:A (f)
               +     0.850          cell: ADLIB:OA1A
  9.077                        fc0/HIEFFPLA_INST_1_2471:Y (r)
               +     0.302          net: fc0/HIEFFPLA_NET_1_2653
  9.379                        fc0/counter[1]:D (r)
                                    
  9.379                        data arrival time
  ________________________________________________________
  Data required time calculation
  4.167                        clocking/Core:GLB
               +     0.000          Clock source
  4.167                        clocking/Core:GLB (r)
               +     5.201          Clock generation
  9.368
               +     0.631          net: GLB
  9.999                        fc0/counter[1]:CLK (r)
               -     0.466          Library setup time: ADLIB:DFN1
  9.533                        fc0/counter[1]:D
                                    
  9.533                        data required time


END SET Register to Register

----------------------------------------------------

SET External Setup

Path 1
  From:                  gbt_clk40
  To:                    fc0/final_count[1]:E
  Delay (ns):            3.935
  Slack (ns):
  Arrival (ns):          3.935
  Required (ns):
  Setup (ns):            0.375
  External Setup (ns):   -1.535

Path 2
  From:                  gbt_clk40
  To:                    fc2/counter[0]:D
  Delay (ns):            3.832
  Slack (ns):
  Arrival (ns):          3.832
  Required (ns):
  Setup (ns):            0.466
  External Setup (ns):   -1.545

Path 3
  From:                  gbt_clk40
  To:                    fc0/final_count[3]:E
  Delay (ns):            3.797
  Slack (ns):
  Arrival (ns):          3.797
  Required (ns):
  Setup (ns):            0.375
  External Setup (ns):   -1.673

Path 4
  From:                  gbt_clk40
  To:                    fc0/final_count[2]:E
  Delay (ns):            3.797
  Slack (ns):
  Arrival (ns):          3.797
  Required (ns):
  Setup (ns):            0.375
  External Setup (ns):   -1.673

Path 5
  From:                  gbt_clk40
  To:                    fc2/final_count[0]:E
  Delay (ns):            3.700
  Slack (ns):
  Arrival (ns):          3.700
  Required (ns):
  Setup (ns):            0.375
  External Setup (ns):   -1.732


Expanded Path 1
  From: gbt_clk40
  To: fc0/final_count[1]:E
  data required time                             N/C
  data arrival time                          -   3.935
  slack                                          N/C
  ________________________________________________________
  Data arrival time calculation
  0.000                        gbt_clk40 (r)
               +     0.000          net: gbt_clk40
  0.000                        gbt_clk40_pad/U0/U0:PAD (r)
               +     0.875          cell: ADLIB:IOPAD_IN
  0.875                        gbt_clk40_pad/U0/U0:Y (r)
               +     0.000          net: gbt_clk40_pad/U0/NET1
  0.875                        gbt_clk40_pad/U0/U1:YIN (r)
               +     0.037          cell: ADLIB:IOIN_IB
  0.912                        gbt_clk40_pad/U0/U1:Y (r)
               +     1.052          net: gbt_clk40_c
  1.964                        fc0/state_RNIM29B:B (r)
               +     0.445          cell: ADLIB:NOR2A
  2.409                        fc0/state_RNIM29B:Y (f)
               +     1.526          net: fc0_counter_0_sqmuxa
  3.935                        fc0/final_count[1]:E (f)
                                    
  3.935                        data arrival time
  ________________________________________________________
  Data required time calculation
  N/C                          clocking/Core:GLB
               +     0.000          Clock source
  N/C                          clocking/Core:GLB (r)
               +     5.201          Clock generation
  N/C
               +     0.644          net: GLB
  N/C                          fc0/final_count[1]:CLK (r)
               -     0.375          Library setup time: ADLIB:DFN1E1
  N/C                          fc0/final_count[1]:E


END SET External Setup

----------------------------------------------------

SET Clock to Output

No Path

END SET Clock to Output

----------------------------------------------------

SET Register to Asynchronous

No Path

END SET Register to Asynchronous

----------------------------------------------------

SET External Recovery

No Path

END SET External Recovery

----------------------------------------------------

SET Asynchronous to Register

No Path

END SET Asynchronous to Register

----------------------------------------------------

Clock Domain gbt_clk40

Info: The maximum frequency of this clock domain is limited by the minimum pulse widths of pin gbt_clk40_pad/U0/U0:PAD

SET Register to Register

No Path

END SET Register to Register

----------------------------------------------------

SET External Setup

No Path

END SET External Setup

----------------------------------------------------

SET Clock to Output

No Path

END SET Clock to Output

----------------------------------------------------

SET Register to Asynchronous

No Path

END SET Register to Asynchronous

----------------------------------------------------

SET External Recovery

No Path

END SET External Recovery

----------------------------------------------------

SET Asynchronous to Register

No Path

END SET Asynchronous to Register

----------------------------------------------------

Clock Domain osc_clk40

Info: The maximum frequency of this clock domain is limited by the minimum pulse widths of pin osc_clk40_pad/U0/U0:PAD

SET Register to Register

No Path

END SET Register to Register

----------------------------------------------------

SET External Setup

No Path

END SET External Setup

----------------------------------------------------

SET Clock to Output

No Path

END SET Clock to Output

----------------------------------------------------

SET Register to Asynchronous

No Path

END SET Register to Asynchronous

----------------------------------------------------

SET External Recovery

No Path

END SET External Recovery

----------------------------------------------------

SET Asynchronous to Register

No Path

END SET Asynchronous to Register

----------------------------------------------------

Path set Pin to Pin

SET Input to Output

No Path

END SET Input to Output

----------------------------------------------------

Path set User Sets

