Timing Violation Report Max Delay Analysis

SmartTime Version v11.9 SP5
Microsemi Corporation - Microsemi Libero Software Release v11.9 SP5 (Version 11.9.5.5)
Date: Wed Apr 15 16:15:01 2020


Design: jtag_interface_top
Family: ProASIC3
Die: A3P250
Package: 144 FBGA
Temperature Range: -40 - 85 C
Voltage Range: 1.425 - 1.575 V
Speed Grade: -1
Design State: Post-Layout
Data source: Silicon verified
Min Operating Conditions: BEST - 1.575 V - -40 C
Max Operating Conditions: WORST - 1.425 V - 85 C
Using Enhanced Min Delay Analysis
Scenario for Timing Analysis: Primary


Path 1
  From:                  fc1/counter[0]:CLK
  To:                    fc1/counter[3]:D
  Delay (ns):            3.763
  Slack (ns):            -0.062
  Arrival (ns):          9.588
  Required (ns):         9.526

Path 2
  From:                  fc2/counter[2]:CLK
  To:                    fc2/counter[3]:D
  Delay (ns):            3.630
  Slack (ns):            0.041
  Arrival (ns):          9.455
  Required (ns):         9.496

Path 3
  From:                  fc1/counter[2]:CLK
  To:                    fc1/counter[3]:D
  Delay (ns):            3.600
  Slack (ns):            0.094
  Arrival (ns):          9.432
  Required (ns):         9.526

Path 4
  From:                  fc0/counter[0]:CLK
  To:                    fc0/counter[3]:D
  Delay (ns):            3.560
  Slack (ns):            0.109
  Arrival (ns):          9.392
  Required (ns):         9.501

Path 5
  From:                  fc2/counter[1]:CLK
  To:                    fc2/counter[3]:D
  Delay (ns):            3.535
  Slack (ns):            0.136
  Arrival (ns):          9.360
  Required (ns):         9.496

Path 6
  From:                  fc2/counter[0]:CLK
  To:                    fc2/counter[2]:D
  Delay (ns):            3.478
  Slack (ns):            0.193
  Arrival (ns):          9.303
  Required (ns):         9.496

Path 7
  From:                  fc1/counter[1]:CLK
  To:                    fc1/counter[3]:D
  Delay (ns):            3.405
  Slack (ns):            0.296
  Arrival (ns):          9.230
  Required (ns):         9.526

Path 8
  From:                  fc0/counter[1]:CLK
  To:                    fc0/counter[3]:D
  Delay (ns):            3.302
  Slack (ns):            0.389
  Arrival (ns):          9.112
  Required (ns):         9.501

Path 9
  From:                  fc0/counter[2]:CLK
  To:                    fc0/counter[3]:D
  Delay (ns):            3.268
  Slack (ns):            0.423
  Arrival (ns):          9.078
  Required (ns):         9.501

Path 10
  From:                  fc0/state:CLK
  To:                    fc1/counter[3]:D
  Delay (ns):            3.216
  Slack (ns):            0.478
  Arrival (ns):          9.048
  Required (ns):         9.526

Path 11
  From:                  fc1/counter[0]:CLK
  To:                    fc1/final_count[3]:D
  Delay (ns):            3.143
  Slack (ns):            0.565
  Arrival (ns):          8.968
  Required (ns):         9.533

Path 12
  From:                  fc0/state:CLK
  To:                    fc1/counter[0]:D
  Delay (ns):            3.089
  Slack (ns):            0.605
  Arrival (ns):          8.921
  Required (ns):         9.526

Path 13
  From:                  fc0/state:CLK
  To:                    fc1/counter[1]:D
  Delay (ns):            3.089
  Slack (ns):            0.605
  Arrival (ns):          8.921
  Required (ns):         9.526

Path 14
  From:                  fc0/state:CLK
  To:                    fc1/final_count[3]:E
  Delay (ns):            3.133
  Slack (ns):            0.659
  Arrival (ns):          8.965
  Required (ns):         9.624

Path 15
  From:                  fc2/counter[2]:CLK
  To:                    fc2/final_count[3]:D
  Delay (ns):            3.014
  Slack (ns):            0.664
  Arrival (ns):          8.839
  Required (ns):         9.503

Path 16
  From:                  fc1/counter[2]:CLK
  To:                    fc1/final_count[3]:D
  Delay (ns):            2.980
  Slack (ns):            0.721
  Arrival (ns):          8.812
  Required (ns):         9.533

Path 17
  From:                  fc0/state:CLK
  To:                    fc2/counter[0]:D
  Delay (ns):            2.959
  Slack (ns):            0.735
  Arrival (ns):          8.791
  Required (ns):         9.526

Path 18
  From:                  fc0/state:CLK
  To:                    fc0/counter[3]:D
  Delay (ns):            2.934
  Slack (ns):            0.735
  Arrival (ns):          8.766
  Required (ns):         9.501

Path 19
  From:                  fc2/counter[1]:CLK
  To:                    fc2/counter[2]:D
  Delay (ns):            2.926
  Slack (ns):            0.745
  Arrival (ns):          8.751
  Required (ns):         9.496

Path 20
  From:                  fc1/counter[0]:CLK
  To:                    fc1/counter[2]:D
  Delay (ns):            2.925
  Slack (ns):            0.753
  Arrival (ns):          8.750
  Required (ns):         9.503

Path 21
  From:                  fc0/counter[0]:CLK
  To:                    fc0/final_count[3]:D
  Delay (ns):            2.931
  Slack (ns):            0.756
  Arrival (ns):          8.763
  Required (ns):         9.519

Path 22
  From:                  fc2/counter[1]:CLK
  To:                    fc2/final_count[3]:D
  Delay (ns):            2.919
  Slack (ns):            0.759
  Arrival (ns):          8.744
  Required (ns):         9.503

Path 23
  From:                  fc0/state:CLK
  To:                    fc2/counter[2]:D
  Delay (ns):            2.933
  Slack (ns):            0.761
  Arrival (ns):          8.765
  Required (ns):         9.526

Path 24
  From:                  fc2/counter[0]:CLK
  To:                    fc2/counter[3]:D
  Delay (ns):            2.880
  Slack (ns):            0.791
  Arrival (ns):          8.705
  Required (ns):         9.496

Path 25
  From:                  fc0/counter[0]:CLK
  To:                    fc0/counter[2]:D
  Delay (ns):            2.854
  Slack (ns):            0.795
  Arrival (ns):          8.686
  Required (ns):         9.481

Path 26
  From:                  fc0/counter[1]:CLK
  To:                    fc0/counter[2]:D
  Delay (ns):            2.866
  Slack (ns):            0.805
  Arrival (ns):          8.676
  Required (ns):         9.481

Path 27
  From:                  fc2/counter[0]:CLK
  To:                    fc2/final_count[2]:D
  Delay (ns):            2.862
  Slack (ns):            0.809
  Arrival (ns):          8.687
  Required (ns):         9.496

Path 28
  From:                  fc1/counter[1]:CLK
  To:                    fc1/counter[2]:D
  Delay (ns):            2.854
  Slack (ns):            0.824
  Arrival (ns):          8.679
  Required (ns):         9.503

Path 29
  From:                  fc1/counter[1]:CLK
  To:                    fc1/counter[1]:D
  Delay (ns):            2.800
  Slack (ns):            0.871
  Arrival (ns):          8.625
  Required (ns):         9.496

Path 30
  From:                  fc0/state:CLK
  To:                    fc0/counter[1]:D
  Delay (ns):            2.805
  Slack (ns):            0.874
  Arrival (ns):          8.637
  Required (ns):         9.511

Path 31
  From:                  fc0/state:CLK
  To:                    fc2/counter[1]:D
  Delay (ns):            2.805
  Slack (ns):            0.889
  Arrival (ns):          8.637
  Required (ns):         9.526

Path 32
  From:                  fc0/counter[3]:CLK
  To:                    fc0/counter[3]:D
  Delay (ns):            2.761
  Slack (ns):            0.910
  Arrival (ns):          8.561
  Required (ns):         9.471

Path 33
  From:                  fc1/counter[1]:CLK
  To:                    fc1/final_count[3]:D
  Delay (ns):            2.785
  Slack (ns):            0.923
  Arrival (ns):          8.610
  Required (ns):         9.533

Path 34
  From:                  fc0/state:CLK
  To:                    fc1/final_count[2]:E
  Delay (ns):            2.800
  Slack (ns):            0.985
  Arrival (ns):          8.632
  Required (ns):         9.617

Path 35
  From:                  fc1/counter[1]:CLK
  To:                    fc1/final_count[1]:D
  Delay (ns):            2.682
  Slack (ns):            0.996
  Arrival (ns):          8.507
  Required (ns):         9.503

Path 36
  From:                  fc0/state:CLK
  To:                    fc2/final_count[3]:E
  Delay (ns):            2.790
  Slack (ns):            1.002
  Arrival (ns):          8.622
  Required (ns):         9.624

Path 37
  From:                  fc0/state:CLK
  To:                    fc2/counter[3]:D
  Delay (ns):            2.684
  Slack (ns):            1.010
  Arrival (ns):          8.516
  Required (ns):         9.526

Path 38
  From:                  fc0/state:CLK
  To:                    fc0/counter[2]:D
  Delay (ns):            2.662
  Slack (ns):            1.017
  Arrival (ns):          8.494
  Required (ns):         9.511

Path 39
  From:                  fc0/counter[1]:CLK
  To:                    fc0/final_count[3]:D
  Delay (ns):            2.673
  Slack (ns):            1.036
  Arrival (ns):          8.483
  Required (ns):         9.519

Path 40
  From:                  fc0/state:CLK
  To:                    fc0/final_count[1]:E
  Delay (ns):            2.719
  Slack (ns):            1.041
  Arrival (ns):          8.551
  Required (ns):         9.592

Path 41
  From:                  fc2/final_count[1]:CLK
  To:                    fc2/ck_ok:D
  Delay (ns):            2.630
  Slack (ns):            1.049
  Arrival (ns):          8.462
  Required (ns):         9.511

Path 42
  From:                  fc0/state:CLK
  To:                    fc0/final_count[2]:E
  Delay (ns):            2.704
  Slack (ns):            1.066
  Arrival (ns):          8.536
  Required (ns):         9.602

Path 43
  From:                  fc0/counter[2]:CLK
  To:                    fc0/final_count[3]:D
  Delay (ns):            2.639
  Slack (ns):            1.070
  Arrival (ns):          8.449
  Required (ns):         9.519

Path 44
  From:                  fc1/final_count[1]:CLK
  To:                    fc1/ck_ok:D
  Delay (ns):            2.630
  Slack (ns):            1.071
  Arrival (ns):          8.462
  Required (ns):         9.533

Path 45
  From:                  fc0/state:CLK
  To:                    fc0/final_count[0]:E
  Delay (ns):            2.689
  Slack (ns):            1.071
  Arrival (ns):          8.521
  Required (ns):         9.592

Path 46
  From:                  fc0/final_count[1]:CLK
  To:                    fc0/ck_ok:D
  Delay (ns):            2.638
  Slack (ns):            1.073
  Arrival (ns):          8.438
  Required (ns):         9.511

Path 47
  From:                  fc0/state:CLK
  To:                    fc0/final_count[3]:E
  Delay (ns):            2.650
  Slack (ns):            1.128
  Arrival (ns):          8.482
  Required (ns):         9.610

Path 48
  From:                  fc0/state:CLK
  To:                    fc2/final_count[2]:E
  Delay (ns):            2.606
  Slack (ns):            1.179
  Arrival (ns):          8.438
  Required (ns):         9.617

Path 49
  From:                  fc0/state:CLK
  To:                    fc2/final_count[0]:E
  Delay (ns):            2.594
  Slack (ns):            1.198
  Arrival (ns):          8.426
  Required (ns):         9.624

Path 50
  From:                  fc0/state:CLK
  To:                    fc2/final_count[1]:E
  Delay (ns):            2.594
  Slack (ns):            1.198
  Arrival (ns):          8.426
  Required (ns):         9.624

Path 51
  From:                  fc2/final_count[0]:CLK
  To:                    fc2/ck_ok:D
  Delay (ns):            2.437
  Slack (ns):            1.212
  Arrival (ns):          8.269
  Required (ns):         9.481

Path 52
  From:                  fc1/counter[0]:CLK
  To:                    fc1/counter[1]:D
  Delay (ns):            2.447
  Slack (ns):            1.224
  Arrival (ns):          8.272
  Required (ns):         9.496

Path 53
  From:                  fc0/final_count[0]:CLK
  To:                    fc0/ck_ok:D
  Delay (ns):            2.450
  Slack (ns):            1.231
  Arrival (ns):          8.250
  Required (ns):         9.481

Path 54
  From:                  fc1/final_count[0]:CLK
  To:                    fc1/ck_ok:D
  Delay (ns):            2.439
  Slack (ns):            1.232
  Arrival (ns):          8.271
  Required (ns):         9.503

Path 55
  From:                  fc0/counter[1]:CLK
  To:                    fc0/final_count[1]:D
  Delay (ns):            2.374
  Slack (ns):            1.287
  Arrival (ns):          8.184
  Required (ns):         9.471

Path 56
  From:                  fc2/counter[2]:CLK
  To:                    fc2/counter[2]:D
  Delay (ns):            2.373
  Slack (ns):            1.298
  Arrival (ns):          8.198
  Required (ns):         9.496

Path 57
  From:                  fc1/counter[2]:CLK
  To:                    fc1/counter[2]:D
  Delay (ns):            2.372
  Slack (ns):            1.299
  Arrival (ns):          8.204
  Required (ns):         9.503

Path 58
  From:                  fc0/counter[2]:CLK
  To:                    fc0/counter[2]:D
  Delay (ns):            2.372
  Slack (ns):            1.299
  Arrival (ns):          8.182
  Required (ns):         9.481

Path 59
  From:                  fc2/final_count[3]:CLK
  To:                    fc2/ck_ok:D
  Delay (ns):            2.327
  Slack (ns):            1.322
  Arrival (ns):          8.159
  Required (ns):         9.481

Path 60
  From:                  fc0/final_count[3]:CLK
  To:                    fc0/ck_ok:D
  Delay (ns):            2.340
  Slack (ns):            1.323
  Arrival (ns):          8.158
  Required (ns):         9.481

Path 61
  From:                  fc1/final_count[2]:CLK
  To:                    fc1/ck_ok:D
  Delay (ns):            2.376
  Slack (ns):            1.332
  Arrival (ns):          8.201
  Required (ns):         9.533

Path 62
  From:                  fc1/final_count[3]:CLK
  To:                    fc1/ck_ok:D
  Delay (ns):            2.329
  Slack (ns):            1.342
  Arrival (ns):          8.161
  Required (ns):         9.503

Path 63
  From:                  fc2/final_count[2]:CLK
  To:                    fc2/ck_ok:D
  Delay (ns):            2.342
  Slack (ns):            1.344
  Arrival (ns):          8.167
  Required (ns):         9.511

Path 64
  From:                  fc1/counter[0]:CLK
  To:                    fc1/final_count[1]:D
  Delay (ns):            2.329
  Slack (ns):            1.349
  Arrival (ns):          8.154
  Required (ns):         9.503

Path 65
  From:                  fc0/counter[0]:CLK
  To:                    fc0/final_count[1]:D
  Delay (ns):            2.285
  Slack (ns):            1.354
  Arrival (ns):          8.117
  Required (ns):         9.471

Path 66
  From:                  fc1/counter[3]:CLK
  To:                    fc1/counter[3]:D
  Delay (ns):            2.310
  Slack (ns):            1.361
  Arrival (ns):          8.135
  Required (ns):         9.496

Path 67
  From:                  fc2/counter[1]:CLK
  To:                    fc2/final_count[2]:D
  Delay (ns):            2.310
  Slack (ns):            1.361
  Arrival (ns):          8.135
  Required (ns):         9.496

Path 68
  From:                  fc2/counter[3]:CLK
  To:                    fc2/counter[3]:D
  Delay (ns):            2.310
  Slack (ns):            1.361
  Arrival (ns):          8.135
  Required (ns):         9.496

Path 69
  From:                  fc1/counter[0]:CLK
  To:                    fc1/final_count[2]:D
  Delay (ns):            2.307
  Slack (ns):            1.364
  Arrival (ns):          8.132
  Required (ns):         9.496

Path 70
  From:                  fc0/counter[0]:CLK
  To:                    fc0/final_count[2]:D
  Delay (ns):            2.236
  Slack (ns):            1.413
  Arrival (ns):          8.068
  Required (ns):         9.481

Path 71
  From:                  fc2/counter[0]:CLK
  To:                    fc2/final_count[3]:D
  Delay (ns):            2.264
  Slack (ns):            1.414
  Arrival (ns):          8.089
  Required (ns):         9.503

Path 72
  From:                  fc0/counter[1]:CLK
  To:                    fc0/final_count[2]:D
  Delay (ns):            2.248
  Slack (ns):            1.423
  Arrival (ns):          8.058
  Required (ns):         9.481

Path 73
  From:                  fc2/counter[1]:CLK
  To:                    fc2/final_count[1]:D
  Delay (ns):            2.252
  Slack (ns):            1.426
  Arrival (ns):          8.077
  Required (ns):         9.503

Path 74
  From:                  fc1/counter[1]:CLK
  To:                    fc1/final_count[2]:D
  Delay (ns):            2.236
  Slack (ns):            1.435
  Arrival (ns):          8.061
  Required (ns):         9.496

Path 75
  From:                  fc2/counter[0]:CLK
  To:                    fc2/counter[1]:D
  Delay (ns):            2.209
  Slack (ns):            1.462
  Arrival (ns):          8.034
  Required (ns):         9.496

Path 76
  From:                  fc0/state:CLK
  To:                    fc0/counter[0]:D
  Delay (ns):            2.196
  Slack (ns):            1.505
  Arrival (ns):          8.028
  Required (ns):         9.533

Path 77
  From:                  fc0/state:CLK
  To:                    fc1/counter[2]:D
  Delay (ns):            2.196
  Slack (ns):            1.505
  Arrival (ns):          8.028
  Required (ns):         9.533

Path 78
  From:                  fc0/counter[3]:CLK
  To:                    fc0/final_count[3]:D
  Delay (ns):            2.132
  Slack (ns):            1.557
  Arrival (ns):          7.932
  Required (ns):         9.489

Path 79
  From:                  fc0/counter[0]:CLK
  To:                    fc0/counter[1]:D
  Delay (ns):            2.040
  Slack (ns):            1.609
  Arrival (ns):          7.872
  Required (ns):         9.481

Path 80
  From:                  fc0/counter[0]:CLK
  To:                    fc0/final_count[0]:D
  Delay (ns):            2.045
  Slack (ns):            1.624
  Arrival (ns):          7.877
  Required (ns):         9.501

Path 81
  From:                  fc2/counter[0]:CLK
  To:                    fc2/final_count[0]:D
  Delay (ns):            2.076
  Slack (ns):            1.632
  Arrival (ns):          7.901
  Required (ns):         9.533

Path 82
  From:                  fc0/state:CLK
  To:                    fc1/final_count[1]:E
  Delay (ns):            2.060
  Slack (ns):            1.732
  Arrival (ns):          7.892
  Required (ns):         9.624

Path 83
  From:                  fc0/state:CLK
  To:                    fc1/final_count[0]:E
  Delay (ns):            2.060
  Slack (ns):            1.732
  Arrival (ns):          7.892
  Required (ns):         9.624

Path 84
  From:                  fc2/counter[1]:CLK
  To:                    fc2/counter[1]:D
  Delay (ns):            1.962
  Slack (ns):            1.739
  Arrival (ns):          7.787
  Required (ns):         9.526

Path 85
  From:                  fc0/counter[1]:CLK
  To:                    fc0/counter[1]:D
  Delay (ns):            1.897
  Slack (ns):            1.804
  Arrival (ns):          7.707
  Required (ns):         9.511

Path 86
  From:                  fc2/counter[0]:CLK
  To:                    fc2/final_count[1]:D
  Delay (ns):            1.797
  Slack (ns):            1.881
  Arrival (ns):          7.622
  Required (ns):         9.503

Path 87
  From:                  fc1/counter[2]:CLK
  To:                    fc1/final_count[2]:D
  Delay (ns):            1.754
  Slack (ns):            1.910
  Arrival (ns):          7.586
  Required (ns):         9.496

Path 88
  From:                  fc2/counter[2]:CLK
  To:                    fc2/final_count[2]:D
  Delay (ns):            1.757
  Slack (ns):            1.914
  Arrival (ns):          7.582
  Required (ns):         9.496

Path 89
  From:                  fc0/counter[2]:CLK
  To:                    fc0/final_count[2]:D
  Delay (ns):            1.754
  Slack (ns):            1.917
  Arrival (ns):          7.564
  Required (ns):         9.481

Path 90
  From:                  fc0/final_count[2]:CLK
  To:                    fc0/ck_ok:D
  Delay (ns):            1.743
  Slack (ns):            1.958
  Arrival (ns):          7.553
  Required (ns):         9.511

Path 91
  From:                  fc1/counter[0]:CLK
  To:                    fc1/counter[0]:D
  Delay (ns):            1.732
  Slack (ns):            1.969
  Arrival (ns):          7.557
  Required (ns):         9.526

Path 92
  From:                  fc1/counter[3]:CLK
  To:                    fc1/final_count[3]:D
  Delay (ns):            1.694
  Slack (ns):            1.984
  Arrival (ns):          7.519
  Required (ns):         9.503

Path 93
  From:                  fc2/counter[3]:CLK
  To:                    fc2/final_count[3]:D
  Delay (ns):            1.694
  Slack (ns):            1.984
  Arrival (ns):          7.519
  Required (ns):         9.503

Path 94
  From:                  fc2/counter[0]:CLK
  To:                    fc2/counter[0]:D
  Delay (ns):            1.701
  Slack (ns):            2.000
  Arrival (ns):          7.526
  Required (ns):         9.526

Path 95
  From:                  fc0/counter[0]:CLK
  To:                    fc0/counter[0]:D
  Delay (ns):            1.669
  Slack (ns):            2.032
  Arrival (ns):          7.501
  Required (ns):         9.533

Path 96
  From:                  fc1/counter[0]:CLK
  To:                    fc1/final_count[0]:D
  Delay (ns):            1.525
  Slack (ns):            2.183
  Arrival (ns):          7.350
  Required (ns):         9.533

