Timing Violation Report Max Delay Analysis

SmartTime Version v11.9 SP5
Microsemi Corporation - Microsemi Libero Software Release v11.9 SP5 (Version 11.9.5.5)
Date: Wed Apr 15 16:16:05 2020


Design: jtag_interface_top
Family: ProASIC3
Die: A3P250
Package: 144 FBGA
Temperature Range: -40 - 85 C
Voltage Range: 1.425 - 1.575 V
Speed Grade: -1
Design State: Post-Layout
Data source: Silicon verified
Min Operating Conditions: BEST - 1.575 V - -40 C
Max Operating Conditions: WORST - 1.425 V - 85 C
Using Enhanced Min Delay Analysis
Scenario for Timing Analysis: Primary


Path 1
  From:                  fc0/state:CLK
  To:                    fc0/counter[1]:D
  Delay (ns):            3.547
  Slack (ns):            0.154
  Arrival (ns):          9.379
  Required (ns):         9.533

Path 2
  From:                  fc1/final_count[3]:CLK
  To:                    fc1/ck_ok:D
  Delay (ns):            3.428
  Slack (ns):            0.205
  Arrival (ns):          9.273
  Required (ns):         9.478

Path 3
  From:                  fc2/final_count[3]:CLK
  To:                    fc2/ck_ok:D
  Delay (ns):            3.426
  Slack (ns):            0.207
  Arrival (ns):          9.271
  Required (ns):         9.478

Path 4
  From:                  fc0/final_count[3]:CLK
  To:                    fc0/ck_ok:D
  Delay (ns):            3.426
  Slack (ns):            0.207
  Arrival (ns):          9.271
  Required (ns):         9.478

Path 5
  From:                  fc0/state:CLK
  To:                    fc0/counter[3]:D
  Delay (ns):            3.419
  Slack (ns):            0.295
  Arrival (ns):          9.251
  Required (ns):         9.546

Path 6
  From:                  fc0/state:CLK
  To:                    fc0/final_count[1]:E
  Delay (ns):            3.496
  Slack (ns):            0.309
  Arrival (ns):          9.328
  Required (ns):         9.637

Path 7
  From:                  fc1/final_count[2]:CLK
  To:                    fc1/ck_ok:D
  Delay (ns):            3.337
  Slack (ns):            0.326
  Arrival (ns):          9.182
  Required (ns):         9.508

Path 8
  From:                  fc2/final_count[2]:CLK
  To:                    fc2/ck_ok:D
  Delay (ns):            3.337
  Slack (ns):            0.326
  Arrival (ns):          9.182
  Required (ns):         9.508

Path 9
  From:                  fc0/final_count[2]:CLK
  To:                    fc0/ck_ok:D
  Delay (ns):            3.275
  Slack (ns):            0.388
  Arrival (ns):          9.120
  Required (ns):         9.508

Path 10
  From:                  fc1/counter[1]:CLK
  To:                    fc1/counter[3]:D
  Delay (ns):            3.234
  Slack (ns):            0.428
  Arrival (ns):          9.066
  Required (ns):         9.494

Path 11
  From:                  fc0/counter[1]:CLK
  To:                    fc0/counter[3]:D
  Delay (ns):            3.269
  Slack (ns):            0.445
  Arrival (ns):          9.101
  Required (ns):         9.546

Path 12
  From:                  fc0/state:CLK
  To:                    fc0/final_count[3]:E
  Delay (ns):            3.358
  Slack (ns):            0.447
  Arrival (ns):          9.190
  Required (ns):         9.637

Path 13
  From:                  fc0/state:CLK
  To:                    fc0/final_count[2]:E
  Delay (ns):            3.358
  Slack (ns):            0.447
  Arrival (ns):          9.190
  Required (ns):         9.637

Path 14
  From:                  fc1/counter[2]:CLK
  To:                    fc1/counter[3]:D
  Delay (ns):            3.200
  Slack (ns):            0.462
  Arrival (ns):          9.032
  Required (ns):         9.494

Path 15
  From:                  fc0/counter[2]:CLK
  To:                    fc0/counter[3]:D
  Delay (ns):            3.235
  Slack (ns):            0.479
  Arrival (ns):          9.067
  Required (ns):         9.546

Path 16
  From:                  fc2/counter[0]:CLK
  To:                    fc2/counter[2]:D
  Delay (ns):            3.183
  Slack (ns):            0.490
  Arrival (ns):          9.026
  Required (ns):         9.516

Path 17
  From:                  fc2/counter[1]:CLK
  To:                    fc2/counter[3]:D
  Delay (ns):            3.209
  Slack (ns):            0.492
  Arrival (ns):          9.041
  Required (ns):         9.533

Path 18
  From:                  fc2/counter[0]:CLK
  To:                    fc2/counter[3]:D
  Delay (ns):            3.195
  Slack (ns):            0.495
  Arrival (ns):          9.038
  Required (ns):         9.533

Path 19
  From:                  fc0/state:CLK
  To:                    fc2/final_count[0]:E
  Delay (ns):            3.261
  Slack (ns):            0.506
  Arrival (ns):          9.093
  Required (ns):         9.599

Path 20
  From:                  fc2/counter[2]:CLK
  To:                    fc2/counter[3]:D
  Delay (ns):            3.175
  Slack (ns):            0.513
  Arrival (ns):          9.020
  Required (ns):         9.533

Path 21
  From:                  fc1/counter[0]:CLK
  To:                    fc1/counter[2]:D
  Delay (ns):            3.117
  Slack (ns):            0.554
  Arrival (ns):          8.949
  Required (ns):         9.503

Path 22
  From:                  fc1/counter[1]:CLK
  To:                    fc1/final_count[3]:D
  Delay (ns):            3.129
  Slack (ns):            0.585
  Arrival (ns):          8.961
  Required (ns):         9.546

Path 23
  From:                  fc0/state:CLK
  To:                    fc1/counter[2]:D
  Delay (ns):            3.098
  Slack (ns):            0.603
  Arrival (ns):          8.930
  Required (ns):         9.533

Path 24
  From:                  fc0/state:CLK
  To:                    fc0/final_count[0]:E
  Delay (ns):            3.188
  Slack (ns):            0.617
  Arrival (ns):          9.020
  Required (ns):         9.637

Path 25
  From:                  fc1/counter[2]:CLK
  To:                    fc1/final_count[3]:D
  Delay (ns):            3.095
  Slack (ns):            0.619
  Arrival (ns):          8.927
  Required (ns):         9.546

Path 26
  From:                  fc0/state:CLK
  To:                    fc0/counter[0]:D
  Delay (ns):            3.051
  Slack (ns):            0.650
  Arrival (ns):          8.883
  Required (ns):         9.533

Path 27
  From:                  fc0/state:CLK
  To:                    fc0/counter[2]:D
  Delay (ns):            3.045
  Slack (ns):            0.656
  Arrival (ns):          8.877
  Required (ns):         9.533

Path 28
  From:                  fc0/counter[0]:CLK
  To:                    fc0/counter[3]:D
  Delay (ns):            3.008
  Slack (ns):            0.706
  Arrival (ns):          8.840
  Required (ns):         9.546

Path 29
  From:                  fc0/state:CLK
  To:                    fc1/final_count[0]:E
  Delay (ns):            3.049
  Slack (ns):            0.718
  Arrival (ns):          8.881
  Required (ns):         9.599

Path 30
  From:                  fc0/state:CLK
  To:                    fc2/counter[3]:D
  Delay (ns):            2.975
  Slack (ns):            0.726
  Arrival (ns):          8.807
  Required (ns):         9.533

Path 31
  From:                  fc1/counter[0]:CLK
  To:                    fc1/counter[3]:D
  Delay (ns):            2.906
  Slack (ns):            0.756
  Arrival (ns):          8.738
  Required (ns):         9.494

Path 32
  From:                  fc1/counter[0]:CLK
  To:                    fc1/counter[1]:D
  Delay (ns):            2.908
  Slack (ns):            0.763
  Arrival (ns):          8.740
  Required (ns):         9.503

Path 33
  From:                  fc0/counter[1]:CLK
  To:                    fc0/counter[1]:D
  Delay (ns):            2.870
  Slack (ns):            0.801
  Arrival (ns):          8.702
  Required (ns):         9.503

Path 34
  From:                  fc1/counter[1]:CLK
  To:                    fc1/counter[2]:D
  Delay (ns):            2.861
  Slack (ns):            0.810
  Arrival (ns):          8.693
  Required (ns):         9.503

Path 35
  From:                  fc2/counter[1]:CLK
  To:                    fc2/counter[2]:D
  Delay (ns):            2.859
  Slack (ns):            0.825
  Arrival (ns):          8.691
  Required (ns):         9.516

Path 36
  From:                  fc0/state:CLK
  To:                    fc2/final_count[3]:E
  Delay (ns):            2.973
  Slack (ns):            0.832
  Arrival (ns):          8.805
  Required (ns):         9.637

Path 37
  From:                  fc0/state:CLK
  To:                    fc2/counter[2]:D
  Delay (ns):            2.875
  Slack (ns):            0.839
  Arrival (ns):          8.707
  Required (ns):         9.546

Path 38
  From:                  fc0/state:CLK
  To:                    fc1/final_count[3]:E
  Delay (ns):            2.962
  Slack (ns):            0.843
  Arrival (ns):          8.794
  Required (ns):         9.637

Path 39
  From:                  fc0/counter[1]:CLK
  To:                    fc0/counter[2]:D
  Delay (ns):            2.810
  Slack (ns):            0.861
  Arrival (ns):          8.642
  Required (ns):         9.503

Path 40
  From:                  fc2/counter[1]:CLK
  To:                    fc2/counter[1]:D
  Delay (ns):            2.806
  Slack (ns):            0.865
  Arrival (ns):          8.638
  Required (ns):         9.503

Path 41
  From:                  fc1/counter[1]:CLK
  To:                    fc1/counter[1]:D
  Delay (ns):            2.806
  Slack (ns):            0.865
  Arrival (ns):          8.638
  Required (ns):         9.503

Path 42
  From:                  fc0/counter[0]:CLK
  To:                    fc0/counter[2]:D
  Delay (ns):            2.804
  Slack (ns):            0.867
  Arrival (ns):          8.636
  Required (ns):         9.503

Path 43
  From:                  fc2/counter[1]:CLK
  To:                    fc2/final_count[3]:D
  Delay (ns):            2.844
  Slack (ns):            0.870
  Arrival (ns):          8.676
  Required (ns):         9.546

Path 44
  From:                  fc2/counter[0]:CLK
  To:                    fc2/final_count[3]:D
  Delay (ns):            2.830
  Slack (ns):            0.873
  Arrival (ns):          8.673
  Required (ns):         9.546

Path 45
  From:                  fc0/counter[1]:CLK
  To:                    fc0/final_count[2]:D
  Delay (ns):            2.794
  Slack (ns):            0.890
  Arrival (ns):          8.626
  Required (ns):         9.516

Path 46
  From:                  fc2/counter[2]:CLK
  To:                    fc2/final_count[3]:D
  Delay (ns):            2.810
  Slack (ns):            0.891
  Arrival (ns):          8.655
  Required (ns):         9.546

Path 47
  From:                  fc0/counter[0]:CLK
  To:                    fc0/final_count[2]:D
  Delay (ns):            2.788
  Slack (ns):            0.896
  Arrival (ns):          8.620
  Required (ns):         9.516

Path 48
  From:                  fc1/counter[0]:CLK
  To:                    fc1/final_count[3]:D
  Delay (ns):            2.801
  Slack (ns):            0.913
  Arrival (ns):          8.633
  Required (ns):         9.546

Path 49
  From:                  fc2/counter[1]:CLK
  To:                    fc2/final_count[1]:D
  Delay (ns):            2.748
  Slack (ns):            0.936
  Arrival (ns):          8.580
  Required (ns):         9.516

Path 50
  From:                  fc0/counter[3]:CLK
  To:                    fc0/counter[3]:D
  Delay (ns):            2.728
  Slack (ns):            0.943
  Arrival (ns):          8.573
  Required (ns):         9.516

Path 51
  From:                  fc1/counter[3]:CLK
  To:                    fc1/counter[3]:D
  Delay (ns):            2.702
  Slack (ns):            0.969
  Arrival (ns):          8.495
  Required (ns):         9.464

Path 52
  From:                  fc0/state:CLK
  To:                    fc2/final_count[2]:E
  Delay (ns):            2.832
  Slack (ns):            0.973
  Arrival (ns):          8.664
  Required (ns):         9.637

Path 53
  From:                  fc2/counter[3]:CLK
  To:                    fc2/counter[3]:D
  Delay (ns):            2.675
  Slack (ns):            0.996
  Arrival (ns):          8.507
  Required (ns):         9.503

Path 54
  From:                  fc0/counter[1]:CLK
  To:                    fc0/final_count[3]:D
  Delay (ns):            2.649
  Slack (ns):            1.065
  Arrival (ns):          8.481
  Required (ns):         9.546

Path 55
  From:                  fc0/final_count[0]:CLK
  To:                    fc0/ck_ok:D
  Delay (ns):            2.598
  Slack (ns):            1.065
  Arrival (ns):          8.443
  Required (ns):         9.508

Path 56
  From:                  fc0/counter[0]:CLK
  To:                    fc0/counter[1]:D
  Delay (ns):            2.604
  Slack (ns):            1.067
  Arrival (ns):          8.436
  Required (ns):         9.503

Path 57
  From:                  fc0/counter[2]:CLK
  To:                    fc0/final_count[3]:D
  Delay (ns):            2.615
  Slack (ns):            1.099
  Arrival (ns):          8.447
  Required (ns):         9.546

Path 58
  From:                  fc2/counter[0]:CLK
  To:                    fc2/final_count[2]:D
  Delay (ns):            2.569
  Slack (ns):            1.104
  Arrival (ns):          8.412
  Required (ns):         9.516

Path 59
  From:                  fc1/final_count[0]:CLK
  To:                    fc1/ck_ok:D
  Delay (ns):            2.586
  Slack (ns):            1.115
  Arrival (ns):          8.393
  Required (ns):         9.508

Path 60
  From:                  fc2/final_count[0]:CLK
  To:                    fc2/ck_ok:D
  Delay (ns):            2.586
  Slack (ns):            1.115
  Arrival (ns):          8.393
  Required (ns):         9.508

Path 61
  From:                  fc1/counter[0]:CLK
  To:                    fc1/final_count[1]:D
  Delay (ns):            2.561
  Slack (ns):            1.123
  Arrival (ns):          8.393
  Required (ns):         9.516

Path 62
  From:                  fc0/final_count[1]:CLK
  To:                    fc0/ck_ok:D
  Delay (ns):            2.526
  Slack (ns):            1.137
  Arrival (ns):          8.371
  Required (ns):         9.508

Path 63
  From:                  fc1/final_count[1]:CLK
  To:                    fc1/ck_ok:D
  Delay (ns):            2.526
  Slack (ns):            1.137
  Arrival (ns):          8.371
  Required (ns):         9.508

Path 64
  From:                  fc2/final_count[1]:CLK
  To:                    fc2/ck_ok:D
  Delay (ns):            2.526
  Slack (ns):            1.137
  Arrival (ns):          8.371
  Required (ns):         9.508

Path 65
  From:                  fc1/counter[3]:CLK
  To:                    fc1/final_count[3]:D
  Delay (ns):            2.574
  Slack (ns):            1.149
  Arrival (ns):          8.367
  Required (ns):         9.516

Path 66
  From:                  fc1/counter[0]:CLK
  To:                    fc1/final_count[2]:D
  Delay (ns):            2.501
  Slack (ns):            1.183
  Arrival (ns):          8.333
  Required (ns):         9.516

Path 67
  From:                  fc1/counter[1]:CLK
  To:                    fc1/final_count[1]:D
  Delay (ns):            2.459
  Slack (ns):            1.225
  Arrival (ns):          8.291
  Required (ns):         9.516

Path 68
  From:                  fc0/state:CLK
  To:                    fc1/counter[3]:D
  Delay (ns):            2.418
  Slack (ns):            1.244
  Arrival (ns):          8.250
  Required (ns):         9.494

Path 69
  From:                  fc0/state:CLK
  To:                    fc1/counter[0]:D
  Delay (ns):            2.410
  Slack (ns):            1.291
  Arrival (ns):          8.242
  Required (ns):         9.533

Path 70
  From:                  fc0/state:CLK
  To:                    fc2/counter[0]:D
  Delay (ns):            2.418
  Slack (ns):            1.294
  Arrival (ns):          8.250
  Required (ns):         9.544

Path 71
  From:                  fc1/counter[2]:CLK
  To:                    fc1/counter[2]:D
  Delay (ns):            2.373
  Slack (ns):            1.298
  Arrival (ns):          8.205
  Required (ns):         9.503

Path 72
  From:                  fc2/counter[2]:CLK
  To:                    fc2/counter[2]:D
  Delay (ns):            2.371
  Slack (ns):            1.300
  Arrival (ns):          8.216
  Required (ns):         9.516

Path 73
  From:                  fc0/state:CLK
  To:                    fc2/counter[1]:D
  Delay (ns):            2.397
  Slack (ns):            1.304
  Arrival (ns):          8.229
  Required (ns):         9.533

Path 74
  From:                  fc0/state:CLK
  To:                    fc1/counter[1]:D
  Delay (ns):            2.397
  Slack (ns):            1.304
  Arrival (ns):          8.229
  Required (ns):         9.533

Path 75
  From:                  fc0/counter[0]:CLK
  To:                    fc0/final_count[3]:D
  Delay (ns):            2.388
  Slack (ns):            1.326
  Arrival (ns):          8.220
  Required (ns):         9.546

Path 76
  From:                  fc2/counter[0]:CLK
  To:                    fc2/counter[1]:D
  Delay (ns):            2.320
  Slack (ns):            1.340
  Arrival (ns):          8.163
  Required (ns):         9.503

Path 77
  From:                  fc0/counter[2]:CLK
  To:                    fc0/counter[2]:D
  Delay (ns):            2.322
  Slack (ns):            1.349
  Arrival (ns):          8.154
  Required (ns):         9.503

Path 78
  From:                  fc0/counter[2]:CLK
  To:                    fc0/final_count[2]:D
  Delay (ns):            2.358
  Slack (ns):            1.356
  Arrival (ns):          8.190
  Required (ns):         9.546

Path 79
  From:                  fc2/counter[3]:CLK
  To:                    fc2/final_count[3]:D
  Delay (ns):            2.293
  Slack (ns):            1.391
  Arrival (ns):          8.125
  Required (ns):         9.516

Path 80
  From:                  fc0/state:CLK
  To:                    fc1/final_count[1]:E
  Delay (ns):            2.394
  Slack (ns):            1.411
  Arrival (ns):          8.226
  Required (ns):         9.637

Path 81
  From:                  fc0/state:CLK
  To:                    fc1/final_count[2]:E
  Delay (ns):            2.394
  Slack (ns):            1.411
  Arrival (ns):          8.226
  Required (ns):         9.637

Path 82
  From:                  fc0/state:CLK
  To:                    fc2/final_count[1]:E
  Delay (ns):            2.394
  Slack (ns):            1.411
  Arrival (ns):          8.226
  Required (ns):         9.637

Path 83
  From:                  fc2/counter[0]:CLK
  To:                    fc2/final_count[1]:D
  Delay (ns):            2.262
  Slack (ns):            1.411
  Arrival (ns):          8.105
  Required (ns):         9.516

Path 84
  From:                  fc2/counter[1]:CLK
  To:                    fc2/final_count[2]:D
  Delay (ns):            2.245
  Slack (ns):            1.439
  Arrival (ns):          8.077
  Required (ns):         9.516

Path 85
  From:                  fc1/counter[1]:CLK
  To:                    fc1/final_count[2]:D
  Delay (ns):            2.245
  Slack (ns):            1.439
  Arrival (ns):          8.077
  Required (ns):         9.516

Path 86
  From:                  fc0/counter[1]:CLK
  To:                    fc0/final_count[1]:D
  Delay (ns):            2.241
  Slack (ns):            1.443
  Arrival (ns):          8.073
  Required (ns):         9.516

Path 87
  From:                  fc0/counter[3]:CLK
  To:                    fc0/final_count[3]:D
  Delay (ns):            2.112
  Slack (ns):            1.559
  Arrival (ns):          7.957
  Required (ns):         9.516

Path 88
  From:                  fc0/counter[0]:CLK
  To:                    fc0/final_count[1]:D
  Delay (ns):            1.975
  Slack (ns):            1.709
  Arrival (ns):          7.807
  Required (ns):         9.516

Path 89
  From:                  fc0/counter[0]:CLK
  To:                    fc0/final_count[0]:D
  Delay (ns):            1.879
  Slack (ns):            1.835
  Arrival (ns):          7.711
  Required (ns):         9.546

Path 90
  From:                  fc2/counter[2]:CLK
  To:                    fc2/final_count[2]:D
  Delay (ns):            1.757
  Slack (ns):            1.914
  Arrival (ns):          7.602
  Required (ns):         9.516

Path 91
  From:                  fc1/counter[2]:CLK
  To:                    fc1/final_count[2]:D
  Delay (ns):            1.757
  Slack (ns):            1.927
  Arrival (ns):          7.589
  Required (ns):         9.516

Path 92
  From:                  fc0/counter[0]:CLK
  To:                    fc0/counter[0]:D
  Delay (ns):            1.686
  Slack (ns):            2.015
  Arrival (ns):          7.518
  Required (ns):         9.533

Path 93
  From:                  fc2/counter[0]:CLK
  To:                    fc2/final_count[0]:D
  Delay (ns):            1.620
  Slack (ns):            2.045
  Arrival (ns):          7.463
  Required (ns):         9.508

Path 94
  From:                  fc2/counter[0]:CLK
  To:                    fc2/counter[0]:D
  Delay (ns):            1.624
  Slack (ns):            2.077
  Arrival (ns):          7.467
  Required (ns):         9.544

Path 95
  From:                  fc1/counter[0]:CLK
  To:                    fc1/counter[0]:D
  Delay (ns):            1.616
  Slack (ns):            2.085
  Arrival (ns):          7.448
  Required (ns):         9.533

Path 96
  From:                  fc1/counter[0]:CLK
  To:                    fc1/final_count[0]:D
  Delay (ns):            1.489
  Slack (ns):            2.187
  Arrival (ns):          7.321
  Required (ns):         9.508

