
Power Report for design jtag_interface_top with the following settings:

 Vendor:    Microsemi Corporation                                            
 Program:   Microsemi Libero Software, Release v11.9 SP5 (Version 11.9.5.5)  
            Copyright (C) 1989-2019                                          
 Date:      Wed Apr 15 16:16:26 2020                                         
 Version:   3.0                                                              


 Design:                 jtag_interface_top  
 Family:                 ProASIC3            
 Die:                    A3P250              
 Package:                144 FBGA            
 Temperature Range:      IND                 
 Voltage Range:          IND                 
 Operating Conditions:   Typical             
 Operating Mode:         Active              
 Data Source:            Silicon verified    


Power Summary
+---------------+------------+------------+
|               | Power (mW) | Percentage |
+---------------+------------+------------+
| Total Power   |     65.457 |     100.0% |
| Static Power  |     54.560 |      83.4% |
| Dynamic Power |     10.897 |      16.6% |
+---------------+------------+------------+


Annotation Coverage: Frequency Annotation
+-----------------------+------------+------------+-------------+---------------+--------------+-------+
| Frequency>=0          | VCD        | Manual     | SmartTime   | Vectorless    | Fixed Values | Total |
|                       | Annotation | Annotation | Constraint  | Estimation    |              |       |
+-----------------------+------------+------------+-------------+---------------+--------------+-------+
| Clocks                | 0 (0.00%)  | 0 (0.00%)  | 21 (91.30%) | 0 (0.00%)     | 2 (8.70%)    | 23    |
| Register outputs      | 0 (0.00%)  | 0 (0.00%)  | 0 (0.00%)   | 51 (100.00%)  | 0 (0.00%)    | 51    |
| Combinational outputs | 0 (0.00%)  | 0 (0.00%)  | 0 (0.00%)   | 162 (100.00%) | 0 (0.00%)    | 162   |
| Set/Reset nets        | 0 (0.00%)  | 0 (0.00%)  | 0 (0.00%)   | 0 (0.00%)     | 0 (0.00%)    | 0     |
| Primary inputs        | 0 (0.00%)  | 0 (0.00%)  | 0 (0.00%)   | 0 (0.00%)     | 24 (100.00%) | 24    |
| Enable pins           | 0 (0.00%)  | 0 (0.00%)  | 0 (0.00%)   | 8 (100.00%)   | 0 (0.00%)    | 8     |
| Other pins            | 0 (0.00%)  | 0 (0.00%)  | 0 (0.00%)   | 0 (0.00%)     | 0 (0.00%)    | 0     |
+-----------------------+------------+------------+-------------+---------------+--------------+-------+

+-----------------------+------------+------------+------------+--------------+-------------+-------+
| Frequency=0           | VCD        | Manual     | SmartTime  | Vectorless   | Fixed       | Total |
|                       | Annotation | Annotation | Constraint | Estimation   | Values      |       |
+-----------------------+------------+------------+------------+--------------+-------------+-------+
| Clocks                | 0 (0.00%)  | 0 (0.00%)  | 0 (0.00%)  | 0 (0.00%)    | 2 (100.00%) | 2     |
| Register outputs      | 0 (0.00%)  | 0 (0.00%)  | 0 (0.00%)  | 32 (100.00%) | 0 (0.00%)   | 32    |
| Combinational outputs | 0 (0.00%)  | 0 (0.00%)  | 0 (0.00%)  | 79 (100.00%) | 0 (0.00%)   | 79    |
| Set/Reset nets        | 0 (0.00%)  | 0 (0.00%)  | 0 (0.00%)  | 0 (0.00%)    | 0 (0.00%)   | 0     |
| Primary inputs        | 0 (0.00%)  | 0 (0.00%)  | 0 (0.00%)  | 0 (0.00%)    | 7 (100.00%) | 7     |
| Enable pins           | 0 (0.00%)  | 0 (0.00%)  | 0 (0.00%)  | 8 (100.00%)  | 0 (0.00%)   | 8     |
| Other pins            | 0 (0.00%)  | 0 (0.00%)  | 0 (0.00%)  | 0 (0.00%)    | 0 (0.00%)   | 0     |
+-----------------------+------------+------------+------------+--------------+-------------+-------+

Annotation Coverage: Probability Annotation
+-----------------------+------------+------------+-------------+---------------+--------------+-------+
| Probability>=0        | VCD        | Manual     | SmartTime   | Vectorless    | Fixed Values | Total |
|                       | Annotation | Annotation | Constraint  | Estimation    |              |       |
+-----------------------+------------+------------+-------------+---------------+--------------+-------+
| Clocks                | 0 (0.00%)  | 0 (0.00%)  | 21 (91.30%) | 0 (0.00%)     | 2 (8.70%)    | 23    |
| Register outputs      | 0 (0.00%)  | 0 (0.00%)  | 0 (0.00%)   | 51 (100.00%)  | 0 (0.00%)    | 51    |
| Combinational outputs | 0 (0.00%)  | 0 (0.00%)  | 0 (0.00%)   | 162 (100.00%) | 0 (0.00%)    | 162   |
| Set/Reset nets        | 0 (0.00%)  | 0 (0.00%)  | 0 (0.00%)   | 0 (0.00%)     | 0 (0.00%)    | 0     |
| Primary inputs        | 0 (0.00%)  | 0 (0.00%)  | 0 (0.00%)   | 0 (0.00%)     | 24 (100.00%) | 24    |
| Enable pins           | 0 (0.00%)  | 0 (0.00%)  | 0 (0.00%)   | 8 (100.00%)   | 0 (0.00%)    | 8     |
| Other pins            | 0 (0.00%)  | 0 (0.00%)  | 0 (0.00%)   | 0 (0.00%)     | 0 (0.00%)    | 0     |
+-----------------------+------------+------------+-------------+---------------+--------------+-------+


Operating Condition Summary
+----------------------+---------+----------------------------------+
|                      | Value   | Range Definition                 |
+----------------------+---------+----------------------------------+
| Junction Temperature | 25.00 C | Design operating range (default) |
|                      |         |                                  |
| VCC                  | 1.500 V | Design operating range(default)  |
| VCCI 2.5             | 2.500 V | Design operating range(default)  |
| VCCI 3.3             | 3.300 V | Design operating range(default)  |
+----------------------+---------+----------------------------------+


Breakdown by Rail
+---------------+------------+-------------+--------------+
|               | Power (mW) | Voltage (V) | Current (mA) |
+---------------+------------+-------------+--------------+
| Rail VCC      |     13.427 |      1.500  |      8.952   |
| Rail VCCI 2.5 |     50.030 |      2.500  |     20.012   |
| Rail VCCI 3.3 |      1.999 |      3.300  |      0.606   |
+---------------+------------+-------------+--------------+


Breakdown by Clock
+-------------------------------------------+------------+------------+
|                                           | Power (mW) | Percentage |
+-------------------------------------------+------------+------------+
| osc_clk40 (clocks)                        |      0.781 |       7.2% |
| osc_clk40 (register outputs)              |      0.000 |       0.0% |
| osc_clk40 (primary inputs)                |      0.000 |       0.0% |
| osc_clk40 (combinational outputs)         |      0.000 |       0.0% |
| osc_clk40 (set/reset nets)                |      0.000 |       0.0% |
| gbt_clk40 (clocks)                        |      1.539 |      14.1% |
| gbt_clk40 (register outputs)              |      1.287 |      11.8% |
| gbt_clk40 (primary inputs)                |      0.000 |       0.0% |
| gbt_clk40 (combinational outputs)         |      0.001 |       0.0% |
| gbt_clk40 (set/reset nets)                |      0.000 |       0.0% |
| clocking/Core:GLA (clocks)                |      0.936 |       8.6% |
| clocking/Core:GLA (register outputs)      |      0.016 |       0.1% |
| clocking/Core:GLA (primary inputs)        |      0.000 |       0.0% |
| clocking/Core:GLA (combinational outputs) |      0.088 |       0.8% |
| clocking/Core:GLA (set/reset nets)        |      0.000 |       0.0% |
| clocking/Core:GLB (clocks)                |      5.975 |      54.8% |
| clocking/Core:GLB (register outputs)      |      0.000 |       0.0% |
| clocking/Core:GLB (primary inputs)        |      0.000 |       0.0% |
| clocking/Core:GLB (combinational outputs) |      0.268 |       2.5% |
| clocking/Core:GLB (set/reset nets)        |      0.000 |       0.0% |
| clksig/U0/U0:Y (clocks)                   |      0.000 |       0.0% |
| clksig/U0/U0:Y (register outputs)         |      0.000 |       0.0% |
| clksig/U0/U0:Y (primary inputs)           |      0.000 |       0.0% |
| clksig/U0/U0:Y (combinational outputs)    |      0.006 |       0.1% |
| clksig/U0/U0:Y (set/reset nets)           |      0.000 |       0.0% |
| Input to Output                           |      0.000 |       0.0% |
+-------------------------------------------+------------+------------+


Breakdown by Type
+-------------------+------------+------------+
|                   | Power (mW) | Percentage |
+-------------------+------------+------------+
| Type Net          |      7.424 |      11.3% |
| Type Gate         |      2.103 |       3.2% |
| Type I/O          |     50.870 |      77.7% |
| Type Core Static  |      3.900 |       6.0% |
| Type Banks Static |      1.160 |       1.8% |
+-------------------+------------+------------+


Clock Domains Summary: Frequency
+-------------------+---------+------------------+----------------+------------------+------------------+
| Name              | Clocks  | Register         | Set/Reset      | Primary          | Combinational    |
|                   | (MHz)   | outputs          | nets           | inputs           | outputs          |
|                   |         | (MHz)            | (MHz)          | (MHz)            | (MHz)            |
+-------------------+---------+------------------+----------------+------------------+------------------+
| osc_clk40         | 40.000  | 0.000 (0.00 %)   | 0.000 (0.00 %) | 2.000 (10.00 %)  | 0.000 (0.00 %)   |
| gbt_clk40         | 40.080  | 17.742 (88.53 %) | 0.000 (0.00 %) | 2.004 (10.00 %)  | 0.149 (0.74 %)   |
| clocking/Core:GLA | 40.000  | 1.773 (8.86 %)   | 0.000 (0.00 %) | 2.000 (10.00 %)  | 1.617 (8.08 %)   |
| clocking/Core:GLB | 239.981 | 0.234 (0.19 %)   | 0.000 (0.00 %) | 11.999 (10.00 %) | 14.436 (12.03 %) |
| clksig/U0/U0:Y    | 0.000   | 0.000 (0.00 %)   | 0.000 (0.00 %) | 0.000 (0.00 %)   | 0.081 (0.00 %)   |
+-------------------+---------+------------------+----------------+------------------+------------------+

Clock Domains Summary: Probability
+-------------------+--------+----------+-----------+---------+---------------+
| Name              | Clocks | Register | Set/Reset | Primary | Combinational |
|                   | (%)    | outputs  | nets      | inputs  | outputs       |
|                   |        | (%)      | (%)       | (%)     | (%)           |
+-------------------+--------+----------+-----------+---------+---------------+
| osc_clk40         | 50.000 | 50.000   | 50.000    | 50.000  | 50.000        |
| gbt_clk40         | 50.000 | 22.219   | 50.000    | 50.000  | 63.627        |
| clocking/Core:GLA | 50.000 | 41.930   | 50.000    | 50.000  | 38.247        |
| clocking/Core:GLB | 50.012 | 99.706   | 50.000    | 50.000  | 45.997        |
| clksig/U0/U0:Y    | 50.000 | 0.098    | 50.000    | 50.000  | 34.538        |
+-------------------+--------+----------+-----------+---------+---------------+

Set Of Pins Summary: Frequency
+--------------+-------+
| Name         | Data  |
|              | (MHz) |
+--------------+-------+
| IOsEnableSet | 0.000 |
+--------------+-------+

Set Of Pins Summary: Probability
+--------------+-------+
| Name         | Data  |
|              | (%)   |
+--------------+-------+
| IOsEnableSet | 0.098 |
+--------------+-------+


