Timing Violation Report Max Delay Analysis

SmartTime Version v11.9 SP5
Microsemi Corporation - Microsemi Libero Software Release v11.9 SP5 (Version 11.9.5.5)
Date: Wed Apr 15 16:29:51 2020


Design: jtag_interface_top
Family: ProASIC3
Die: A3P250
Package: 144 FBGA
Temperature Range: -40 - 85 C
Voltage Range: 1.425 - 1.575 V
Speed Grade: -1
Design State: Post-Layout
Data source: Silicon verified
Min Operating Conditions: BEST - 1.575 V - -40 C
Max Operating Conditions: WORST - 1.425 V - 85 C
Using Enhanced Min Delay Analysis
Scenario for Timing Analysis: Primary


Path 1
  From:                  fc0/state:CLK
  To:                    fc0/counter[1]:D
  Delay (ns):            3.832
  Slack (ns):            -0.183
  Arrival (ns):          9.670
  Required (ns):         9.487

Path 2
  From:                  fc0/state:CLK
  To:                    fc1/counter[1]:D
  Delay (ns):            3.812
  Slack (ns):            -0.153
  Arrival (ns):          9.650
  Required (ns):         9.497

Path 3
  From:                  fc0/final_count[2]:CLK
  To:                    fc0/ck_ok:D
  Delay (ns):            3.798
  Slack (ns):            -0.118
  Arrival (ns):          9.636
  Required (ns):         9.518

Path 4
  From:                  fc2/counter[2]:CLK
  To:                    fc2/counter[3]:D
  Delay (ns):            3.810
  Slack (ns):            -0.117
  Arrival (ns):          9.626
  Required (ns):         9.509

Path 5
  From:                  fc0/state:CLK
  To:                    fc1/counter[2]:D
  Delay (ns):            3.746
  Slack (ns):            -0.087
  Arrival (ns):          9.584
  Required (ns):         9.497

Path 6
  From:                  fc0/state:CLK
  To:                    fc2/counter[0]:D
  Delay (ns):            3.783
  Slack (ns):            -0.082
  Arrival (ns):          9.621
  Required (ns):         9.539

Path 7
  From:                  fc0/state:CLK
  To:                    fc0/counter[3]:D
  Delay (ns):            3.643
  Slack (ns):            0.028
  Arrival (ns):          9.481
  Required (ns):         9.509

Path 8
  From:                  fc1/counter[1]:CLK
  To:                    fc1/counter[3]:D
  Delay (ns):            3.601
  Slack (ns):            0.061
  Arrival (ns):          9.427
  Required (ns):         9.488

Path 9
  From:                  fc2/counter[0]:CLK
  To:                    fc2/counter[3]:D
  Delay (ns):            3.602
  Slack (ns):            0.069
  Arrival (ns):          9.440
  Required (ns):         9.509

Path 10
  From:                  fc1/counter[2]:CLK
  To:                    fc1/counter[3]:D
  Delay (ns):            3.564
  Slack (ns):            0.098
  Arrival (ns):          9.390
  Required (ns):         9.488

Path 11
  From:                  fc0/state:CLK
  To:                    fc0/final_count[2]:E
  Delay (ns):            3.640
  Slack (ns):            0.152
  Arrival (ns):          9.478
  Required (ns):         9.630

Path 12
  From:                  fc0/state:CLK
  To:                    fc1/counter[0]:D
  Delay (ns):            3.440
  Slack (ns):            0.216
  Arrival (ns):          9.278
  Required (ns):         9.494

Path 13
  From:                  fc2/final_count[3]:CLK
  To:                    fc2/ck_ok:D
  Delay (ns):            3.428
  Slack (ns):            0.219
  Arrival (ns):          9.244
  Required (ns):         9.463

Path 14
  From:                  fc1/final_count[3]:CLK
  To:                    fc1/ck_ok:D
  Delay (ns):            3.428
  Slack (ns):            0.222
  Arrival (ns):          9.266
  Required (ns):         9.488

Path 15
  From:                  fc0/final_count[3]:CLK
  To:                    fc0/ck_ok:D
  Delay (ns):            3.426
  Slack (ns):            0.224
  Arrival (ns):          9.264
  Required (ns):         9.488

Path 16
  From:                  fc0/state:CLK
  To:                    fc0/counter[2]:D
  Delay (ns):            3.442
  Slack (ns):            0.229
  Arrival (ns):          9.280
  Required (ns):         9.509

Path 17
  From:                  fc0/state:CLK
  To:                    fc2/final_count[2]:E
  Delay (ns):            3.536
  Slack (ns):            0.234
  Arrival (ns):          9.374
  Required (ns):         9.608

Path 18
  From:                  fc1/counter[0]:CLK
  To:                    fc1/counter[2]:D
  Delay (ns):            3.497
  Slack (ns):            0.237
  Arrival (ns):          9.290
  Required (ns):         9.527

Path 19
  From:                  fc0/state:CLK
  To:                    fc2/final_count[3]:E
  Delay (ns):            3.478
  Slack (ns):            0.292
  Arrival (ns):          9.316
  Required (ns):         9.608

Path 20
  From:                  fc0/counter[1]:CLK
  To:                    fc0/counter[3]:D
  Delay (ns):            3.378
  Slack (ns):            0.315
  Arrival (ns):          9.194
  Required (ns):         9.509

Path 21
  From:                  fc2/counter[1]:CLK
  To:                    fc2/counter[3]:D
  Delay (ns):            3.378
  Slack (ns):            0.315
  Arrival (ns):          9.194
  Required (ns):         9.509

Path 22
  From:                  fc0/counter[2]:CLK
  To:                    fc0/counter[3]:D
  Delay (ns):            3.344
  Slack (ns):            0.327
  Arrival (ns):          9.182
  Required (ns):         9.509

Path 23
  From:                  fc2/final_count[2]:CLK
  To:                    fc2/ck_ok:D
  Delay (ns):            3.335
  Slack (ns):            0.342
  Arrival (ns):          9.151
  Required (ns):         9.493

Path 24
  From:                  fc0/state:CLK
  To:                    fc0/counter[0]:D
  Delay (ns):            3.336
  Slack (ns):            0.343
  Arrival (ns):          9.174
  Required (ns):         9.517

Path 25
  From:                  fc1/counter[0]:CLK
  To:                    fc1/counter[3]:D
  Delay (ns):            3.340
  Slack (ns):            0.355
  Arrival (ns):          9.133
  Required (ns):         9.488

Path 26
  From:                  fc0/state:CLK
  To:                    fc2/counter[2]:D
  Delay (ns):            3.228
  Slack (ns):            0.421
  Arrival (ns):          9.066
  Required (ns):         9.487

Path 27
  From:                  fc1/final_count[2]:CLK
  To:                    fc1/ck_ok:D
  Delay (ns):            3.277
  Slack (ns):            0.424
  Arrival (ns):          9.094
  Required (ns):         9.518

Path 28
  From:                  fc0/state:CLK
  To:                    fc2/final_count[1]:E
  Delay (ns):            3.318
  Slack (ns):            0.452
  Arrival (ns):          9.156
  Required (ns):         9.608

Path 29
  From:                  fc0/state:CLK
  To:                    fc1/final_count[0]:E
  Delay (ns):            3.295
  Slack (ns):            0.497
  Arrival (ns):          9.133
  Required (ns):         9.630

Path 30
  From:                  fc0/counter[0]:CLK
  To:                    fc0/counter[2]:D
  Delay (ns):            3.210
  Slack (ns):            0.513
  Arrival (ns):          9.026
  Required (ns):         9.539

Path 31
  From:                  fc0/counter[0]:CLK
  To:                    fc0/counter[3]:D
  Delay (ns):            3.175
  Slack (ns):            0.518
  Arrival (ns):          8.991
  Required (ns):         9.509

Path 32
  From:                  fc0/state:CLK
  To:                    fc1/final_count[2]:E
  Delay (ns):            3.228
  Slack (ns):            0.543
  Arrival (ns):          9.066
  Required (ns):         9.609

Path 33
  From:                  fc2/counter[0]:CLK
  To:                    fc2/counter[2]:D
  Delay (ns):            3.073
  Slack (ns):            0.606
  Arrival (ns):          8.911
  Required (ns):         9.517

Path 34
  From:                  fc1/counter[1]:CLK
  To:                    fc1/counter[2]:D
  Delay (ns):            3.091
  Slack (ns):            0.610
  Arrival (ns):          8.917
  Required (ns):         9.527

Path 35
  From:                  fc1/counter[1]:CLK
  To:                    fc1/counter[1]:D
  Delay (ns):            3.087
  Slack (ns):            0.614
  Arrival (ns):          8.913
  Required (ns):         9.527

Path 36
  From:                  fc2/counter[2]:CLK
  To:                    fc2/final_count[3]:D
  Delay (ns):            3.084
  Slack (ns):            0.617
  Arrival (ns):          8.900
  Required (ns):         9.517

Path 37
  From:                  fc2/counter[1]:CLK
  To:                    fc2/counter[2]:D
  Delay (ns):            3.079
  Slack (ns):            0.622
  Arrival (ns):          8.895
  Required (ns):         9.517

Path 38
  From:                  fc0/counter[1]:CLK
  To:                    fc0/counter[2]:D
  Delay (ns):            3.078
  Slack (ns):            0.645
  Arrival (ns):          8.894
  Required (ns):         9.539

Path 39
  From:                  fc1/counter[0]:CLK
  To:                    fc1/counter[1]:D
  Delay (ns):            3.078
  Slack (ns):            0.656
  Arrival (ns):          8.871
  Required (ns):         9.527

Path 40
  From:                  fc0/state:CLK
  To:                    fc0/final_count[1]:E
  Delay (ns):            3.132
  Slack (ns):            0.660
  Arrival (ns):          8.970
  Required (ns):         9.630

Path 41
  From:                  fc0/state:CLK
  To:                    fc1/final_count[1]:E
  Delay (ns):            3.104
  Slack (ns):            0.667
  Arrival (ns):          8.942
  Required (ns):         9.609

Path 42
  From:                  fc2/counter[1]:CLK
  To:                    fc2/counter[1]:D
  Delay (ns):            3.021
  Slack (ns):            0.680
  Arrival (ns):          8.837
  Required (ns):         9.517

Path 43
  From:                  fc0/counter[1]:CLK
  To:                    fc0/counter[1]:D
  Delay (ns):            3.021
  Slack (ns):            0.680
  Arrival (ns):          8.837
  Required (ns):         9.517

Path 44
  From:                  fc2/counter[3]:CLK
  To:                    fc2/counter[3]:D
  Delay (ns):            2.946
  Slack (ns):            0.755
  Arrival (ns):          8.784
  Required (ns):         9.539

Path 45
  From:                  fc1/counter[3]:CLK
  To:                    fc1/counter[3]:D
  Delay (ns):            2.946
  Slack (ns):            0.755
  Arrival (ns):          8.763
  Required (ns):         9.518

Path 46
  From:                  fc0/counter[3]:CLK
  To:                    fc0/counter[3]:D
  Delay (ns):            2.945
  Slack (ns):            0.756
  Arrival (ns):          8.783
  Required (ns):         9.539

Path 47
  From:                  fc2/counter[0]:CLK
  To:                    fc2/final_count[3]:D
  Delay (ns):            2.876
  Slack (ns):            0.803
  Arrival (ns):          8.714
  Required (ns):         9.517

Path 48
  From:                  fc1/counter[1]:CLK
  To:                    fc1/final_count[3]:D
  Delay (ns):            2.877
  Slack (ns):            0.836
  Arrival (ns):          8.703
  Required (ns):         9.539

Path 49
  From:                  fc1/counter[2]:CLK
  To:                    fc1/final_count[3]:D
  Delay (ns):            2.840
  Slack (ns):            0.873
  Arrival (ns):          8.666
  Required (ns):         9.539

Path 50
  From:                  fc2/counter[1]:CLK
  To:                    fc2/final_count[1]:D
  Delay (ns):            2.782
  Slack (ns):            0.889
  Arrival (ns):          8.598
  Required (ns):         9.487

Path 51
  From:                  fc0/final_count[0]:CLK
  To:                    fc0/ck_ok:D
  Delay (ns):            2.686
  Slack (ns):            0.964
  Arrival (ns):          8.524
  Required (ns):         9.488

Path 52
  From:                  fc2/final_count[1]:CLK
  To:                    fc2/ck_ok:D
  Delay (ns):            2.670
  Slack (ns):            0.977
  Arrival (ns):          8.486
  Required (ns):         9.463

Path 53
  From:                  fc0/state:CLK
  To:                    fc2/counter[1]:D
  Delay (ns):            2.660
  Slack (ns):            0.989
  Arrival (ns):          8.498
  Required (ns):         9.487

Path 54
  From:                  fc0/state:CLK
  To:                    fc1/counter[3]:D
  Delay (ns):            2.660
  Slack (ns):            0.990
  Arrival (ns):          8.498
  Required (ns):         9.488

Path 55
  From:                  fc0/state:CLK
  To:                    fc2/counter[3]:D
  Delay (ns):            2.662
  Slack (ns):            1.009
  Arrival (ns):          8.500
  Required (ns):         9.509

Path 56
  From:                  fc1/counter[0]:CLK
  To:                    fc1/final_count[2]:D
  Delay (ns):            2.656
  Slack (ns):            1.039
  Arrival (ns):          8.449
  Required (ns):         9.488

Path 57
  From:                  fc0/counter[0]:CLK
  To:                    fc0/counter[1]:D
  Delay (ns):            2.660
  Slack (ns):            1.041
  Arrival (ns):          8.476
  Required (ns):         9.517

Path 58
  From:                  fc2/counter[1]:CLK
  To:                    fc2/final_count[3]:D
  Delay (ns):            2.652
  Slack (ns):            1.049
  Arrival (ns):          8.468
  Required (ns):         9.517

Path 59
  From:                  fc0/state:CLK
  To:                    fc0/final_count[0]:E
  Delay (ns):            2.740
  Slack (ns):            1.052
  Arrival (ns):          8.578
  Required (ns):         9.630

Path 60
  From:                  fc0/state:CLK
  To:                    fc0/final_count[3]:E
  Delay (ns):            2.726
  Slack (ns):            1.066
  Arrival (ns):          8.564
  Required (ns):         9.630

Path 61
  From:                  fc0/counter[1]:CLK
  To:                    fc0/final_count[3]:D
  Delay (ns):            2.652
  Slack (ns):            1.071
  Arrival (ns):          8.468
  Required (ns):         9.539

Path 62
  From:                  fc2/counter[0]:CLK
  To:                    fc2/counter[1]:D
  Delay (ns):            2.602
  Slack (ns):            1.077
  Arrival (ns):          8.440
  Required (ns):         9.517

Path 63
  From:                  fc0/counter[2]:CLK
  To:                    fc0/final_count[3]:D
  Delay (ns):            2.618
  Slack (ns):            1.083
  Arrival (ns):          8.456
  Required (ns):         9.539

Path 64
  From:                  fc1/final_count[0]:CLK
  To:                    fc1/ck_ok:D
  Delay (ns):            2.586
  Slack (ns):            1.094
  Arrival (ns):          8.424
  Required (ns):         9.518

Path 65
  From:                  fc1/counter[2]:CLK
  To:                    fc1/counter[2]:D
  Delay (ns):            2.595
  Slack (ns):            1.106
  Arrival (ns):          8.421
  Required (ns):         9.527

Path 66
  From:                  fc0/counter[2]:CLK
  To:                    fc0/counter[2]:D
  Delay (ns):            2.590
  Slack (ns):            1.111
  Arrival (ns):          8.428
  Required (ns):         9.539

Path 67
  From:                  fc2/final_count[0]:CLK
  To:                    fc2/ck_ok:D
  Delay (ns):            2.586
  Slack (ns):            1.115
  Arrival (ns):          8.378
  Required (ns):         9.493

Path 68
  From:                  fc1/counter[0]:CLK
  To:                    fc1/final_count[3]:D
  Delay (ns):            2.616
  Slack (ns):            1.130
  Arrival (ns):          8.409
  Required (ns):         9.539

Path 69
  From:                  fc0/final_count[1]:CLK
  To:                    fc0/ck_ok:D
  Delay (ns):            2.526
  Slack (ns):            1.154
  Arrival (ns):          8.364
  Required (ns):         9.518

Path 70
  From:                  fc2/counter[2]:CLK
  To:                    fc2/counter[2]:D
  Delay (ns):            2.531
  Slack (ns):            1.170
  Arrival (ns):          8.347
  Required (ns):         9.517

Path 71
  From:                  fc1/final_count[1]:CLK
  To:                    fc1/ck_ok:D
  Delay (ns):            2.526
  Slack (ns):            1.175
  Arrival (ns):          8.343
  Required (ns):         9.518

Path 72
  From:                  fc0/state:CLK
  To:                    fc2/final_count[0]:E
  Delay (ns):            2.520
  Slack (ns):            1.226
  Arrival (ns):          8.358
  Required (ns):         9.584

Path 73
  From:                  fc0/counter[1]:CLK
  To:                    fc0/final_count[1]:D
  Delay (ns):            2.464
  Slack (ns):            1.229
  Arrival (ns):          8.280
  Required (ns):         9.509

Path 74
  From:                  fc2/counter[0]:CLK
  To:                    fc2/final_count[1]:D
  Delay (ns):            2.414
  Slack (ns):            1.265
  Arrival (ns):          8.252
  Required (ns):         9.517

Path 75
  From:                  fc0/counter[0]:CLK
  To:                    fc0/final_count[3]:D
  Delay (ns):            2.449
  Slack (ns):            1.274
  Arrival (ns):          8.265
  Required (ns):         9.539

Path 76
  From:                  fc0/counter[0]:CLK
  To:                    fc0/final_count[2]:D
  Delay (ns):            2.377
  Slack (ns):            1.316
  Arrival (ns):          8.193
  Required (ns):         9.509

Path 77
  From:                  fc0/counter[0]:CLK
  To:                    fc0/final_count[0]:D
  Delay (ns):            2.382
  Slack (ns):            1.341
  Arrival (ns):          8.198
  Required (ns):         9.539

Path 78
  From:                  fc2/counter[0]:CLK
  To:                    fc2/final_count[2]:D
  Delay (ns):            2.241
  Slack (ns):            1.408
  Arrival (ns):          8.079
  Required (ns):         9.487

Path 79
  From:                  fc1/counter[1]:CLK
  To:                    fc1/final_count[2]:D
  Delay (ns):            2.250
  Slack (ns):            1.412
  Arrival (ns):          8.076
  Required (ns):         9.488

Path 80
  From:                  fc1/counter[1]:CLK
  To:                    fc1/final_count[1]:D
  Delay (ns):            2.246
  Slack (ns):            1.416
  Arrival (ns):          8.072
  Required (ns):         9.488

Path 81
  From:                  fc2/counter[1]:CLK
  To:                    fc2/final_count[2]:D
  Delay (ns):            2.247
  Slack (ns):            1.424
  Arrival (ns):          8.063
  Required (ns):         9.487

Path 82
  From:                  fc2/counter[0]:CLK
  To:                    fc2/final_count[0]:D
  Delay (ns):            2.228
  Slack (ns):            1.427
  Arrival (ns):          8.066
  Required (ns):         9.493

Path 83
  From:                  fc1/counter[0]:CLK
  To:                    fc1/final_count[0]:D
  Delay (ns):            2.303
  Slack (ns):            1.443
  Arrival (ns):          8.096
  Required (ns):         9.539

Path 84
  From:                  fc0/counter[1]:CLK
  To:                    fc0/final_count[2]:D
  Delay (ns):            2.245
  Slack (ns):            1.448
  Arrival (ns):          8.061
  Required (ns):         9.509

Path 85
  From:                  fc1/counter[0]:CLK
  To:                    fc1/final_count[1]:D
  Delay (ns):            2.237
  Slack (ns):            1.458
  Arrival (ns):          8.030
  Required (ns):         9.488

Path 86
  From:                  fc2/counter[3]:CLK
  To:                    fc2/final_count[3]:D
  Delay (ns):            2.114
  Slack (ns):            1.535
  Arrival (ns):          7.952
  Required (ns):         9.487

Path 87
  From:                  fc0/counter[3]:CLK
  To:                    fc0/final_count[3]:D
  Delay (ns):            2.112
  Slack (ns):            1.559
  Arrival (ns):          7.950
  Required (ns):         9.509

Path 88
  From:                  fc1/counter[3]:CLK
  To:                    fc1/final_count[3]:D
  Delay (ns):            2.114
  Slack (ns):            1.578
  Arrival (ns):          7.931
  Required (ns):         9.509

Path 89
  From:                  fc0/counter[0]:CLK
  To:                    fc0/final_count[1]:D
  Delay (ns):            2.103
  Slack (ns):            1.590
  Arrival (ns):          7.919
  Required (ns):         9.509

Path 90
  From:                  fc0/state:CLK
  To:                    fc1/final_count[3]:E
  Delay (ns):            1.960
  Slack (ns):            1.832
  Arrival (ns):          7.798
  Required (ns):         9.630

Path 91
  From:                  fc0/counter[0]:CLK
  To:                    fc0/counter[0]:D
  Delay (ns):            1.850
  Slack (ns):            1.851
  Arrival (ns):          7.666
  Required (ns):         9.517

Path 92
  From:                  fc1/counter[0]:CLK
  To:                    fc1/counter[0]:D
  Delay (ns):            1.810
  Slack (ns):            1.891
  Arrival (ns):          7.603
  Required (ns):         9.494

Path 93
  From:                  fc1/counter[2]:CLK
  To:                    fc1/final_count[2]:D
  Delay (ns):            1.754
  Slack (ns):            1.908
  Arrival (ns):          7.580
  Required (ns):         9.488

Path 94
  From:                  fc2/counter[0]:CLK
  To:                    fc2/counter[0]:D
  Delay (ns):            1.792
  Slack (ns):            1.909
  Arrival (ns):          7.630
  Required (ns):         9.539

Path 95
  From:                  fc0/counter[2]:CLK
  To:                    fc0/final_count[2]:D
  Delay (ns):            1.757
  Slack (ns):            1.914
  Arrival (ns):          7.595
  Required (ns):         9.509

Path 96
  From:                  fc2/counter[2]:CLK
  To:                    fc2/final_count[2]:D
  Delay (ns):            1.699
  Slack (ns):            1.972
  Arrival (ns):          7.515
  Required (ns):         9.487

