Timing Report Max Delay Analysis

SmartTime Version v11.9 SP5
Microsemi Corporation - Microsemi Libero Software Release v11.9 SP5 (Version 11.9.5.5)
Date: Wed Apr 15 17:01:25 2020


Design: jtag_interface_top
Family: ProASIC3
Die: A3P250
Package: 144 FBGA
Temperature Range: -40 - 85 C
Voltage Range: 1.425 - 1.575 V
Speed Grade: -1
Design State: Post-Layout
Data source: Silicon verified
Min Operating Conditions: BEST - 1.575 V - -40 C
Max Operating Conditions: WORST - 1.425 V - 85 C
Using Enhanced Min Delay Analysis
Scenario for Timing Analysis: Primary


-----------------------------------------------------
SUMMARY

Clock Domain:               clocking/Core:GLA
Period (ns):                0.856
Frequency (MHz):            1168.224
Required Period (ns):       25.000
Required Frequency (MHz):   40.000
External Setup (ns):        -1.830
Max Clock-To-Out (ns):      13.120

Clock Domain:               clocking/Core:GLB
Period (ns):                4.234
Frequency (MHz):            236.183
Required Period (ns):       4.167
Required Frequency (MHz):   239.981
External Setup (ns):        -0.240
Max Clock-To-Out (ns):      N/A

Clock Domain:               gbt_clk40
Period (ns):                4.000
Frequency (MHz):            250.000
Required Period (ns):       24.950
Required Frequency (MHz):   40.080
External Setup (ns):        N/A
Max Clock-To-Out (ns):      N/A

Clock Domain:               osc_clk40
Period (ns):                4.000
Frequency (MHz):            250.000
Required Period (ns):       25.000
Required Frequency (MHz):   40.000
External Setup (ns):        N/A
Max Clock-To-Out (ns):      N/A

                            Input to Output
Max Delay (ns):             N/A

END SUMMARY
-----------------------------------------------------

Clock Domain clocking/Core:GLA

Info: The maximum frequency of this clock domain is limited by the minimum pulse widths of pin jtag_out_rem[3]:CLK

SET Register to Register

No Path

END SET Register to Register

----------------------------------------------------

SET External Setup

Path 1
  From:                  gbt_dvalid
  To:                    jtag_out_rem_tri_enable:D
  Delay (ns):            2.705
  Slack (ns):
  Arrival (ns):          2.705
  Required (ns):
  Setup (ns):            0.616
  External Setup (ns):   -1.830

Path 2
  From:                  gbt_tdi_p[0]
  To:                    jtag_out_loc[1]:D
  Delay (ns):            2.525
  Slack (ns):
  Arrival (ns):          2.525
  Required (ns):
  Setup (ns):            0.616
  External Setup (ns):   -2.018

Path 3
  From:                  gbt_rst_p[1]
  To:                    jtag_out_rem[3]:D
  Delay (ns):            2.520
  Slack (ns):
  Arrival (ns):          2.520
  Required (ns):
  Setup (ns):            0.616
  External Setup (ns):   -2.024

Path 4
  From:                  gbt_tdi_n[0]
  To:                    jtag_out_loc[1]:D
  Delay (ns):            2.511
  Slack (ns):
  Arrival (ns):          2.511
  Required (ns):
  Setup (ns):            0.616
  External Setup (ns):   -2.032

Path 5
  From:                  gbt_rst_n[1]
  To:                    jtag_out_rem[3]:D
  Delay (ns):            2.506
  Slack (ns):
  Arrival (ns):          2.506
  Required (ns):
  Setup (ns):            0.616
  External Setup (ns):   -2.038


Expanded Path 1
  From: gbt_dvalid
  To: jtag_out_rem_tri_enable:D
  data required time                             N/C
  data arrival time                          -   2.705
  slack                                          N/C
  ________________________________________________________
  Data arrival time calculation
  0.000                        gbt_dvalid (r)
               +     0.000          net: gbt_dvalid
  0.000                        gbt_dvalid_pad/U0/U0:PAD (r)
               +     0.875          cell: ADLIB:IOPAD_IN
  0.875                        gbt_dvalid_pad/U0/U0:Y (r)
               +     0.000          net: gbt_dvalid_pad/U0/NET1
  0.875                        gbt_dvalid_pad/U0/U1:YIN (r)
               +     0.037          cell: ADLIB:IOIN_IB
  0.912                        gbt_dvalid_pad/U0/U1:Y (r)
               +     0.854          net: gbt_dvalid_c
  1.766                        HIEFFPLA_INST_1_781:C (r)
               +     0.649          cell: ADLIB:AND3
  2.415                        HIEFFPLA_INST_1_781:Y (r)
               +     0.290          net: HIEFFPLA_NET_1_1639
  2.705                        jtag_out_rem_tri_enable:D (r)
                                    
  2.705                        data arrival time
  ________________________________________________________
  Data required time calculation
  N/C                          clocking/Core:GLA
               +     0.000          Clock source
  N/C                          clocking/Core:GLA (f)
               +     4.552          Clock generation
  N/C
               +     0.599          net: GLA
  N/C                          jtag_out_rem_tri_enable:CLK (f)
               -     0.616          Library setup time: ADLIB:DFN0
  N/C                          jtag_out_rem_tri_enable:D


END SET External Setup

----------------------------------------------------

SET Clock to Output

Path 1
  From:                  jtag_out_rem_tri_enable:CLK
  To:                    proasic_tms[0]
  Delay (ns):            7.969
  Slack (ns):
  Arrival (ns):          13.120
  Required (ns):
  Clock to Out (ns):     13.120

Path 2
  From:                  jtag_out_rem_tri_enable:CLK
  To:                    proasic_tck[0]
  Delay (ns):            7.775
  Slack (ns):
  Arrival (ns):          12.926
  Required (ns):
  Clock to Out (ns):     12.926

Path 3
  From:                  jtag_out_rem_tri_enable:CLK
  To:                    proasic_tck[1]
  Delay (ns):            7.762
  Slack (ns):
  Arrival (ns):          12.913
  Required (ns):
  Clock to Out (ns):     12.913

Path 4
  From:                  jtag_out_rem_tri_enable:CLK
  To:                    proasic_tdi[0]
  Delay (ns):            7.161
  Slack (ns):
  Arrival (ns):          12.312
  Required (ns):
  Clock to Out (ns):     12.312

Path 5
  From:                  jtag_out_rem_tri_enable:CLK
  To:                    proasic_tdi[1]
  Delay (ns):            6.902
  Slack (ns):
  Arrival (ns):          12.053
  Required (ns):
  Clock to Out (ns):     12.053


Expanded Path 1
  From: jtag_out_rem_tri_enable:CLK
  To: proasic_tms[0]
  data required time                             N/C
  data arrival time                          -   13.120
  slack                                          N/C
  ________________________________________________________
  Data arrival time calculation
  0.000                        clocking/Core:GLA
               +     0.000          Clock source
  0.000                        clocking/Core:GLA (f)
               +     4.552          Clock generation
  4.552
               +     0.599          net: GLA
  5.151                        jtag_out_rem_tri_enable:CLK (f)
               +     0.565          cell: ADLIB:DFN0
  5.716                        jtag_out_rem_tri_enable:Q (f)
               +     4.230          net: jtag_out_rem_tri_enable
  9.946                        proasic_tms_pad[0]/U0/U1:E (f)
               +     0.360          cell: ADLIB:IOTRI_OB_EB
  10.306                       proasic_tms_pad[0]/U0/U1:EOUT (f)
               +     0.000          net: proasic_tms_pad[0]/U0/NET2
  10.306                       proasic_tms_pad[0]/U0/U0:E (f)
               +     2.814          cell: ADLIB:IOPAD_TRI
  13.120                       proasic_tms_pad[0]/U0/U0:PAD (f)
               +     0.000          net: proasic_tms_0[0]
  13.120                       proasic_tms[0] (f)
                                    
  13.120                       data arrival time
  ________________________________________________________
  Data required time calculation
  N/C                          clocking/Core:GLA
               +     0.000          Clock source
  N/C                          clocking/Core:GLA (r)
               +     4.552          Clock generation
  N/C
                                    
  N/C                          proasic_tms[0] (f)


END SET Clock to Output

----------------------------------------------------

SET Register to Asynchronous

No Path

END SET Register to Asynchronous

----------------------------------------------------

SET External Recovery

No Path

END SET External Recovery

----------------------------------------------------

SET Asynchronous to Register

No Path

END SET Asynchronous to Register

----------------------------------------------------

Clock Domain clocking/Core:GLB

SET Register to Register

Path 1
  From:                  fc0/counter[1]:CLK
  To:                    fc0/counter[3]:D
  Delay (ns):            3.720
  Slack (ns):            -0.067
  Arrival (ns):          9.545
  Required (ns):         9.478
  Setup (ns):            0.496
  Minimum Period (ns):   4.234

Path 2
  From:                  fc0/state:CLK
  To:                    fc2/counter[1]:D
  Delay (ns):            3.765
  Slack (ns):            -0.064
  Arrival (ns):          9.597
  Required (ns):         9.533
  Setup (ns):            0.466
  Minimum Period (ns):   4.231

Path 3
  From:                  fc1/counter[1]:CLK
  To:                    fc1/counter[3]:D
  Delay (ns):            3.730
  Slack (ns):            -0.051
  Arrival (ns):          9.545
  Required (ns):         9.494
  Setup (ns):            0.496
  Minimum Period (ns):   4.218

Path 4
  From:                  fc0/state:CLK
  To:                    fc1/final_count[1]:E
  Delay (ns):            3.620
  Slack (ns):            0.172
  Arrival (ns):          9.452
  Required (ns):         9.624
  Setup (ns):            0.375
  Minimum Period (ns):   3.995

Path 5
  From:                  fc1/counter[0]:CLK
  To:                    fc1/counter[2]:D
  Delay (ns):            3.500
  Slack (ns):            0.179
  Arrival (ns):          9.315
  Required (ns):         9.494
  Setup (ns):            0.496
  Minimum Period (ns):   3.988


Expanded Path 1
  From: fc0/counter[1]:CLK
  To: fc0/counter[3]:D
  data required time                             9.478
  data arrival time                          -   9.545
  slack                                          -0.067
  ________________________________________________________
  Data arrival time calculation
  0.000                        clocking/Core:GLB
               +     0.000          Clock source
  0.000                        clocking/Core:GLB (r)
               +     5.201          Clock generation
  5.201
               +     0.624          net: GLB
  5.825                        fc0/counter[1]:CLK (r)
               +     0.637          cell: ADLIB:DFN1
  6.462                        fc0/counter[1]:Q (f)
               +     0.419          net: fc0/counter[1]
  6.881                        HIEFFPLA_INST_1_711:B (f)
               +     0.545          cell: ADLIB:AND2
  7.426                        HIEFFPLA_INST_1_711:Y (f)
               +     0.290          net: HIEFFPLA_NET_1_1659
  7.716                        HIEFFPLA_INST_1_713:A (f)
               +     0.857          cell: ADLIB:AX1C
  8.573                        HIEFFPLA_INST_1_713:Y (f)
               +     0.317          net: HIEFFPLA_NET_1_1658
  8.890                        HIEFFPLA_INST_1_702:C (f)
               +     0.350          cell: ADLIB:OA1A
  9.240                        HIEFFPLA_INST_1_702:Y (f)
               +     0.305          net: HIEFFPLA_NET_1_1663
  9.545                        fc0/counter[3]:D (f)
                                    
  9.545                        data arrival time
  ________________________________________________________
  Data required time calculation
  4.167                        clocking/Core:GLB
               +     0.000          Clock source
  4.167                        clocking/Core:GLB (r)
               +     5.201          Clock generation
  9.368
               +     0.606          net: GLB
  9.974                        fc0/counter[3]:CLK (r)
               -     0.496          Library setup time: ADLIB:DFN1
  9.478                        fc0/counter[3]:D
                                    
  9.478                        data required time


END SET Register to Register

----------------------------------------------------

SET External Setup

Path 1
  From:                  gbt_clk40
  To:                    fc2/counter[1]:D
  Delay (ns):            5.126
  Slack (ns):
  Arrival (ns):          5.126
  Required (ns):
  Setup (ns):            0.466
  External Setup (ns):   -0.240

Path 2
  From:                  gbt_clk40
  To:                    fc1/final_count[1]:E
  Delay (ns):            4.981
  Slack (ns):
  Arrival (ns):          4.981
  Required (ns):
  Setup (ns):            0.375
  External Setup (ns):   -0.476

Path 3
  From:                  gbt_clk40
  To:                    fc0/counter[1]:D
  Delay (ns):            4.809
  Slack (ns):
  Arrival (ns):          4.809
  Required (ns):
  Setup (ns):            0.466
  External Setup (ns):   -0.550

Path 4
  From:                  gbt_clk40
  To:                    fc1/counter[1]:D
  Delay (ns):            4.719
  Slack (ns):
  Arrival (ns):          4.719
  Required (ns):
  Setup (ns):            0.466
  External Setup (ns):   -0.630

Path 5
  From:                  gbt_clk40
  To:                    fc2/counter[3]:D
  Delay (ns):            4.677
  Slack (ns):
  Arrival (ns):          4.677
  Required (ns):
  Setup (ns):            0.466
  External Setup (ns):   -0.682


Expanded Path 1
  From: gbt_clk40
  To: fc2/counter[1]:D
  data required time                             N/C
  data arrival time                          -   5.126
  slack                                          N/C
  ________________________________________________________
  Data arrival time calculation
  0.000                        gbt_clk40 (r)
               +     0.000          net: gbt_clk40
  0.000                        gbt_clk40_pad/U0/U0:PAD (r)
               +     0.875          cell: ADLIB:IOPAD_IN
  0.875                        gbt_clk40_pad/U0/U0:Y (r)
               +     0.000          net: gbt_clk40_pad/U0/NET1
  0.875                        gbt_clk40_pad/U0/U1:YIN (r)
               +     0.037          cell: ADLIB:IOIN_IB
  0.912                        gbt_clk40_pad/U0/U1:Y (r)
               +     1.572          net: gbt_clk40_c
  2.484                        HIEFFPLA_INST_1_704:A (r)
               +     0.445          cell: ADLIB:AND2A
  2.929                        HIEFFPLA_INST_1_704:Y (f)
               +     1.452          net: HIEFFPLA_NET_1_1662
  4.381                        HIEFFPLA_INST_1_764:C (f)
               +     0.455          cell: ADLIB:XA1B
  4.836                        HIEFFPLA_INST_1_764:Y (r)
               +     0.290          net: HIEFFPLA_NET_1_1646
  5.126                        fc2/counter[1]:D (r)
                                    
  5.126                        data arrival time
  ________________________________________________________
  Data required time calculation
  N/C                          clocking/Core:GLB
               +     0.000          Clock source
  N/C                          clocking/Core:GLB (r)
               +     5.201          Clock generation
  N/C
               +     0.631          net: GLB
  N/C                          fc2/counter[1]:CLK (r)
               -     0.466          Library setup time: ADLIB:DFN1
  N/C                          fc2/counter[1]:D


END SET External Setup

----------------------------------------------------

SET Clock to Output

No Path

END SET Clock to Output

----------------------------------------------------

SET Register to Asynchronous

No Path

END SET Register to Asynchronous

----------------------------------------------------

SET External Recovery

No Path

END SET External Recovery

----------------------------------------------------

SET Asynchronous to Register

No Path

END SET Asynchronous to Register

----------------------------------------------------

Clock Domain gbt_clk40

Info: The maximum frequency of this clock domain is limited by the minimum pulse widths of pin gbt_clk40_pad/U0/U0:PAD

SET Register to Register

No Path

END SET Register to Register

----------------------------------------------------

SET External Setup

No Path

END SET External Setup

----------------------------------------------------

SET Clock to Output

No Path

END SET Clock to Output

----------------------------------------------------

SET Register to Asynchronous

No Path

END SET Register to Asynchronous

----------------------------------------------------

SET External Recovery

No Path

END SET External Recovery

----------------------------------------------------

SET Asynchronous to Register

No Path

END SET Asynchronous to Register

----------------------------------------------------

Clock Domain osc_clk40

Info: The maximum frequency of this clock domain is limited by the minimum pulse widths of pin osc_clk40_pad/U0/U0:PAD

SET Register to Register

No Path

END SET Register to Register

----------------------------------------------------

SET External Setup

No Path

END SET External Setup

----------------------------------------------------

SET Clock to Output

No Path

END SET Clock to Output

----------------------------------------------------

SET Register to Asynchronous

No Path

END SET Register to Asynchronous

----------------------------------------------------

SET External Recovery

No Path

END SET External Recovery

----------------------------------------------------

SET Asynchronous to Register

No Path

END SET Asynchronous to Register

----------------------------------------------------

Path set Pin to Pin

SET Input to Output

No Path

END SET Input to Output

----------------------------------------------------

Path set User Sets

