Timing Violation Report Min Delay Analysis

SmartTime Version v11.9 SP5
Microsemi Corporation - Microsemi Libero Software Release v11.9 SP5 (Version 11.9.5.5)
Date: Thu Apr 16 17:31:13 2020


Design: jtag_interface_top
Family: ProASIC3
Die: A3P250
Package: 144 FBGA
Temperature Range: -40 - 85 C
Voltage Range: 1.425 - 1.575 V
Speed Grade: -1
Design State: Post-Layout
Data source: Silicon verified
Min Operating Conditions: BEST - 1.575 V - -40 C
Max Operating Conditions: WORST - 1.425 V - 85 C
Using Enhanced Min Delay Analysis
Scenario for Timing Analysis: Primary


Path 1
  From:                  fc2/counter[0]:CLK
  To:                    fc2/final_count[0]:D
  Delay (ns):            0.354
  Slack (ns):            0.335
  Arrival (ns):          2.993
  Required (ns):         2.658

Path 2
  From:                  fc0/counter[0]:CLK
  To:                    fc0/final_count[0]:D
  Delay (ns):            0.407
  Slack (ns):            0.385
  Arrival (ns):          3.056
  Required (ns):         2.671

Path 3
  From:                  fc0/counter[3]:CLK
  To:                    fc0/final_count[3]:D
  Delay (ns):            0.573
  Slack (ns):            0.547
  Arrival (ns):          3.222
  Required (ns):         2.675

Path 4
  From:                  fc1/counter[3]:CLK
  To:                    fc1/final_count[3]:D
  Delay (ns):            0.570
  Slack (ns):            0.548
  Arrival (ns):          3.219
  Required (ns):         2.671

Path 5
  From:                  fc2/counter[3]:CLK
  To:                    fc2/final_count[3]:D
  Delay (ns):            0.570
  Slack (ns):            0.551
  Arrival (ns):          3.209
  Required (ns):         2.658

Path 6
  From:                  fc1/counter[0]:CLK
  To:                    fc1/counter[0]:D
  Delay (ns):            0.555
  Slack (ns):            0.555
  Arrival (ns):          3.194
  Required (ns):         2.639

Path 7
  From:                  fc1/final_count[2]:CLK
  To:                    fc1/ck_ok:D
  Delay (ns):            0.596
  Slack (ns):            0.570
  Arrival (ns):          3.245
  Required (ns):         2.675

Path 8
  From:                  fc2/counter[2]:CLK
  To:                    fc2/final_count[2]:D
  Delay (ns):            0.590
  Slack (ns):            0.571
  Arrival (ns):          3.229
  Required (ns):         2.658

Path 9
  From:                  fc2/final_count[2]:CLK
  To:                    fc2/ck_ok:D
  Delay (ns):            0.592
  Slack (ns):            0.573
  Arrival (ns):          3.231
  Required (ns):         2.658

Path 10
  From:                  fc0/final_count[2]:CLK
  To:                    fc0/ck_ok:D
  Delay (ns):            0.600
  Slack (ns):            0.574
  Arrival (ns):          3.249
  Required (ns):         2.675

Path 11
  From:                  fc2/counter[0]:CLK
  To:                    fc2/counter[0]:D
  Delay (ns):            0.576
  Slack (ns):            0.576
  Arrival (ns):          3.215
  Required (ns):         2.639

Path 12
  From:                  fc0/counter[1]:CLK
  To:                    fc0/final_count[1]:D
  Delay (ns):            0.612
  Slack (ns):            0.580
  Arrival (ns):          3.251
  Required (ns):         2.671

Path 13
  From:                  fc1/counter[1]:CLK
  To:                    fc1/final_count[1]:D
  Delay (ns):            0.612
  Slack (ns):            0.593
  Arrival (ns):          3.251
  Required (ns):         2.658

Path 14
  From:                  fc1/counter[0]:CLK
  To:                    fc1/final_count[0]:D
  Delay (ns):            0.627
  Slack (ns):            0.595
  Arrival (ns):          3.266
  Required (ns):         2.671

Path 15
  From:                  fc0/counter[0]:CLK
  To:                    fc0/counter[0]:D
  Delay (ns):            0.621
  Slack (ns):            0.621
  Arrival (ns):          3.270
  Required (ns):         2.649

Path 16
  From:                  fc2/counter[0]:CLK
  To:                    fc2/final_count[3]:D
  Delay (ns):            0.713
  Slack (ns):            0.694
  Arrival (ns):          3.352
  Required (ns):         2.658

Path 17
  From:                  fc2/counter[1]:CLK
  To:                    fc2/final_count[2]:D
  Delay (ns):            0.714
  Slack (ns):            0.695
  Arrival (ns):          3.353
  Required (ns):         2.658

Path 18
  From:                  fc0/counter[0]:CLK
  To:                    fc0/final_count[1]:D
  Delay (ns):            0.758
  Slack (ns):            0.736
  Arrival (ns):          3.407
  Required (ns):         2.671

Path 19
  From:                  fc1/counter[2]:CLK
  To:                    fc1/final_count[2]:D
  Delay (ns):            0.794
  Slack (ns):            0.762
  Arrival (ns):          3.433
  Required (ns):         2.671

Path 20
  From:                  fc2/counter[1]:CLK
  To:                    fc2/final_count[1]:D
  Delay (ns):            0.790
  Slack (ns):            0.771
  Arrival (ns):          3.429
  Required (ns):         2.658

Path 21
  From:                  fc0/state:CLK
  To:                    fc1/final_count[0]:E
  Delay (ns):            0.805
  Slack (ns):            0.773
  Arrival (ns):          3.444
  Required (ns):         2.671

Path 22
  From:                  fc0/state:CLK
  To:                    fc0/final_count[2]:E
  Delay (ns):            0.805
  Slack (ns):            0.773
  Arrival (ns):          3.444
  Required (ns):         2.671

Path 23
  From:                  fc0/state:CLK
  To:                    fc1/final_count[2]:E
  Delay (ns):            0.805
  Slack (ns):            0.773
  Arrival (ns):          3.444
  Required (ns):         2.671

Path 24
  From:                  fc0/state:CLK
  To:                    fc0/final_count[1]:E
  Delay (ns):            0.805
  Slack (ns):            0.773
  Arrival (ns):          3.444
  Required (ns):         2.671

Path 25
  From:                  fc0/state:CLK
  To:                    fc1/final_count[1]:E
  Delay (ns):            0.805
  Slack (ns):            0.786
  Arrival (ns):          3.444
  Required (ns):         2.658

Path 26
  From:                  fc2/counter[0]:CLK
  To:                    fc2/final_count[2]:D
  Delay (ns):            0.813
  Slack (ns):            0.794
  Arrival (ns):          3.452
  Required (ns):         2.658

Path 27
  From:                  fc1/final_count[3]:CLK
  To:                    fc1/ck_ok:D
  Delay (ns):            0.823
  Slack (ns):            0.797
  Arrival (ns):          3.472
  Required (ns):         2.675

Path 28
  From:                  fc0/state:CLK
  To:                    fc0/final_count[0]:E
  Delay (ns):            0.831
  Slack (ns):            0.799
  Arrival (ns):          3.470
  Required (ns):         2.671

Path 29
  From:                  fc0/counter[2]:CLK
  To:                    fc0/final_count[2]:D
  Delay (ns):            0.833
  Slack (ns):            0.801
  Arrival (ns):          3.472
  Required (ns):         2.671

Path 30
  From:                  fc2/final_count[3]:CLK
  To:                    fc2/ck_ok:D
  Delay (ns):            0.820
  Slack (ns):            0.801
  Arrival (ns):          3.459
  Required (ns):         2.658

Path 31
  From:                  fc0/counter[3]:CLK
  To:                    fc0/counter[3]:D
  Delay (ns):            0.803
  Slack (ns):            0.803
  Arrival (ns):          3.452
  Required (ns):         2.649

Path 32
  From:                  fc2/counter[3]:CLK
  To:                    fc2/counter[3]:D
  Delay (ns):            0.804
  Slack (ns):            0.804
  Arrival (ns):          3.443
  Required (ns):         2.639

Path 33
  From:                  fc0/counter[2]:CLK
  To:                    fc0/counter[2]:D
  Delay (ns):            0.804
  Slack (ns):            0.804
  Arrival (ns):          3.443
  Required (ns):         2.639

Path 34
  From:                  fc1/counter[3]:CLK
  To:                    fc1/counter[3]:D
  Delay (ns):            0.804
  Slack (ns):            0.804
  Arrival (ns):          3.453
  Required (ns):         2.649

Path 35
  From:                  fc0/final_count[3]:CLK
  To:                    fc0/ck_ok:D
  Delay (ns):            0.831
  Slack (ns):            0.809
  Arrival (ns):          3.484
  Required (ns):         2.675

Path 36
  From:                  fc2/counter[2]:CLK
  To:                    fc2/counter[2]:D
  Delay (ns):            0.823
  Slack (ns):            0.823
  Arrival (ns):          3.462
  Required (ns):         2.639

Path 37
  From:                  fc0/state:CLK
  To:                    fc0/counter[1]:D
  Delay (ns):            0.843
  Slack (ns):            0.824
  Arrival (ns):          3.482
  Required (ns):         2.658

Path 38
  From:                  fc2/counter[1]:CLK
  To:                    fc2/counter[1]:D
  Delay (ns):            0.825
  Slack (ns):            0.825
  Arrival (ns):          3.464
  Required (ns):         2.639

Path 39
  From:                  fc1/final_count[1]:CLK
  To:                    fc1/ck_ok:D
  Delay (ns):            0.873
  Slack (ns):            0.837
  Arrival (ns):          3.512
  Required (ns):         2.675

Path 40
  From:                  fc1/counter[1]:CLK
  To:                    fc1/counter[1]:D
  Delay (ns):            0.845
  Slack (ns):            0.845
  Arrival (ns):          3.484
  Required (ns):         2.639

Path 41
  From:                  fc2/final_count[1]:CLK
  To:                    fc2/ck_ok:D
  Delay (ns):            0.870
  Slack (ns):            0.851
  Arrival (ns):          3.509
  Required (ns):         2.658

Path 42
  From:                  fc0/final_count[1]:CLK
  To:                    fc0/ck_ok:D
  Delay (ns):            0.881
  Slack (ns):            0.855
  Arrival (ns):          3.530
  Required (ns):         2.675

Path 43
  From:                  fc1/counter[0]:CLK
  To:                    fc1/final_count[2]:D
  Delay (ns):            0.896
  Slack (ns):            0.864
  Arrival (ns):          3.535
  Required (ns):         2.671

Path 44
  From:                  fc0/counter[2]:CLK
  To:                    fc0/final_count[3]:D
  Delay (ns):            0.916
  Slack (ns):            0.880
  Arrival (ns):          3.555
  Required (ns):         2.675

Path 45
  From:                  fc1/counter[2]:CLK
  To:                    fc1/final_count[3]:D
  Delay (ns):            0.913
  Slack (ns):            0.881
  Arrival (ns):          3.552
  Required (ns):         2.671

Path 46
  From:                  fc1/final_count[0]:CLK
  To:                    fc1/ck_ok:D
  Delay (ns):            0.911
  Slack (ns):            0.885
  Arrival (ns):          3.560
  Required (ns):         2.675

Path 47
  From:                  fc1/counter[1]:CLK
  To:                    fc1/final_count[2]:D
  Delay (ns):            0.918
  Slack (ns):            0.886
  Arrival (ns):          3.557
  Required (ns):         2.671

Path 48
  From:                  fc2/final_count[0]:CLK
  To:                    fc2/ck_ok:D
  Delay (ns):            0.908
  Slack (ns):            0.889
  Arrival (ns):          3.547
  Required (ns):         2.658

Path 49
  From:                  fc0/final_count[0]:CLK
  To:                    fc0/ck_ok:D
  Delay (ns):            0.919
  Slack (ns):            0.893
  Arrival (ns):          3.568
  Required (ns):         2.675

Path 50
  From:                  fc0/state:CLK
  To:                    fc2/final_count[2]:E
  Delay (ns):            0.927
  Slack (ns):            0.908
  Arrival (ns):          3.566
  Required (ns):         2.658

Path 51
  From:                  fc2/counter[2]:CLK
  To:                    fc2/final_count[3]:D
  Delay (ns):            0.928
  Slack (ns):            0.909
  Arrival (ns):          3.567
  Required (ns):         2.658

Path 52
  From:                  fc0/counter[1]:CLK
  To:                    fc0/counter[2]:D
  Delay (ns):            0.928
  Slack (ns):            0.909
  Arrival (ns):          3.567
  Required (ns):         2.658

Path 53
  From:                  fc0/counter[1]:CLK
  To:                    fc0/final_count[2]:D
  Delay (ns):            0.957
  Slack (ns):            0.925
  Arrival (ns):          3.596
  Required (ns):         2.671

Path 54
  From:                  fc2/counter[0]:CLK
  To:                    fc2/counter[3]:D
  Delay (ns):            0.947
  Slack (ns):            0.928
  Arrival (ns):          3.586
  Required (ns):         2.658

Path 55
  From:                  fc2/counter[1]:CLK
  To:                    fc2/counter[2]:D
  Delay (ns):            0.947
  Slack (ns):            0.928
  Arrival (ns):          3.586
  Required (ns):         2.658

Path 56
  From:                  fc1/counter[0]:CLK
  To:                    fc1/final_count[1]:D
  Delay (ns):            0.971
  Slack (ns):            0.952
  Arrival (ns):          3.610
  Required (ns):         2.658

Path 57
  From:                  fc0/counter[0]:CLK
  To:                    fc0/counter[2]:D
  Delay (ns):            0.972
  Slack (ns):            0.963
  Arrival (ns):          3.621
  Required (ns):         2.658

Path 58
  From:                  fc0/counter[0]:CLK
  To:                    fc0/final_count[2]:D
  Delay (ns):            1.001
  Slack (ns):            0.979
  Arrival (ns):          3.650
  Required (ns):         2.671

Path 59
  From:                  fc0/state:CLK
  To:                    fc2/counter[2]:D
  Delay (ns):            0.998
  Slack (ns):            0.979
  Arrival (ns):          3.637
  Required (ns):         2.658

Path 60
  From:                  fc0/state:CLK
  To:                    fc1/final_count[3]:E
  Delay (ns):            1.019
  Slack (ns):            0.987
  Arrival (ns):          3.658
  Required (ns):         2.671

Path 61
  From:                  fc0/counter[1]:CLK
  To:                    fc0/final_count[3]:D
  Delay (ns):            1.026
  Slack (ns):            0.990
  Arrival (ns):          3.665
  Required (ns):         2.675

Path 62
  From:                  fc1/counter[1]:CLK
  To:                    fc1/final_count[3]:D
  Delay (ns):            1.023
  Slack (ns):            0.991
  Arrival (ns):          3.662
  Required (ns):         2.671

Path 63
  From:                  fc1/counter[2]:CLK
  To:                    fc1/counter[2]:D
  Delay (ns):            0.998
  Slack (ns):            0.998
  Arrival (ns):          3.637
  Required (ns):         2.639

Path 64
  From:                  fc2/counter[1]:CLK
  To:                    fc2/final_count[3]:D
  Delay (ns):            1.017
  Slack (ns):            0.998
  Arrival (ns):          3.656
  Required (ns):         2.658

Path 65
  From:                  fc0/state:CLK
  To:                    fc0/counter[3]:D
  Delay (ns):            1.035
  Slack (ns):            1.003
  Arrival (ns):          3.674
  Required (ns):         2.671

Path 66
  From:                  fc2/counter[0]:CLK
  To:                    fc2/counter[2]:D
  Delay (ns):            1.046
  Slack (ns):            1.027
  Arrival (ns):          3.685
  Required (ns):         2.658

Path 67
  From:                  fc0/state:CLK
  To:                    fc1/counter[3]:D
  Delay (ns):            1.062
  Slack (ns):            1.030
  Arrival (ns):          3.701
  Required (ns):         2.671

Path 68
  From:                  fc0/counter[1]:CLK
  To:                    fc0/counter[1]:D
  Delay (ns):            1.043
  Slack (ns):            1.043
  Arrival (ns):          3.682
  Required (ns):         2.639

Path 69
  From:                  fc0/state:CLK
  To:                    fc2/counter[1]:D
  Delay (ns):            1.063
  Slack (ns):            1.044
  Arrival (ns):          3.702
  Required (ns):         2.658

Path 70
  From:                  fc0/state:CLK
  To:                    fc0/counter[0]:D
  Delay (ns):            1.079
  Slack (ns):            1.047
  Arrival (ns):          3.718
  Required (ns):         2.671

Path 71
  From:                  fc0/state:CLK
  To:                    fc2/final_count[3]:E
  Delay (ns):            1.071
  Slack (ns):            1.052
  Arrival (ns):          3.710
  Required (ns):         2.658

Path 72
  From:                  fc0/state:CLK
  To:                    fc2/final_count[0]:E
  Delay (ns):            1.071
  Slack (ns):            1.052
  Arrival (ns):          3.710
  Required (ns):         2.658

Path 73
  From:                  fc0/counter[0]:CLK
  To:                    fc0/final_count[3]:D
  Delay (ns):            1.081
  Slack (ns):            1.055
  Arrival (ns):          3.730
  Required (ns):         2.675

Path 74
  From:                  fc0/state:CLK
  To:                    fc1/counter[1]:D
  Delay (ns):            1.079
  Slack (ns):            1.060
  Arrival (ns):          3.718
  Required (ns):         2.658

Path 75
  From:                  fc0/state:CLK
  To:                    fc2/counter[3]:D
  Delay (ns):            1.079
  Slack (ns):            1.060
  Arrival (ns):          3.718
  Required (ns):         2.658

Path 76
  From:                  fc0/state:CLK
  To:                    fc2/counter[0]:D
  Delay (ns):            1.080
  Slack (ns):            1.061
  Arrival (ns):          3.719
  Required (ns):         2.658

Path 77
  From:                  fc0/state:CLK
  To:                    fc0/counter[2]:D
  Delay (ns):            1.080
  Slack (ns):            1.061
  Arrival (ns):          3.719
  Required (ns):         2.658

Path 78
  From:                  fc0/state:CLK
  To:                    fc1/counter[2]:D
  Delay (ns):            1.080
  Slack (ns):            1.061
  Arrival (ns):          3.719
  Required (ns):         2.658

Path 79
  From:                  fc1/counter[0]:CLK
  To:                    fc1/final_count[3]:D
  Delay (ns):            1.100
  Slack (ns):            1.068
  Arrival (ns):          3.739
  Required (ns):         2.671

Path 80
  From:                  fc0/state:CLK
  To:                    fc1/counter[0]:D
  Delay (ns):            1.096
  Slack (ns):            1.077
  Arrival (ns):          3.735
  Required (ns):         2.658

Path 81
  From:                  fc1/counter[0]:CLK
  To:                    fc1/counter[2]:D
  Delay (ns):            1.100
  Slack (ns):            1.081
  Arrival (ns):          3.739
  Required (ns):         2.658

Path 82
  From:                  fc1/counter[1]:CLK
  To:                    fc1/counter[2]:D
  Delay (ns):            1.122
  Slack (ns):            1.103
  Arrival (ns):          3.761
  Required (ns):         2.658

Path 83
  From:                  fc0/state:CLK
  To:                    fc2/final_count[1]:E
  Delay (ns):            1.129
  Slack (ns):            1.110
  Arrival (ns):          3.768
  Required (ns):         2.658

Path 84
  From:                  fc0/counter[2]:CLK
  To:                    fc0/counter[3]:D
  Delay (ns):            1.146
  Slack (ns):            1.114
  Arrival (ns):          3.785
  Required (ns):         2.671

Path 85
  From:                  fc1/counter[2]:CLK
  To:                    fc1/counter[3]:D
  Delay (ns):            1.147
  Slack (ns):            1.115
  Arrival (ns):          3.786
  Required (ns):         2.671

Path 86
  From:                  fc0/state:CLK
  To:                    fc0/final_count[3]:E
  Delay (ns):            1.162
  Slack (ns):            1.126
  Arrival (ns):          3.801
  Required (ns):         2.675

Path 87
  From:                  fc2/counter[2]:CLK
  To:                    fc2/counter[3]:D
  Delay (ns):            1.162
  Slack (ns):            1.143
  Arrival (ns):          3.801
  Required (ns):         2.658

Path 88
  From:                  fc0/counter[0]:CLK
  To:                    fc0/counter[1]:D
  Delay (ns):            1.189
  Slack (ns):            1.180
  Arrival (ns):          3.838
  Required (ns):         2.658

Path 89
  From:                  fc1/counter[0]:CLK
  To:                    fc1/counter[1]:D
  Delay (ns):            1.204
  Slack (ns):            1.185
  Arrival (ns):          3.843
  Required (ns):         2.658

Path 90
  From:                  fc2/counter[0]:CLK
  To:                    fc2/final_count[1]:D
  Delay (ns):            1.224
  Slack (ns):            1.205
  Arrival (ns):          3.863
  Required (ns):         2.658

Path 91
  From:                  fc0/counter[1]:CLK
  To:                    fc0/counter[3]:D
  Delay (ns):            1.256
  Slack (ns):            1.224
  Arrival (ns):          3.895
  Required (ns):         2.671

Path 92
  From:                  fc1/counter[1]:CLK
  To:                    fc1/counter[3]:D
  Delay (ns):            1.257
  Slack (ns):            1.225
  Arrival (ns):          3.896
  Required (ns):         2.671

Path 93
  From:                  fc2/counter[1]:CLK
  To:                    fc2/counter[3]:D
  Delay (ns):            1.251
  Slack (ns):            1.232
  Arrival (ns):          3.890
  Required (ns):         2.658

Path 94
  From:                  fc2/counter[0]:CLK
  To:                    fc2/counter[1]:D
  Delay (ns):            1.259
  Slack (ns):            1.240
  Arrival (ns):          3.898
  Required (ns):         2.658

Path 95
  From:                  fc0/counter[0]:CLK
  To:                    fc0/counter[3]:D
  Delay (ns):            1.311
  Slack (ns):            1.289
  Arrival (ns):          3.960
  Required (ns):         2.671

Path 96
  From:                  fc1/counter[0]:CLK
  To:                    fc1/counter[3]:D
  Delay (ns):            1.334
  Slack (ns):            1.302
  Arrival (ns):          3.973
  Required (ns):         2.671

