Timing Report Max Delay Analysis

SmartTime Version v11.9 SP5
Microsemi Corporation - Microsemi Libero Software Release v11.9 SP5 (Version 11.9.5.5)
Date: Wed Apr 15 16:14:07 2020


Design: jtag_interface_top
Family: ProASIC3
Die: A3P250
Package: 144 FBGA
Temperature Range: -40 - 85 C
Voltage Range: 1.425 - 1.575 V
Speed Grade: -1
Design State: Post-Layout
Data source: Silicon verified
Min Operating Conditions: BEST - 1.575 V - -40 C
Max Operating Conditions: WORST - 1.425 V - 85 C
Using Enhanced Min Delay Analysis
Scenario for Timing Analysis: Primary


-----------------------------------------------------
SUMMARY

Clock Domain:               clocking/Core:GLA
Period (ns):                0.858
Frequency (MHz):            1165.501
Required Period (ns):       25.000
Required Frequency (MHz):   40.000
External Setup (ns):        -1.180
Max Clock-To-Out (ns):      12.348

Clock Domain:               clocking/Core:GLB
Period (ns):                4.491
Frequency (MHz):            222.668
Required Period (ns):       4.167
Required Frequency (MHz):   239.981
External Setup (ns):        -0.119
Max Clock-To-Out (ns):      N/A

Clock Domain:               gbt_clk40
Period (ns):                4.000
Frequency (MHz):            250.000
Required Period (ns):       24.950
Required Frequency (MHz):   40.080
External Setup (ns):        N/A
Max Clock-To-Out (ns):      N/A

Clock Domain:               osc_clk40
Period (ns):                4.000
Frequency (MHz):            250.000
Required Period (ns):       25.000
Required Frequency (MHz):   40.000
External Setup (ns):        N/A
Max Clock-To-Out (ns):      N/A

                            Input to Output
Max Delay (ns):             N/A

END SUMMARY
-----------------------------------------------------

Clock Domain clocking/Core:GLA

Info: The maximum frequency of this clock domain is limited by the minimum pulse widths of pin jtag_out_loc[2]:CLK

SET Register to Register

No Path

END SET Register to Register

----------------------------------------------------

SET External Setup

Path 1
  From:                  gbt_dvalid
  To:                    jtag_out_rem_tri_enable:D
  Delay (ns):            3.355
  Slack (ns):
  Arrival (ns):          3.355
  Required (ns):
  Setup (ns):            0.616
  External Setup (ns):   -1.180

Path 2
  From:                  gbt_tms_p[0]
  To:                    jtag_out_loc[0]:D
  Delay (ns):            2.793
  Slack (ns):
  Arrival (ns):          2.793
  Required (ns):
  Setup (ns):            0.616
  External Setup (ns):   -1.759

Path 3
  From:                  gbt_tms_n[0]
  To:                    jtag_out_loc[0]:D
  Delay (ns):            2.779
  Slack (ns):
  Arrival (ns):          2.779
  Required (ns):
  Setup (ns):            0.616
  External Setup (ns):   -1.773

Path 4
  From:                  gbt_rst_p[0]
  To:                    jtag_out_loc[3]:D
  Delay (ns):            2.730
  Slack (ns):
  Arrival (ns):          2.730
  Required (ns):
  Setup (ns):            0.616
  External Setup (ns):   -1.814

Path 5
  From:                  gbt_rst_n[0]
  To:                    jtag_out_loc[3]:D
  Delay (ns):            2.716
  Slack (ns):
  Arrival (ns):          2.716
  Required (ns):
  Setup (ns):            0.616
  External Setup (ns):   -1.828


Expanded Path 1
  From: gbt_dvalid
  To: jtag_out_rem_tri_enable:D
  data required time                             N/C
  data arrival time                          -   3.355
  slack                                          N/C
  ________________________________________________________
  Data arrival time calculation
  0.000                        gbt_dvalid (r)
               +     0.000          net: gbt_dvalid
  0.000                        gbt_dvalid_pad/U0/U0:PAD (r)
               +     0.875          cell: ADLIB:IOPAD_IN
  0.875                        gbt_dvalid_pad/U0/U0:Y (r)
               +     0.000          net: gbt_dvalid_pad/U0/NET1
  0.875                        gbt_dvalid_pad/U0/U1:YIN (r)
               +     0.037          cell: ADLIB:IOIN_IB
  0.912                        gbt_dvalid_pad/U0/U1:Y (r)
               +     1.504          net: gbt_dvalid_c
  2.416                        jtag_out_rem_tri_enable_RNO:C (r)
               +     0.649          cell: ADLIB:NOR3C
  3.065                        jtag_out_rem_tri_enable_RNO:Y (r)
               +     0.290          net: jtag_loc_en
  3.355                        jtag_out_rem_tri_enable:D (r)
                                    
  3.355                        data arrival time
  ________________________________________________________
  Data required time calculation
  N/C                          clocking/Core:GLA
               +     0.000          Clock source
  N/C                          clocking/Core:GLA (f)
               +     4.552          Clock generation
  N/C
               +     0.599          net: GLA
  N/C                          jtag_out_rem_tri_enable:CLK (f)
               -     0.616          Library setup time: ADLIB:DFN0
  N/C                          jtag_out_rem_tri_enable:D


END SET External Setup

----------------------------------------------------

SET Clock to Output

Path 1
  From:                  jtag_out_rem_tri_enable:CLK
  To:                    proasic_tdi[0]
  Delay (ns):            7.197
  Slack (ns):
  Arrival (ns):          12.348
  Required (ns):
  Clock to Out (ns):     12.348

Path 2
  From:                  jtag_out_rem_tri_enable:CLK
  To:                    proasic_tck[1]
  Delay (ns):            6.981
  Slack (ns):
  Arrival (ns):          12.132
  Required (ns):
  Clock to Out (ns):     12.132

Path 3
  From:                  jtag_out_rem_tri_enable:CLK
  To:                    proasic_tck[0]
  Delay (ns):            6.878
  Slack (ns):
  Arrival (ns):          12.029
  Required (ns):
  Clock to Out (ns):     12.029

Path 4
  From:                  jtag_out_rem_tri_enable:CLK
  To:                    proasic_rst[1]
  Delay (ns):            6.663
  Slack (ns):
  Arrival (ns):          11.814
  Required (ns):
  Clock to Out (ns):     11.814

Path 5
  From:                  jtag_out_rem_tri_enable:CLK
  To:                    proasic_tms[1]
  Delay (ns):            6.345
  Slack (ns):
  Arrival (ns):          11.496
  Required (ns):
  Clock to Out (ns):     11.496


Expanded Path 1
  From: jtag_out_rem_tri_enable:CLK
  To: proasic_tdi[0]
  data required time                             N/C
  data arrival time                          -   12.348
  slack                                          N/C
  ________________________________________________________
  Data arrival time calculation
  0.000                        clocking/Core:GLA
               +     0.000          Clock source
  0.000                        clocking/Core:GLA (f)
               +     4.552          Clock generation
  4.552
               +     0.599          net: GLA
  5.151                        jtag_out_rem_tri_enable:CLK (f)
               +     0.565          cell: ADLIB:DFN0
  5.716                        jtag_out_rem_tri_enable:Q (f)
               +     3.458          net: jtag_out_rem_tri_enable
  9.174                        proasic_tdi_pad[0]/U0/U1:E (f)
               +     0.360          cell: ADLIB:IOTRI_OB_EB
  9.534                        proasic_tdi_pad[0]/U0/U1:EOUT (f)
               +     0.000          net: proasic_tdi_pad[0]/U0/NET2
  9.534                        proasic_tdi_pad[0]/U0/U0:E (f)
               +     2.814          cell: ADLIB:IOPAD_TRI
  12.348                       proasic_tdi_pad[0]/U0/U0:PAD (f)
               +     0.000          net: proasic_tdi_0[0]
  12.348                       proasic_tdi[0] (f)
                                    
  12.348                       data arrival time
  ________________________________________________________
  Data required time calculation
  N/C                          clocking/Core:GLA
               +     0.000          Clock source
  N/C                          clocking/Core:GLA (r)
               +     4.552          Clock generation
  N/C
                                    
  N/C                          proasic_tdi[0] (f)


END SET Clock to Output

----------------------------------------------------

SET Register to Asynchronous

No Path

END SET Register to Asynchronous

----------------------------------------------------

SET External Recovery

No Path

END SET External Recovery

----------------------------------------------------

SET Asynchronous to Register

No Path

END SET Asynchronous to Register

----------------------------------------------------

Clock Domain clocking/Core:GLB

SET Register to Register

Path 1
  From:                  fc0/state:CLK
  To:                    fc0/counter[1]:D
  Delay (ns):            3.994
  Slack (ns):            -0.324
  Arrival (ns):          9.814
  Required (ns):         9.490
  Setup (ns):            0.496
  Minimum Period (ns):   4.491

Path 2
  From:                  fc0/state:CLK
  To:                    fc1/counter[0]:D
  Delay (ns):            3.856
  Slack (ns):            -0.182
  Arrival (ns):          9.676
  Required (ns):         9.494
  Setup (ns):            0.466
  Minimum Period (ns):   4.349

Path 3
  From:                  fc0/state:CLK
  To:                    fc0/counter[0]:D
  Delay (ns):            3.838
  Slack (ns):            -0.149
  Arrival (ns):          9.658
  Required (ns):         9.509
  Setup (ns):            0.466
  Minimum Period (ns):   4.316

Path 4
  From:                  fc0/state:CLK
  To:                    fc0/counter[3]:D
  Delay (ns):            3.674
  Slack (ns):            -0.003
  Arrival (ns):          9.494
  Required (ns):         9.491
  Setup (ns):            0.496
  Minimum Period (ns):   4.170

Path 5
  From:                  fc0/counter[1]:CLK
  To:                    fc0/counter[3]:D
  Delay (ns):            3.644
  Slack (ns):            0.028
  Arrival (ns):          9.463
  Required (ns):         9.491
  Setup (ns):            0.496
  Minimum Period (ns):   4.139


Expanded Path 1
  From: fc0/state:CLK
  To: fc0/counter[1]:D
  data required time                             9.490
  data arrival time                          -   9.814
  slack                                          -0.324
  ________________________________________________________
  Data arrival time calculation
  0.000                        clocking/Core:GLB
               +     0.000          Clock source
  0.000                        clocking/Core:GLB (r)
               +     5.201          Clock generation
  5.201
               +     0.619          net: GLB
  5.820                        fc0/state:CLK (r)
               +     0.637          cell: ADLIB:DFN1
  6.457                        fc0/state:Q (f)
               +     0.290          net: fc0/state
  6.747                        fc0/state_RNIM29B:A (f)
               +     0.545          cell: ADLIB:NOR2A
  7.292                        fc0/state_RNIM29B:Y (f)
               +     1.814          net: fc0_counter_0_sqmuxa
  9.106                        fc0/counter_RNO[1]:B (f)
               +     0.422          cell: ADLIB:NOR2A
  9.528                        fc0/counter_RNO[1]:Y (r)
               +     0.286          net: fc0/counter_4[1]
  9.814                        fc0/counter[1]:D (r)
                                    
  9.814                        data arrival time
  ________________________________________________________
  Data required time calculation
  4.167                        clocking/Core:GLB
               +     0.000          Clock source
  4.167                        clocking/Core:GLB (r)
               +     5.201          Clock generation
  9.368
               +     0.618          net: GLB
  9.986                        fc0/counter[1]:CLK (r)
               -     0.496          Library setup time: ADLIB:DFN1
  9.490                        fc0/counter[1]:D
                                    
  9.490                        data required time


END SET Register to Register

----------------------------------------------------

SET External Setup

Path 1
  From:                  gbt_clk40
  To:                    fc0/counter[1]:D
  Delay (ns):            5.204
  Slack (ns):
  Arrival (ns):          5.204
  Required (ns):
  Setup (ns):            0.496
  External Setup (ns):   -0.119

Path 2
  From:                  gbt_clk40
  To:                    fc1/counter[0]:D
  Delay (ns):            5.066
  Slack (ns):
  Arrival (ns):          5.066
  Required (ns):
  Setup (ns):            0.466
  External Setup (ns):   -0.261

Path 3
  From:                  gbt_clk40
  To:                    fc0/counter[0]:D
  Delay (ns):            5.048
  Slack (ns):
  Arrival (ns):          5.048
  Required (ns):
  Setup (ns):            0.466
  External Setup (ns):   -0.294

Path 4
  From:                  gbt_clk40
  To:                    fc0/counter[3]:D
  Delay (ns):            4.884
  Slack (ns):
  Arrival (ns):          4.884
  Required (ns):
  Setup (ns):            0.496
  External Setup (ns):   -0.440

Path 5
  From:                  gbt_clk40
  To:                    fc1/counter[3]:D
  Delay (ns):            4.748
  Slack (ns):
  Arrival (ns):          4.748
  Required (ns):
  Setup (ns):            0.496
  External Setup (ns):   -0.539


Expanded Path 1
  From: gbt_clk40
  To: fc0/counter[1]:D
  data required time                             N/C
  data arrival time                          -   5.204
  slack                                          N/C
  ________________________________________________________
  Data arrival time calculation
  0.000                        gbt_clk40 (r)
               +     0.000          net: gbt_clk40
  0.000                        gbt_clk40_pad/U0/U0:PAD (r)
               +     0.875          cell: ADLIB:IOPAD_IN
  0.875                        gbt_clk40_pad/U0/U0:Y (r)
               +     0.000          net: gbt_clk40_pad/U0/NET1
  0.875                        gbt_clk40_pad/U0/U1:YIN (r)
               +     0.037          cell: ADLIB:IOIN_IB
  0.912                        gbt_clk40_pad/U0/U1:Y (r)
               +     1.325          net: gbt_clk40_c
  2.237                        fc0/state_RNIM29B:B (r)
               +     0.445          cell: ADLIB:NOR2A
  2.682                        fc0/state_RNIM29B:Y (f)
               +     1.814          net: fc0_counter_0_sqmuxa
  4.496                        fc0/counter_RNO[1]:B (f)
               +     0.422          cell: ADLIB:NOR2A
  4.918                        fc0/counter_RNO[1]:Y (r)
               +     0.286          net: fc0/counter_4[1]
  5.204                        fc0/counter[1]:D (r)
                                    
  5.204                        data arrival time
  ________________________________________________________
  Data required time calculation
  N/C                          clocking/Core:GLB
               +     0.000          Clock source
  N/C                          clocking/Core:GLB (r)
               +     5.201          Clock generation
  N/C
               +     0.618          net: GLB
  N/C                          fc0/counter[1]:CLK (r)
               -     0.496          Library setup time: ADLIB:DFN1
  N/C                          fc0/counter[1]:D


END SET External Setup

----------------------------------------------------

SET Clock to Output

No Path

END SET Clock to Output

----------------------------------------------------

SET Register to Asynchronous

No Path

END SET Register to Asynchronous

----------------------------------------------------

SET External Recovery

No Path

END SET External Recovery

----------------------------------------------------

SET Asynchronous to Register

No Path

END SET Asynchronous to Register

----------------------------------------------------

Clock Domain gbt_clk40

Info: The maximum frequency of this clock domain is limited by the minimum pulse widths of pin gbt_clk40_pad/U0/U0:PAD

SET Register to Register

No Path

END SET Register to Register

----------------------------------------------------

SET External Setup

No Path

END SET External Setup

----------------------------------------------------

SET Clock to Output

No Path

END SET Clock to Output

----------------------------------------------------

SET Register to Asynchronous

No Path

END SET Register to Asynchronous

----------------------------------------------------

SET External Recovery

No Path

END SET External Recovery

----------------------------------------------------

SET Asynchronous to Register

No Path

END SET Asynchronous to Register

----------------------------------------------------

Clock Domain osc_clk40

Info: The maximum frequency of this clock domain is limited by the minimum pulse widths of pin osc_clk40_pad/U0/U0:PAD

SET Register to Register

No Path

END SET Register to Register

----------------------------------------------------

SET External Setup

No Path

END SET External Setup

----------------------------------------------------

SET Clock to Output

No Path

END SET Clock to Output

----------------------------------------------------

SET Register to Asynchronous

No Path

END SET Register to Asynchronous

----------------------------------------------------

SET External Recovery

No Path

END SET External Recovery

----------------------------------------------------

SET Asynchronous to Register

No Path

END SET Asynchronous to Register

----------------------------------------------------

Path set Pin to Pin

SET Input to Output

No Path

END SET Input to Output

----------------------------------------------------

Path set User Sets

