#-----------------------------------------------------------
# Vivado v2019.2_AR72614 (64-bit)
# SW Build 2708876 on Wed Nov  6 21:39:14 MST 2019
# IP Build 2700528 on Thu Nov  7 00:09:20 MST 2019
# Start of session at: Fri May 29 17:13:46 2020
# Process ID: 1226
# Current directory: /home/pirovaldes/Documents/PostDoc/TileCal/db6/db6_fw/src/sem_ex
# Command line: vivado -notrace -source /home/pirovaldes/Documents/PostDoc/TileCal/db6/db6_fw/src/sem_ex/sem_ex.tcl -jvm -patch-module=java.desktop=/home/pirovaldes/apps/xilinx/Vivado/2019.2/lib/classes/AR72614/AR72614.jar
# Log file: /home/pirovaldes/Documents/PostDoc/TileCal/db6/db6_fw/src/sem_ex/vivado.log
# Journal file: /home/pirovaldes/Documents/PostDoc/TileCal/db6/db6_fw/src/sem_ex/vivado.jou
#-----------------------------------------------------------
start_gui
source /home/pirovaldes/Documents/PostDoc/TileCal/db6/db6_fw/src/sem_ex/sem_ex.tcl -notrace
INFO: [open_example_project] Creating new example project...
INFO: [IP_Flow 19-234] Refreshing IP repositories
INFO: [IP_Flow 19-1704] No user IP repositories specified
INFO: [IP_Flow 19-2313] Loaded Vivado IP repository '/home/pirovaldes/apps/xilinx/Vivado/2019.2/data/ip'.
INFO: [open_example_project] Importing original IP ...
INFO: [open_example_project] Generating the example project IP ...
INFO: [open_example_project] Adding example synthesis HDL files ...
INFO: [open_example_project] Adding example XDC files ...
INFO: [open_example_project] Adding simulation HDL files ...
INFO: [open_example_project] Sourcing example extension scripts ...
sem
INFO: dev, xcku035-fbva676-1-c .
INFO: [filemgmt 56-101] Creating core container '/home/pirovaldes/Documents/PostDoc/TileCal/db6/db6_fw/src/sem_ex/sem_ex.srcs/sources_1/ip/sem_vio_si14.xcix' for IP 'sem_vio_si14'
INFO: [IP_Flow 19-1686] Generating 'Instantiation Template' target for IP 'sem_vio_si14'...
INFO: [IP_Flow 19-1686] Generating 'Synthesis' target for IP 'sem_vio_si14'...
INFO: [IP_Flow 19-1686] Generating 'Simulation' target for IP 'sem_vio_si14'...
INFO: [IP_Flow 19-1686] Generating 'Change Log' target for IP 'sem_vio_si14'...
INFO: Generated Vivado Lab Tools VIO core, sem_vio_si14, for SEM example design.
INFO: [filemgmt 56-101] Creating core container '/home/pirovaldes/Documents/PostDoc/TileCal/db6/db6_fw/src/sem_ex/sem_ex.srcs/sources_1/ip/sem_vio_si1_so41.xcix' for IP 'sem_vio_si1_so41'
INFO: [IP_Flow 19-1686] Generating 'Instantiation Template' target for IP 'sem_vio_si1_so41'...
INFO: [IP_Flow 19-1686] Generating 'Synthesis' target for IP 'sem_vio_si1_so41'...
INFO: [IP_Flow 19-1686] Generating 'Simulation' target for IP 'sem_vio_si1_so41'...
INFO: [IP_Flow 19-1686] Generating 'Change Log' target for IP 'sem_vio_si1_so41'...
INFO: Generated Vivado Lab Tools VIO core, sem_vio_si1_so41, for SEM example design.
INFO: [filemgmt 56-101] Creating core container '/home/pirovaldes/Documents/PostDoc/TileCal/db6/db6_fw/src/sem_ex/sem_ex.srcs/sources_1/ip/sem_vio_si1_so5.xcix' for IP 'sem_vio_si1_so5'
INFO: [IP_Flow 19-1686] Generating 'Instantiation Template' target for IP 'sem_vio_si1_so5'...
INFO: [IP_Flow 19-1686] Generating 'Synthesis' target for IP 'sem_vio_si1_so5'...
INFO: [IP_Flow 19-1686] Generating 'Simulation' target for IP 'sem_vio_si1_so5'...
INFO: [IP_Flow 19-1686] Generating 'Change Log' target for IP 'sem_vio_si1_so5'...
INFO: Generated Vivado Lab Tools VIO core, sem_vio_si1_so5, for SEM example design.
INFO: [open_example_project] Rebuilding all the top level IPs ...
WARNING: [SIM-utils-52] IP component XML file does not exist: '/home/pirovaldes/Documents/PostDoc/TileCal/db6/db6_fw/src/sem_ex/sem_ex.srcs/sources_1/ip/sem/sem.xml'
WARNING: [SIM-utils-52] IP component XML file does not exist: '/home/pirovaldes/Documents/PostDoc/TileCal/db6/db6_fw/src/sem_ex/sem_ex.srcs/sources_1/ip/sem_vio_si14/sem_vio_si14.xml'
WARNING: [SIM-utils-52] IP component XML file does not exist: '/home/pirovaldes/Documents/PostDoc/TileCal/db6/db6_fw/src/sem_ex/sem_ex.srcs/sources_1/ip/sem_vio_si1_so41/sem_vio_si1_so41.xml'
WARNING: [SIM-utils-52] IP component XML file does not exist: '/home/pirovaldes/Documents/PostDoc/TileCal/db6/db6_fw/src/sem_ex/sem_ex.srcs/sources_1/ip/sem_vio_si1_so5/sem_vio_si1_so5.xml'
INFO: [exportsim-Tcl-35] Exporting simulation files for "XSIM" (Xilinx Vivado Simulator)...
INFO: [exportsim-Tcl-29] Script generated: '/home/pirovaldes/Documents/PostDoc/TileCal/db6/db6_fw/src/sem_ex/sem_ex.ip_user_files/sim_scripts/sem_vio_si1_so41/xsim/sem_vio_si1_so41.sh'
INFO: [exportsim-Tcl-35] Exporting simulation files for "MODELSIM" (Mentor Graphics ModelSim Simulator)...
INFO: [exportsim-Tcl-29] Script generated: '/home/pirovaldes/Documents/PostDoc/TileCal/db6/db6_fw/src/sem_ex/sem_ex.ip_user_files/sim_scripts/sem_vio_si1_so41/modelsim/sem_vio_si1_so41.sh'
INFO: [exportsim-Tcl-35] Exporting simulation files for "QUESTA" (Mentor Graphics Questa Advanced Simulator)...
INFO: [exportsim-Tcl-29] Script generated: '/home/pirovaldes/Documents/PostDoc/TileCal/db6/db6_fw/src/sem_ex/sem_ex.ip_user_files/sim_scripts/sem_vio_si1_so41/questa/sem_vio_si1_so41.sh'
INFO: [exportsim-Tcl-35] Exporting simulation files for "IES" (Cadence Incisive Enterprise Simulator)...
INFO: [exportsim-Tcl-29] Script generated: '/home/pirovaldes/Documents/PostDoc/TileCal/db6/db6_fw/src/sem_ex/sem_ex.ip_user_files/sim_scripts/sem_vio_si1_so41/ies/sem_vio_si1_so41.sh'
INFO: [exportsim-Tcl-35] Exporting simulation files for "VCS" (Synopsys Verilog Compiler Simulator)...
INFO: [exportsim-Tcl-29] Script generated: '/home/pirovaldes/Documents/PostDoc/TileCal/db6/db6_fw/src/sem_ex/sem_ex.ip_user_files/sim_scripts/sem_vio_si1_so41/vcs/sem_vio_si1_so41.sh'
INFO: [exportsim-Tcl-35] Exporting simulation files for "RIVIERA" (Aldec Riviera-PRO Simulator)...
INFO: [exportsim-Tcl-29] Script generated: '/home/pirovaldes/Documents/PostDoc/TileCal/db6/db6_fw/src/sem_ex/sem_ex.ip_user_files/sim_scripts/sem_vio_si1_so41/riviera/sem_vio_si1_so41.sh'
INFO: [exportsim-Tcl-35] Exporting simulation files for "ACTIVEHDL" (Aldec Active-HDL Simulator)...
INFO: [exportsim-Tcl-29] Script generated: '/home/pirovaldes/Documents/PostDoc/TileCal/db6/db6_fw/src/sem_ex/sem_ex.ip_user_files/sim_scripts/sem_vio_si1_so41/activehdl/sem_vio_si1_so41.sh'
INFO: [exportsim-Tcl-35] Exporting simulation files for "XCELIUM" (Cadence Xcelium Parallel Simulator)...
INFO: [exportsim-Tcl-29] Script generated: '/home/pirovaldes/Documents/PostDoc/TileCal/db6/db6_fw/src/sem_ex/sem_ex.ip_user_files/sim_scripts/sem_vio_si1_so41/xcelium/sem_vio_si1_so41.sh'
WARNING: [SIM-utils-52] IP component XML file does not exist: '/home/pirovaldes/Documents/PostDoc/TileCal/db6/db6_fw/src/sem_ex/sem_ex.srcs/sources_1/ip/sem/sem.xml'
WARNING: [SIM-utils-52] IP component XML file does not exist: '/home/pirovaldes/Documents/PostDoc/TileCal/db6/db6_fw/src/sem_ex/sem_ex.srcs/sources_1/ip/sem_vio_si14/sem_vio_si14.xml'
WARNING: [SIM-utils-52] IP component XML file does not exist: '/home/pirovaldes/Documents/PostDoc/TileCal/db6/db6_fw/src/sem_ex/sem_ex.srcs/sources_1/ip/sem_vio_si1_so41/sem_vio_si1_so41.xml'
WARNING: [SIM-utils-52] IP component XML file does not exist: '/home/pirovaldes/Documents/PostDoc/TileCal/db6/db6_fw/src/sem_ex/sem_ex.srcs/sources_1/ip/sem_vio_si1_so5/sem_vio_si1_so5.xml'
INFO: [exportsim-Tcl-35] Exporting simulation files for "XSIM" (Xilinx Vivado Simulator)...
INFO: [exportsim-Tcl-29] Script generated: '/home/pirovaldes/Documents/PostDoc/TileCal/db6/db6_fw/src/sem_ex/sem_ex.ip_user_files/sim_scripts/sem_vio_si1_so5/xsim/sem_vio_si1_so5.sh'
INFO: [exportsim-Tcl-35] Exporting simulation files for "MODELSIM" (Mentor Graphics ModelSim Simulator)...
INFO: [exportsim-Tcl-29] Script generated: '/home/pirovaldes/Documents/PostDoc/TileCal/db6/db6_fw/src/sem_ex/sem_ex.ip_user_files/sim_scripts/sem_vio_si1_so5/modelsim/sem_vio_si1_so5.sh'
INFO: [exportsim-Tcl-35] Exporting simulation files for "QUESTA" (Mentor Graphics Questa Advanced Simulator)...
INFO: [exportsim-Tcl-29] Script generated: '/home/pirovaldes/Documents/PostDoc/TileCal/db6/db6_fw/src/sem_ex/sem_ex.ip_user_files/sim_scripts/sem_vio_si1_so5/questa/sem_vio_si1_so5.sh'
INFO: [exportsim-Tcl-35] Exporting simulation files for "IES" (Cadence Incisive Enterprise Simulator)...
INFO: [exportsim-Tcl-29] Script generated: '/home/pirovaldes/Documents/PostDoc/TileCal/db6/db6_fw/src/sem_ex/sem_ex.ip_user_files/sim_scripts/sem_vio_si1_so5/ies/sem_vio_si1_so5.sh'
INFO: [exportsim-Tcl-35] Exporting simulation files for "VCS" (Synopsys Verilog Compiler Simulator)...
INFO: [exportsim-Tcl-29] Script generated: '/home/pirovaldes/Documents/PostDoc/TileCal/db6/db6_fw/src/sem_ex/sem_ex.ip_user_files/sim_scripts/sem_vio_si1_so5/vcs/sem_vio_si1_so5.sh'
INFO: [exportsim-Tcl-35] Exporting simulation files for "RIVIERA" (Aldec Riviera-PRO Simulator)...
INFO: [exportsim-Tcl-29] Script generated: '/home/pirovaldes/Documents/PostDoc/TileCal/db6/db6_fw/src/sem_ex/sem_ex.ip_user_files/sim_scripts/sem_vio_si1_so5/riviera/sem_vio_si1_so5.sh'
INFO: [exportsim-Tcl-35] Exporting simulation files for "ACTIVEHDL" (Aldec Active-HDL Simulator)...
INFO: [exportsim-Tcl-29] Script generated: '/home/pirovaldes/Documents/PostDoc/TileCal/db6/db6_fw/src/sem_ex/sem_ex.ip_user_files/sim_scripts/sem_vio_si1_so5/activehdl/sem_vio_si1_so5.sh'
INFO: [exportsim-Tcl-35] Exporting simulation files for "XCELIUM" (Cadence Xcelium Parallel Simulator)...
INFO: [exportsim-Tcl-29] Script generated: '/home/pirovaldes/Documents/PostDoc/TileCal/db6/db6_fw/src/sem_ex/sem_ex.ip_user_files/sim_scripts/sem_vio_si1_so5/xcelium/sem_vio_si1_so5.sh'
WARNING: [SIM-utils-52] IP component XML file does not exist: '/home/pirovaldes/Documents/PostDoc/TileCal/db6/db6_fw/src/sem_ex/sem_ex.srcs/sources_1/ip/sem/sem.xml'
WARNING: [SIM-utils-52] IP component XML file does not exist: '/home/pirovaldes/Documents/PostDoc/TileCal/db6/db6_fw/src/sem_ex/sem_ex.srcs/sources_1/ip/sem_vio_si14/sem_vio_si14.xml'
WARNING: [SIM-utils-52] IP component XML file does not exist: '/home/pirovaldes/Documents/PostDoc/TileCal/db6/db6_fw/src/sem_ex/sem_ex.srcs/sources_1/ip/sem_vio_si1_so41/sem_vio_si1_so41.xml'
WARNING: [SIM-utils-52] IP component XML file does not exist: '/home/pirovaldes/Documents/PostDoc/TileCal/db6/db6_fw/src/sem_ex/sem_ex.srcs/sources_1/ip/sem_vio_si1_so5/sem_vio_si1_so5.xml'
INFO: [exportsim-Tcl-35] Exporting simulation files for "XSIM" (Xilinx Vivado Simulator)...
INFO: [exportsim-Tcl-29] Script generated: '/home/pirovaldes/Documents/PostDoc/TileCal/db6/db6_fw/src/sem_ex/sem_ex.ip_user_files/sim_scripts/sem_vio_si14/xsim/sem_vio_si14.sh'
INFO: [exportsim-Tcl-35] Exporting simulation files for "MODELSIM" (Mentor Graphics ModelSim Simulator)...
INFO: [exportsim-Tcl-29] Script generated: '/home/pirovaldes/Documents/PostDoc/TileCal/db6/db6_fw/src/sem_ex/sem_ex.ip_user_files/sim_scripts/sem_vio_si14/modelsim/sem_vio_si14.sh'
INFO: [exportsim-Tcl-35] Exporting simulation files for "QUESTA" (Mentor Graphics Questa Advanced Simulator)...
INFO: [exportsim-Tcl-29] Script generated: '/home/pirovaldes/Documents/PostDoc/TileCal/db6/db6_fw/src/sem_ex/sem_ex.ip_user_files/sim_scripts/sem_vio_si14/questa/sem_vio_si14.sh'
INFO: [exportsim-Tcl-35] Exporting simulation files for "IES" (Cadence Incisive Enterprise Simulator)...
INFO: [exportsim-Tcl-29] Script generated: '/home/pirovaldes/Documents/PostDoc/TileCal/db6/db6_fw/src/sem_ex/sem_ex.ip_user_files/sim_scripts/sem_vio_si14/ies/sem_vio_si14.sh'
INFO: [exportsim-Tcl-35] Exporting simulation files for "VCS" (Synopsys Verilog Compiler Simulator)...
INFO: [exportsim-Tcl-29] Script generated: '/home/pirovaldes/Documents/PostDoc/TileCal/db6/db6_fw/src/sem_ex/sem_ex.ip_user_files/sim_scripts/sem_vio_si14/vcs/sem_vio_si14.sh'
INFO: [exportsim-Tcl-35] Exporting simulation files for "RIVIERA" (Aldec Riviera-PRO Simulator)...
INFO: [exportsim-Tcl-29] Script generated: '/home/pirovaldes/Documents/PostDoc/TileCal/db6/db6_fw/src/sem_ex/sem_ex.ip_user_files/sim_scripts/sem_vio_si14/riviera/sem_vio_si14.sh'
INFO: [exportsim-Tcl-35] Exporting simulation files for "ACTIVEHDL" (Aldec Active-HDL Simulator)...
INFO: [exportsim-Tcl-29] Script generated: '/home/pirovaldes/Documents/PostDoc/TileCal/db6/db6_fw/src/sem_ex/sem_ex.ip_user_files/sim_scripts/sem_vio_si14/activehdl/sem_vio_si14.sh'
INFO: [exportsim-Tcl-35] Exporting simulation files for "XCELIUM" (Cadence Xcelium Parallel Simulator)...
INFO: [exportsim-Tcl-29] Script generated: '/home/pirovaldes/Documents/PostDoc/TileCal/db6/db6_fw/src/sem_ex/sem_ex.ip_user_files/sim_scripts/sem_vio_si14/xcelium/sem_vio_si14.sh'
WARNING: [SIM-utils-52] IP component XML file does not exist: '/home/pirovaldes/Documents/PostDoc/TileCal/db6/db6_fw/src/sem_ex/sem_ex.srcs/sources_1/ip/sem/sem.xml'
WARNING: [SIM-utils-52] IP component XML file does not exist: '/home/pirovaldes/Documents/PostDoc/TileCal/db6/db6_fw/src/sem_ex/sem_ex.srcs/sources_1/ip/sem_vio_si14/sem_vio_si14.xml'
WARNING: [SIM-utils-52] IP component XML file does not exist: '/home/pirovaldes/Documents/PostDoc/TileCal/db6/db6_fw/src/sem_ex/sem_ex.srcs/sources_1/ip/sem_vio_si1_so41/sem_vio_si1_so41.xml'
WARNING: [SIM-utils-52] IP component XML file does not exist: '/home/pirovaldes/Documents/PostDoc/TileCal/db6/db6_fw/src/sem_ex/sem_ex.srcs/sources_1/ip/sem_vio_si1_so5/sem_vio_si1_so5.xml'
INFO: [exportsim-Tcl-35] Exporting simulation files for "XSIM" (Xilinx Vivado Simulator)...
INFO: [exportsim-Tcl-29] Script generated: '/home/pirovaldes/Documents/PostDoc/TileCal/db6/db6_fw/src/sem_ex/sem_ex.ip_user_files/sim_scripts/sem/xsim/sem.sh'
INFO: [exportsim-Tcl-35] Exporting simulation files for "MODELSIM" (Mentor Graphics ModelSim Simulator)...
INFO: [exportsim-Tcl-29] Script generated: '/home/pirovaldes/Documents/PostDoc/TileCal/db6/db6_fw/src/sem_ex/sem_ex.ip_user_files/sim_scripts/sem/modelsim/sem.sh'
INFO: [exportsim-Tcl-35] Exporting simulation files for "QUESTA" (Mentor Graphics Questa Advanced Simulator)...
INFO: [exportsim-Tcl-29] Script generated: '/home/pirovaldes/Documents/PostDoc/TileCal/db6/db6_fw/src/sem_ex/sem_ex.ip_user_files/sim_scripts/sem/questa/sem.sh'
INFO: [exportsim-Tcl-35] Exporting simulation files for "IES" (Cadence Incisive Enterprise Simulator)...
INFO: [exportsim-Tcl-29] Script generated: '/home/pirovaldes/Documents/PostDoc/TileCal/db6/db6_fw/src/sem_ex/sem_ex.ip_user_files/sim_scripts/sem/ies/sem.sh'
INFO: [exportsim-Tcl-35] Exporting simulation files for "VCS" (Synopsys Verilog Compiler Simulator)...
INFO: [exportsim-Tcl-29] Script generated: '/home/pirovaldes/Documents/PostDoc/TileCal/db6/db6_fw/src/sem_ex/sem_ex.ip_user_files/sim_scripts/sem/vcs/sem.sh'
INFO: [exportsim-Tcl-35] Exporting simulation files for "RIVIERA" (Aldec Riviera-PRO Simulator)...
INFO: [exportsim-Tcl-29] Script generated: '/home/pirovaldes/Documents/PostDoc/TileCal/db6/db6_fw/src/sem_ex/sem_ex.ip_user_files/sim_scripts/sem/riviera/sem.sh'
INFO: [exportsim-Tcl-35] Exporting simulation files for "ACTIVEHDL" (Aldec Active-HDL Simulator)...
INFO: [exportsim-Tcl-29] Script generated: '/home/pirovaldes/Documents/PostDoc/TileCal/db6/db6_fw/src/sem_ex/sem_ex.ip_user_files/sim_scripts/sem/activehdl/sem.sh'
INFO: [exportsim-Tcl-35] Exporting simulation files for "XCELIUM" (Cadence Xcelium Parallel Simulator)...
INFO: [exportsim-Tcl-29] Script generated: '/home/pirovaldes/Documents/PostDoc/TileCal/db6/db6_fw/src/sem_ex/sem_ex.ip_user_files/sim_scripts/sem/xcelium/sem.sh'
export_ip_user_files: Time (s): cpu = 00:00:11 ; elapsed = 00:00:07 . Memory (MB): peak = 6849.625 ; gain = 0.000 ; free physical = 3356 ; free virtual = 46270
INFO: [open_example_project] Open Example Project completed
update_compile_order -fileset sources_1
exit
INFO: [Common 17-206] Exiting Vivado at Fri May 29 17:17:04 2020...
