Copyright 1986-2020 Xilinx, Inc. All Rights Reserved.
---------------------------------------------------------------------------------------------------------------
| Tool Version : Vivado v.2020.2 (win64) Build 3064766 Wed Nov 18 09:12:45 MST 2020
| Date         : Fri Apr 23 17:48:16 2021
| Host         : Piro-Office-PC running 64-bit major release  (build 9200)
| Command      : report_drc -file db6_top_drc_routed.rpt -pb db6_top_drc_routed.pb -rpx db6_top_drc_routed.rpx
| Design       : db6_top
| Device       : xcku035-fbva676-1-c
| Speed File   : -1
| Design State : Fully Routed
---------------------------------------------------------------------------------------------------------------

Report DRC

Table of Contents
-----------------
1. REPORT SUMMARY
2. REPORT DETAILS

1. REPORT SUMMARY
-----------------
            Netlist: netlist
          Floorplan: design_1
      Design limits: <entire design considered>
           Ruledeck: default
             Max violations: <unlimited>
             Violations found: 41
+-------------+----------+---------------------------------------------------------------------+------------+
| Rule        | Severity | Description                                                         | Violations |
+-------------+----------+---------------------------------------------------------------------+------------+
| PDRC-153    | Warning  | Gated clock check                                                   | 8          |
| PLHOLDVIO-2 | Warning  | Non-Optimal connections which could lead to hold violations         | 4          |
| REQP-1751   | Warning  | connects_GTGREFCLK_ACTIVE                                           | 2          |
| REQP-1753   | Warning  | connects_GTGREFCLK_ACTIVE                                           | 6          |
| REQP-1852   | Warning  | BUFGCE_cascade_from_clock_buf                                       | 1          |
| REQP-1877   | Warning  | BUFGCE_has_no_loads                                                 | 6          |
| RPBF-3      | Warning  | IO port buffering is incomplete                                     | 3          |
| RTSTAT-10   | Warning  | No routable loads                                                   | 1          |
| AVAL-155    | Advisory | enum_AMULTSEL_BMULTSEL_enum_DREG_ADREG_0_connects_CED_CEAD_RSTD_GND | 1          |
| AVAL-156    | Advisory | enum_USE_MULT_NONE__enum_DREG_ADREG_0_connects_CED_CEAD_RSTD_GND    | 8          |
| REQP-1681   | Advisory | with_OPMODE_USE_MULT_NONE                                           | 1          |
+-------------+----------+---------------------------------------------------------------------+------------+

2. REPORT DETAILS
-----------------
PDRC-153#1 Warning
Gated clock check  
Net i_db6_clock_interface/s_clknet_out[clk160] is a gated clock net sourced by a combinational pin i_db6_clock_interface/i_db6_clock_interfacei_46/O, cell i_db6_clock_interface/i_db6_clock_interfacei_46. This is not good design practice and will likely impact performance. For SLICE registers, for example, use the CE pin to control the loading of data.
Related violations: <none>

PDRC-153#2 Warning
Gated clock check  
Net i_db6_sfp_interface/i_db6_gbt_gth_interface/s_db6_gbt_bank[gbt_txframeclk_i][0] is a gated clock net sourced by a combinational pin i_db6_sfp_interface/i_db6_gbt_gth_interface/s_db6_gbt_bank[gbt_txframeclk_i]_inst__1/O, cell i_db6_sfp_interface/i_db6_gbt_gth_interface/s_db6_gbt_bank[gbt_txframeclk_i]_inst__1. This is not good design practice and will likely impact performance. For SLICE registers, for example, use the CE pin to control the loading of data.
Related violations: <none>

PDRC-153#3 Warning
Gated clock check  
Net i_db6_sfp_interface/i_db6_gbt_gth_interface/s_db6_gbt_bank[gbt_txframeclk_i][1] is a gated clock net sourced by a combinational pin i_db6_sfp_interface/i_db6_gbt_gth_interface/s_db6_gbt_bank[gbt_txframeclk_i]_inst__0/O, cell i_db6_sfp_interface/i_db6_gbt_gth_interface/s_db6_gbt_bank[gbt_txframeclk_i]_inst__0. This is not good design practice and will likely impact performance. For SLICE registers, for example, use the CE pin to control the loading of data.
Related violations: <none>

PDRC-153#4 Warning
Gated clock check  
Net i_db6_sfp_interface/i_db6_gbt_gth_interface/s_db6_gbt_bank[gbt_txframeclk_i][2] is a gated clock net sourced by a combinational pin i_db6_sfp_interface/i_db6_gbt_gth_interface/s_db6_gbt_bank[gbt_txframeclk_i]_inst/O, cell i_db6_sfp_interface/i_db6_gbt_gth_interface/s_db6_gbt_bank[gbt_txframeclk_i]_inst. This is not good design practice and will likely impact performance. For SLICE registers, for example, use the CE pin to control the loading of data.
Related violations: <none>

PDRC-153#5 Warning
Gated clock check  
Net i_db6_sfp_interface/i_db6_gbt_gth_interface/s_db6_gbt_bank[mgt_devspecific_i][drp_clk][1] is a gated clock net sourced by a combinational pin i_db6_sfp_interface/i_db6_gbt_gth_interface/i_155/O, cell i_db6_sfp_interface/i_db6_gbt_gth_interface/i_155. This is not good design practice and will likely impact performance. For SLICE registers, for example, use the CE pin to control the loading of data.
Related violations: <none>

PDRC-153#6 Warning
Gated clock check  
Net i_db6_sfp_interface/i_db6_gbt_gth_interface/s_db6_gbt_bank[mgt_devspecific_i][drp_clk][2] is a gated clock net sourced by a combinational pin i_db6_sfp_interface/i_db6_gbt_gth_interface/i_156/O, cell i_db6_sfp_interface/i_db6_gbt_gth_interface/i_156. This is not good design practice and will likely impact performance. For SLICE registers, for example, use the CE pin to control the loading of data.
Related violations: <none>

PDRC-153#7 Warning
Gated clock check  
Net i_db6_sfp_interface/i_db6_gbt_gth_interface/s_db6_gbt_bank[mgt_devspecific_i][drp_clk][3] is a gated clock net sourced by a combinational pin i_db6_sfp_interface/i_db6_gbt_gth_interface/i_157/O, cell i_db6_sfp_interface/i_db6_gbt_gth_interface/i_157. This is not good design practice and will likely impact performance. For SLICE registers, for example, use the CE pin to control the loading of data.
Related violations: <none>

PDRC-153#8 Warning
Gated clock check  
Net i_db6_sfp_interface/i_db6_gbt_gth_interface/s_db6_gbt_bank[mgt_devspecific_i][reset_freeRunningClock][1] is a gated clock net sourced by a combinational pin i_db6_sfp_interface/i_db6_gbt_gth_interface/i_31/O, cell i_db6_sfp_interface/i_db6_gbt_gth_interface/i_31. This is not good design practice and will likely impact performance. For SLICE registers, for example, use the CE pin to control the loading of data.
Related violations: <none>

PLHOLDVIO-2#1 Warning
Non-Optimal connections which could lead to hold violations  
A LUT i_db6_sfp_interface/i_db6_gbt_gth_interface/i_31 is driving clock pin of 232 cells. This could lead to large hold time violations. Involved cells are:
i_db6_sfp_interface/i_db6_gbt_gth_interface/i_db6_gbt_bank/mgt_inst/FSM_onehot_gtxLatOpt_gen[1].rstBitSlip_FSM_reg[1][0],
i_db6_sfp_interface/i_db6_gbt_gth_interface/i_db6_gbt_bank/mgt_inst/FSM_onehot_gtxLatOpt_gen[1].rstBitSlip_FSM_reg[1][1],
i_db6_sfp_interface/i_db6_gbt_gth_interface/i_db6_gbt_bank/mgt_inst/FSM_onehot_gtxLatOpt_gen[1].rstBitSlip_FSM_reg[1][2],
i_db6_sfp_interface/i_db6_gbt_gth_interface/i_db6_gbt_bank/mgt_inst/gtxLatOpt_gen[1]._bitslipResetFSM_proc.timer_reg[0],
i_db6_sfp_interface/i_db6_gbt_gth_interface/i_db6_gbt_bank/mgt_inst/gtxLatOpt_gen[1]._bitslipResetFSM_proc.timer_reg[10],
i_db6_sfp_interface/i_db6_gbt_gth_interface/i_db6_gbt_bank/mgt_inst/gtxLatOpt_gen[1]._bitslipResetFSM_proc.timer_reg[11],
i_db6_sfp_interface/i_db6_gbt_gth_interface/i_db6_gbt_bank/mgt_inst/gtxLatOpt_gen[1]._bitslipResetFSM_proc.timer_reg[12],
i_db6_sfp_interface/i_db6_gbt_gth_interface/i_db6_gbt_bank/mgt_inst/gtxLatOpt_gen[1]._bitslipResetFSM_proc.timer_reg[13],
i_db6_sfp_interface/i_db6_gbt_gth_interface/i_db6_gbt_bank/mgt_inst/gtxLatOpt_gen[1]._bitslipResetFSM_proc.timer_reg[14],
i_db6_sfp_interface/i_db6_gbt_gth_interface/i_db6_gbt_bank/mgt_inst/gtxLatOpt_gen[1]._bitslipResetFSM_proc.timer_reg[15],
i_db6_sfp_interface/i_db6_gbt_gth_interface/i_db6_gbt_bank/mgt_inst/gtxLatOpt_gen[1]._bitslipResetFSM_proc.timer_reg[16],
i_db6_sfp_interface/i_db6_gbt_gth_interface/i_db6_gbt_bank/mgt_inst/gtxLatOpt_gen[1]._bitslipResetFSM_proc.timer_reg[17],
i_db6_sfp_interface/i_db6_gbt_gth_interface/i_db6_gbt_bank/mgt_inst/gtxLatOpt_gen[1]._bitslipResetFSM_proc.timer_reg[1],
i_db6_sfp_interface/i_db6_gbt_gth_interface/i_db6_gbt_bank/mgt_inst/gtxLatOpt_gen[1]._bitslipResetFSM_proc.timer_reg[2],
i_db6_sfp_interface/i_db6_gbt_gth_interface/i_db6_gbt_bank/mgt_inst/gtxLatOpt_gen[1]._bitslipResetFSM_proc.timer_reg[3]
 (the first 15 of 232 listed)
Related violations: <none>

PLHOLDVIO-2#2 Warning
Non-Optimal connections which could lead to hold violations  
A LUT i_db6_sfp_interface/i_db6_gbt_gth_interface/s_db6_gbt_bank[gbt_txframeclk_i]_inst is driving clock pin of 120 cells. This could lead to large hold time violations. Involved cells are:
i_db6_sfp_interface/i_db6_gbt_gth_interface/i_db6_gbt_bank/gbt_txdatapath_multilink_gen[1].gbt_txdatapath_inst/scrambler/TX_HEADER_O_reg[0],
i_db6_sfp_interface/i_db6_gbt_gth_interface/i_db6_gbt_bank/gbt_txdatapath_multilink_gen[1].gbt_txdatapath_inst/scrambler/TX_HEADER_O_reg[1],
i_db6_sfp_interface/i_db6_gbt_gth_interface/i_db6_gbt_bank/gbt_txdatapath_multilink_gen[1].gbt_txdatapath_inst/scrambler/TX_HEADER_O_reg[2],
i_db6_sfp_interface/i_db6_gbt_gth_interface/i_db6_gbt_bank/gbt_txdatapath_multilink_gen[1].gbt_txdatapath_inst/scrambler/gbtTxScrambler84bit_gen[0].gbtTxScrambler21bit/feedbackRegister_reg[0],
i_db6_sfp_interface/i_db6_gbt_gth_interface/i_db6_gbt_bank/gbt_txdatapath_multilink_gen[1].gbt_txdatapath_inst/scrambler/gbtTxScrambler84bit_gen[0].gbtTxScrambler21bit/feedbackRegister_reg[10],
i_db6_sfp_interface/i_db6_gbt_gth_interface/i_db6_gbt_bank/gbt_txdatapath_multilink_gen[1].gbt_txdatapath_inst/scrambler/gbtTxScrambler84bit_gen[0].gbtTxScrambler21bit/feedbackRegister_reg[11],
i_db6_sfp_interface/i_db6_gbt_gth_interface/i_db6_gbt_bank/gbt_txdatapath_multilink_gen[1].gbt_txdatapath_inst/scrambler/gbtTxScrambler84bit_gen[0].gbtTxScrambler21bit/feedbackRegister_reg[12],
i_db6_sfp_interface/i_db6_gbt_gth_interface/i_db6_gbt_bank/gbt_txdatapath_multilink_gen[1].gbt_txdatapath_inst/scrambler/gbtTxScrambler84bit_gen[0].gbtTxScrambler21bit/feedbackRegister_reg[13],
i_db6_sfp_interface/i_db6_gbt_gth_interface/i_db6_gbt_bank/gbt_txdatapath_multilink_gen[1].gbt_txdatapath_inst/scrambler/gbtTxScrambler84bit_gen[0].gbtTxScrambler21bit/feedbackRegister_reg[14],
i_db6_sfp_interface/i_db6_gbt_gth_interface/i_db6_gbt_bank/gbt_txdatapath_multilink_gen[1].gbt_txdatapath_inst/scrambler/gbtTxScrambler84bit_gen[0].gbtTxScrambler21bit/feedbackRegister_reg[15],
i_db6_sfp_interface/i_db6_gbt_gth_interface/i_db6_gbt_bank/gbt_txdatapath_multilink_gen[1].gbt_txdatapath_inst/scrambler/gbtTxScrambler84bit_gen[0].gbtTxScrambler21bit/feedbackRegister_reg[16],
i_db6_sfp_interface/i_db6_gbt_gth_interface/i_db6_gbt_bank/gbt_txdatapath_multilink_gen[1].gbt_txdatapath_inst/scrambler/gbtTxScrambler84bit_gen[0].gbtTxScrambler21bit/feedbackRegister_reg[17],
i_db6_sfp_interface/i_db6_gbt_gth_interface/i_db6_gbt_bank/gbt_txdatapath_multilink_gen[1].gbt_txdatapath_inst/scrambler/gbtTxScrambler84bit_gen[0].gbtTxScrambler21bit/feedbackRegister_reg[18],
i_db6_sfp_interface/i_db6_gbt_gth_interface/i_db6_gbt_bank/gbt_txdatapath_multilink_gen[1].gbt_txdatapath_inst/scrambler/gbtTxScrambler84bit_gen[0].gbtTxScrambler21bit/feedbackRegister_reg[19],
i_db6_sfp_interface/i_db6_gbt_gth_interface/i_db6_gbt_bank/gbt_txdatapath_multilink_gen[1].gbt_txdatapath_inst/scrambler/gbtTxScrambler84bit_gen[0].gbtTxScrambler21bit/feedbackRegister_reg[1]
 (the first 15 of 120 listed)
Related violations: <none>

PLHOLDVIO-2#3 Warning
Non-Optimal connections which could lead to hold violations  
A LUT i_db6_sfp_interface/i_db6_gbt_gth_interface/s_db6_gbt_bank[gbt_txframeclk_i]_inst__0 is driving clock pin of 120 cells. This could lead to large hold time violations. Involved cells are:
i_db6_sfp_interface/i_db6_gbt_gth_interface/i_db6_gbt_bank/gbt_txdatapath_multilink_gen[2].gbt_txdatapath_inst/scrambler/TX_HEADER_O_reg[0],
i_db6_sfp_interface/i_db6_gbt_gth_interface/i_db6_gbt_bank/gbt_txdatapath_multilink_gen[2].gbt_txdatapath_inst/scrambler/TX_HEADER_O_reg[1],
i_db6_sfp_interface/i_db6_gbt_gth_interface/i_db6_gbt_bank/gbt_txdatapath_multilink_gen[2].gbt_txdatapath_inst/scrambler/TX_HEADER_O_reg[2],
i_db6_sfp_interface/i_db6_gbt_gth_interface/i_db6_gbt_bank/gbt_txdatapath_multilink_gen[2].gbt_txdatapath_inst/scrambler/gbtTxScrambler84bit_gen[0].gbtTxScrambler21bit/feedbackRegister_reg[0],
i_db6_sfp_interface/i_db6_gbt_gth_interface/i_db6_gbt_bank/gbt_txdatapath_multilink_gen[2].gbt_txdatapath_inst/scrambler/gbtTxScrambler84bit_gen[0].gbtTxScrambler21bit/feedbackRegister_reg[10],
i_db6_sfp_interface/i_db6_gbt_gth_interface/i_db6_gbt_bank/gbt_txdatapath_multilink_gen[2].gbt_txdatapath_inst/scrambler/gbtTxScrambler84bit_gen[0].gbtTxScrambler21bit/feedbackRegister_reg[11],
i_db6_sfp_interface/i_db6_gbt_gth_interface/i_db6_gbt_bank/gbt_txdatapath_multilink_gen[2].gbt_txdatapath_inst/scrambler/gbtTxScrambler84bit_gen[0].gbtTxScrambler21bit/feedbackRegister_reg[12],
i_db6_sfp_interface/i_db6_gbt_gth_interface/i_db6_gbt_bank/gbt_txdatapath_multilink_gen[2].gbt_txdatapath_inst/scrambler/gbtTxScrambler84bit_gen[0].gbtTxScrambler21bit/feedbackRegister_reg[13],
i_db6_sfp_interface/i_db6_gbt_gth_interface/i_db6_gbt_bank/gbt_txdatapath_multilink_gen[2].gbt_txdatapath_inst/scrambler/gbtTxScrambler84bit_gen[0].gbtTxScrambler21bit/feedbackRegister_reg[14],
i_db6_sfp_interface/i_db6_gbt_gth_interface/i_db6_gbt_bank/gbt_txdatapath_multilink_gen[2].gbt_txdatapath_inst/scrambler/gbtTxScrambler84bit_gen[0].gbtTxScrambler21bit/feedbackRegister_reg[15],
i_db6_sfp_interface/i_db6_gbt_gth_interface/i_db6_gbt_bank/gbt_txdatapath_multilink_gen[2].gbt_txdatapath_inst/scrambler/gbtTxScrambler84bit_gen[0].gbtTxScrambler21bit/feedbackRegister_reg[16],
i_db6_sfp_interface/i_db6_gbt_gth_interface/i_db6_gbt_bank/gbt_txdatapath_multilink_gen[2].gbt_txdatapath_inst/scrambler/gbtTxScrambler84bit_gen[0].gbtTxScrambler21bit/feedbackRegister_reg[17],
i_db6_sfp_interface/i_db6_gbt_gth_interface/i_db6_gbt_bank/gbt_txdatapath_multilink_gen[2].gbt_txdatapath_inst/scrambler/gbtTxScrambler84bit_gen[0].gbtTxScrambler21bit/feedbackRegister_reg[18],
i_db6_sfp_interface/i_db6_gbt_gth_interface/i_db6_gbt_bank/gbt_txdatapath_multilink_gen[2].gbt_txdatapath_inst/scrambler/gbtTxScrambler84bit_gen[0].gbtTxScrambler21bit/feedbackRegister_reg[19],
i_db6_sfp_interface/i_db6_gbt_gth_interface/i_db6_gbt_bank/gbt_txdatapath_multilink_gen[2].gbt_txdatapath_inst/scrambler/gbtTxScrambler84bit_gen[0].gbtTxScrambler21bit/feedbackRegister_reg[1]
 (the first 15 of 120 listed)
Related violations: <none>

PLHOLDVIO-2#4 Warning
Non-Optimal connections which could lead to hold violations  
A LUT i_db6_sfp_interface/i_db6_gbt_gth_interface/s_db6_gbt_bank[gbt_txframeclk_i]_inst__1 is driving clock pin of 120 cells. This could lead to large hold time violations. Involved cells are:
i_db6_sfp_interface/i_db6_gbt_gth_interface/i_db6_gbt_bank/gbt_txdatapath_multilink_gen[3].gbt_txdatapath_inst/scrambler/TX_HEADER_O_reg[0],
i_db6_sfp_interface/i_db6_gbt_gth_interface/i_db6_gbt_bank/gbt_txdatapath_multilink_gen[3].gbt_txdatapath_inst/scrambler/TX_HEADER_O_reg[1],
i_db6_sfp_interface/i_db6_gbt_gth_interface/i_db6_gbt_bank/gbt_txdatapath_multilink_gen[3].gbt_txdatapath_inst/scrambler/TX_HEADER_O_reg[2],
i_db6_sfp_interface/i_db6_gbt_gth_interface/i_db6_gbt_bank/gbt_txdatapath_multilink_gen[3].gbt_txdatapath_inst/scrambler/gbtTxScrambler84bit_gen[0].gbtTxScrambler21bit/feedbackRegister_reg[0],
i_db6_sfp_interface/i_db6_gbt_gth_interface/i_db6_gbt_bank/gbt_txdatapath_multilink_gen[3].gbt_txdatapath_inst/scrambler/gbtTxScrambler84bit_gen[0].gbtTxScrambler21bit/feedbackRegister_reg[10],
i_db6_sfp_interface/i_db6_gbt_gth_interface/i_db6_gbt_bank/gbt_txdatapath_multilink_gen[3].gbt_txdatapath_inst/scrambler/gbtTxScrambler84bit_gen[0].gbtTxScrambler21bit/feedbackRegister_reg[11],
i_db6_sfp_interface/i_db6_gbt_gth_interface/i_db6_gbt_bank/gbt_txdatapath_multilink_gen[3].gbt_txdatapath_inst/scrambler/gbtTxScrambler84bit_gen[0].gbtTxScrambler21bit/feedbackRegister_reg[12],
i_db6_sfp_interface/i_db6_gbt_gth_interface/i_db6_gbt_bank/gbt_txdatapath_multilink_gen[3].gbt_txdatapath_inst/scrambler/gbtTxScrambler84bit_gen[0].gbtTxScrambler21bit/feedbackRegister_reg[13],
i_db6_sfp_interface/i_db6_gbt_gth_interface/i_db6_gbt_bank/gbt_txdatapath_multilink_gen[3].gbt_txdatapath_inst/scrambler/gbtTxScrambler84bit_gen[0].gbtTxScrambler21bit/feedbackRegister_reg[14],
i_db6_sfp_interface/i_db6_gbt_gth_interface/i_db6_gbt_bank/gbt_txdatapath_multilink_gen[3].gbt_txdatapath_inst/scrambler/gbtTxScrambler84bit_gen[0].gbtTxScrambler21bit/feedbackRegister_reg[15],
i_db6_sfp_interface/i_db6_gbt_gth_interface/i_db6_gbt_bank/gbt_txdatapath_multilink_gen[3].gbt_txdatapath_inst/scrambler/gbtTxScrambler84bit_gen[0].gbtTxScrambler21bit/feedbackRegister_reg[16],
i_db6_sfp_interface/i_db6_gbt_gth_interface/i_db6_gbt_bank/gbt_txdatapath_multilink_gen[3].gbt_txdatapath_inst/scrambler/gbtTxScrambler84bit_gen[0].gbtTxScrambler21bit/feedbackRegister_reg[17],
i_db6_sfp_interface/i_db6_gbt_gth_interface/i_db6_gbt_bank/gbt_txdatapath_multilink_gen[3].gbt_txdatapath_inst/scrambler/gbtTxScrambler84bit_gen[0].gbtTxScrambler21bit/feedbackRegister_reg[18],
i_db6_sfp_interface/i_db6_gbt_gth_interface/i_db6_gbt_bank/gbt_txdatapath_multilink_gen[3].gbt_txdatapath_inst/scrambler/gbtTxScrambler84bit_gen[0].gbtTxScrambler21bit/feedbackRegister_reg[19],
i_db6_sfp_interface/i_db6_gbt_gth_interface/i_db6_gbt_bank/gbt_txdatapath_multilink_gen[3].gbt_txdatapath_inst/scrambler/gbtTxScrambler84bit_gen[0].gbtTxScrambler21bit/feedbackRegister_reg[1]
 (the first 15 of 120 listed)
Related violations: <none>

REQP-1751#1 Warning
connects_GTGREFCLK_ACTIVE  
GTHE3_COMMON cell i_db6_commbus_interface/i_db6_commbus_mgt_interface/i_xlx_ku_mgt_commbus/inst/gen_gtwizard_gthe3_top.xlx_ku_mgt_commbus_gtwizard_gthe3_inst/gen_gtwizard_gthe3.gen_common.gen_common_container[1].gen_enabled_common.gthe3_common_wrapper_inst/common_inst/gthe3_common_gen.GTHE3_COMMON_PRIM_INST: Use of the GTGREFCLK is reserved for test purposes only. This has the lowest performance of the available clocking methods and can degrade transceiver performance. Note that GTGREFCLK use may be caused by driving a REFCLK with a BUFG.
Related violations: <none>

REQP-1751#2 Warning
connects_GTGREFCLK_ACTIVE  
GTHE3_COMMON cell i_db6_sfp_interface/i_db6_gbt_gth_interface/i_db6_gbt_bank/mgt_inst/xlx_ku_mgt_std_i/inst/gen_gtwizard_gthe3_top.xlx_ku_mgt_ip_gtwizard_gthe3_inst/gen_gtwizard_gthe3.gen_common.gen_common_container[0].gen_enabled_common.gthe3_common_wrapper_inst/common_inst/gthe3_common_gen.GTHE3_COMMON_PRIM_INST: Use of the GTGREFCLK is reserved for test purposes only. This has the lowest performance of the available clocking methods and can degrade transceiver performance. Note that GTGREFCLK use may be caused by driving a REFCLK with a BUFG.
Related violations: <none>

REQP-1753#1 Warning
connects_GTGREFCLK_ACTIVE  
GTHE3_CHANNEL cell i_db6_commbus_interface/i_db6_commbus_mgt_interface/i_xlx_ku_mgt_commbus/inst/gen_gtwizard_gthe3_top.xlx_ku_mgt_commbus_gtwizard_gthe3_inst/gen_gtwizard_gthe3.gen_channel_container[1].gen_enabled_channel.gthe3_channel_wrapper_inst/channel_inst/gthe3_channel_gen.gen_gthe3_channel_inst[0].GTHE3_CHANNEL_PRIM_INST: Use of the GTGREFCLK is reserved for test purposes only. This has the lowest performance of the available clocking methods and can degrade transceiver performance. Note that GTGREFCLK use may be caused by driving a REFCLK with a BUFG.
Related violations: <none>

REQP-1753#2 Warning
connects_GTGREFCLK_ACTIVE  
GTHE3_CHANNEL cell i_db6_commbus_interface/i_db6_commbus_mgt_interface/i_xlx_ku_mgt_commbus/inst/gen_gtwizard_gthe3_top.xlx_ku_mgt_commbus_gtwizard_gthe3_inst/gen_gtwizard_gthe3.gen_channel_container[1].gen_enabled_channel.gthe3_channel_wrapper_inst/channel_inst/gthe3_channel_gen.gen_gthe3_channel_inst[1].GTHE3_CHANNEL_PRIM_INST: Use of the GTGREFCLK is reserved for test purposes only. This has the lowest performance of the available clocking methods and can degrade transceiver performance. Note that GTGREFCLK use may be caused by driving a REFCLK with a BUFG.
Related violations: <none>

REQP-1753#3 Warning
connects_GTGREFCLK_ACTIVE  
GTHE3_CHANNEL cell i_db6_commbus_interface/i_db6_commbus_mgt_interface/i_xlx_ku_mgt_commbus/inst/gen_gtwizard_gthe3_top.xlx_ku_mgt_commbus_gtwizard_gthe3_inst/gen_gtwizard_gthe3.gen_channel_container[1].gen_enabled_channel.gthe3_channel_wrapper_inst/channel_inst/gthe3_channel_gen.gen_gthe3_channel_inst[2].GTHE3_CHANNEL_PRIM_INST: Use of the GTGREFCLK is reserved for test purposes only. This has the lowest performance of the available clocking methods and can degrade transceiver performance. Note that GTGREFCLK use may be caused by driving a REFCLK with a BUFG.
Related violations: <none>

REQP-1753#4 Warning
connects_GTGREFCLK_ACTIVE  
GTHE3_CHANNEL cell i_db6_sfp_interface/i_db6_gbt_gth_interface/i_db6_gbt_bank/mgt_inst/xlx_ku_mgt_std_i/inst/gen_gtwizard_gthe3_top.xlx_ku_mgt_ip_gtwizard_gthe3_inst/gen_gtwizard_gthe3.gen_channel_container[0].gen_enabled_channel.gthe3_channel_wrapper_inst/channel_inst/gthe3_channel_gen.gen_gthe3_channel_inst[0].GTHE3_CHANNEL_PRIM_INST: Use of the GTGREFCLK is reserved for test purposes only. This has the lowest performance of the available clocking methods and can degrade transceiver performance. Note that GTGREFCLK use may be caused by driving a REFCLK with a BUFG.
Related violations: <none>

REQP-1753#5 Warning
connects_GTGREFCLK_ACTIVE  
GTHE3_CHANNEL cell i_db6_sfp_interface/i_db6_gbt_gth_interface/i_db6_gbt_bank/mgt_inst/xlx_ku_mgt_std_i/inst/gen_gtwizard_gthe3_top.xlx_ku_mgt_ip_gtwizard_gthe3_inst/gen_gtwizard_gthe3.gen_channel_container[0].gen_enabled_channel.gthe3_channel_wrapper_inst/channel_inst/gthe3_channel_gen.gen_gthe3_channel_inst[1].GTHE3_CHANNEL_PRIM_INST: Use of the GTGREFCLK is reserved for test purposes only. This has the lowest performance of the available clocking methods and can degrade transceiver performance. Note that GTGREFCLK use may be caused by driving a REFCLK with a BUFG.
Related violations: <none>

REQP-1753#6 Warning
connects_GTGREFCLK_ACTIVE  
GTHE3_CHANNEL cell i_db6_sfp_interface/i_db6_gbt_gth_interface/i_db6_gbt_bank/mgt_inst/xlx_ku_mgt_std_i/inst/gen_gtwizard_gthe3_top.xlx_ku_mgt_ip_gtwizard_gthe3_inst/gen_gtwizard_gthe3.gen_channel_container[0].gen_enabled_channel.gthe3_channel_wrapper_inst/channel_inst/gthe3_channel_gen.gen_gthe3_channel_inst[2].GTHE3_CHANNEL_PRIM_INST: Use of the GTGREFCLK is reserved for test purposes only. This has the lowest performance of the available clocking methods and can degrade transceiver performance. Note that GTGREFCLK use may be caused by driving a REFCLK with a BUFG.
Related violations: <none>

REQP-1852#1 Warning
BUFGCE_cascade_from_clock_buf  
Cascaded clock buffers exist in the design with constant CE pin. This may result in large clock skew and timing violations. Cell BUFGCE i_db6_sem_interface/i_sem_wrapper/i_sem_support_wrapper/example_bufg I pin is driven by another clock buffer i_db6_clock_interface/i_BUFGMUX_CTRL_db_clk80.
Related violations: <none>

REQP-1877#1 Warning
BUFGCE_has_no_loads  
Global Clock buffer BUFGCE cell i_db6_clock_interface/g_outclkfabric[0].i_bufg_gth_rxoutclkfabric has no loads and may be unnecessarily using clock routing/distribution resources. This buffer should be removed from the design.
Related violations: <none>

REQP-1877#2 Warning
BUFGCE_has_no_loads  
Global Clock buffer BUFGCE cell i_db6_clock_interface/g_outclkfabric[0].i_bufg_gth_txoutclkfabric has no loads and may be unnecessarily using clock routing/distribution resources. This buffer should be removed from the design.
Related violations: <none>

REQP-1877#3 Warning
BUFGCE_has_no_loads  
Global Clock buffer BUFGCE cell i_db6_clock_interface/g_outclkfabric[1].i_bufg_gth_rxoutclkfabric has no loads and may be unnecessarily using clock routing/distribution resources. This buffer should be removed from the design.
Related violations: <none>

REQP-1877#4 Warning
BUFGCE_has_no_loads  
Global Clock buffer BUFGCE cell i_db6_clock_interface/g_outclkfabric[1].i_bufg_gth_txoutclkfabric has no loads and may be unnecessarily using clock routing/distribution resources. This buffer should be removed from the design.
Related violations: <none>

REQP-1877#5 Warning
BUFGCE_has_no_loads  
Global Clock buffer BUFGCE cell i_db6_clock_interface/g_outclkfabric[2].i_bufg_gth_rxoutclkfabric has no loads and may be unnecessarily using clock routing/distribution resources. This buffer should be removed from the design.
Related violations: <none>

REQP-1877#6 Warning
BUFGCE_has_no_loads  
Global Clock buffer BUFGCE cell i_db6_clock_interface/g_outclkfabric[2].i_bufg_gth_txoutclkfabric has no loads and may be unnecessarily using clock routing/distribution resources. This buffer should be removed from the design.
Related violations: <none>

RPBF-3#1 Warning
IO port buffering is incomplete  
Device port p_gbtx_i2c_sda_inout[0] expects both input and output buffering but the buffers are incomplete.
Related violations: <none>

RPBF-3#2 Warning
IO port buffering is incomplete  
Device port p_gbtx_i2c_sda_inout[1] expects both input and output buffering but the buffers are incomplete.
Related violations: <none>

RPBF-3#3 Warning
IO port buffering is incomplete  
Device port p_serial_id_sda_inout expects both input and output buffering but the buffers are incomplete.
Related violations: <none>

RTSTAT-10#1 Warning
No routable loads  
17129 net(s) have no routable loads. The problem bus(es) and/or net(s) are i_db6_gbtx_interface/i_db6_configbus_interface/p_db_reg_rx_out[45][27:0],
i_db6_gbtx_interface/i_db6_configbus_interface/p_db_reg_rx_out[46][27:0],
i_db6_gbtx_interface/i_db6_configbus_interface/p_db_reg_rx_out[47][27:0],
i_db6_gbtx_interface/i_db6_configbus_interface/p_db_reg_rx_out[48][27:0],
i_db6_gbtx_interface/i_db6_configbus_interface/p_db_reg_rx_out[49][27:0],
i_db6_gbtx_interface/i_db6_configbus_interface/p_db_reg_rx_out[50][27:0],
i_db6_gbtx_interface/i_db6_configbus_interface/p_db_reg_rx_out[51][27:0],
i_db6_gbtx_interface/i_db6_configbus_interface/p_db_reg_rx_out[52][27:0],
i_db6_gbtx_interface/i_db6_configbus_interface/p_db_reg_rx_out[53][27:0],
i_db6_gbtx_interface/i_db6_configbus_interface/p_db_reg_rx_out[54][27:0],
i_db6_gbtx_interface/i_db6_configbus_interface/p_db_reg_rx_out[55][27:0],
i_db6_gbtx_interface/i_db6_configbus_interface/p_db_reg_rx_out[56][27:0],
i_db6_mainboard_interface/s_adc_readout[channel_clk280_locked][5:0],
i_db6_sem_interface/i_sem_wrapper/heartbeat_timeout,
i_db6_sem_interface/i_sem_wrapper/i_sem_support_wrapper/example_support/nolabel_line277/inst/controller/controller_dbuffer/reg_fm_icap_rsv
 (the first 15 of 4612 listed).
Related violations: <none>

AVAL-155#1 Advisory
enum_AMULTSEL_BMULTSEL_enum_DREG_ADREG_0_connects_CED_CEAD_RSTD_GND  
i_db6_sem_interface/i_sem_wrapper/i_sem_support_wrapper/example_support/nolabel_line277/inst/controller/controller_timer/timer_timer_ctr/DSP48E2_inst: DSP48E2 is not using the D port (AMULTSEL = A and BMULTSEL = B). For improved power characteristics, set DREG and ADREG to '1', tie CED, CEAD, and RSTD to logic '0'.
Related violations: <none>

AVAL-156#1 Advisory
enum_USE_MULT_NONE__enum_DREG_ADREG_0_connects_CED_CEAD_RSTD_GND  
i_db6_clock_interface/i_counter_binary_ms/U0/i_synth/i_baseip.i_xbip_counter/i_dsp48.i_dsp/i_vx7.i_dsp48e_wrap/i_primitive: DSP48E2 is not using the Multiplier (USE_MULT = NONE). For improved power characteristics, set DREG and ADREG to '1', tie CED, CEAD, and RSTD to logic '0'.
Related violations: <none>

AVAL-156#2 Advisory
enum_USE_MULT_NONE__enum_DREG_ADREG_0_connects_CED_CEAD_RSTD_GND  
i_db6_clock_interface/i_counter_binary_s/U0/i_synth/i_baseip.i_xbip_counter/i_dsp48.i_dsp/i_vx7.i_dsp48e_wrap/i_primitive: DSP48E2 is not using the Multiplier (USE_MULT = NONE). For improved power characteristics, set DREG and ADREG to '1', tie CED, CEAD, and RSTD to logic '0'.
Related violations: <none>

AVAL-156#3 Advisory
enum_USE_MULT_NONE__enum_DREG_ADREG_0_connects_CED_CEAD_RSTD_GND  
i_db6_mainboard_interface/i_db6_adc_interface/gen_adc_channels[0].i_counter_binary_adc_channel_bitclk/U0/i_synth/i_baseip.i_xbip_counter/i_dsp48.i_dsp/i_vx7.i_dsp48e_wrap/i_primitive: DSP48E2 is not using the Multiplier (USE_MULT = NONE). For improved power characteristics, set DREG and ADREG to '1', tie CED, CEAD, and RSTD to logic '0'.
Related violations: <none>

AVAL-156#4 Advisory
enum_USE_MULT_NONE__enum_DREG_ADREG_0_connects_CED_CEAD_RSTD_GND  
i_db6_mainboard_interface/i_db6_adc_interface/gen_adc_channels[1].i_counter_binary_adc_channel_bitclk/U0/i_synth/i_baseip.i_xbip_counter/i_dsp48.i_dsp/i_vx7.i_dsp48e_wrap/i_primitive: DSP48E2 is not using the Multiplier (USE_MULT = NONE). For improved power characteristics, set DREG and ADREG to '1', tie CED, CEAD, and RSTD to logic '0'.
Related violations: <none>

AVAL-156#5 Advisory
enum_USE_MULT_NONE__enum_DREG_ADREG_0_connects_CED_CEAD_RSTD_GND  
i_db6_mainboard_interface/i_db6_adc_interface/gen_adc_channels[2].i_counter_binary_adc_channel_bitclk/U0/i_synth/i_baseip.i_xbip_counter/i_dsp48.i_dsp/i_vx7.i_dsp48e_wrap/i_primitive: DSP48E2 is not using the Multiplier (USE_MULT = NONE). For improved power characteristics, set DREG and ADREG to '1', tie CED, CEAD, and RSTD to logic '0'.
Related violations: <none>

AVAL-156#6 Advisory
enum_USE_MULT_NONE__enum_DREG_ADREG_0_connects_CED_CEAD_RSTD_GND  
i_db6_mainboard_interface/i_db6_adc_interface/gen_adc_channels[3].i_counter_binary_adc_channel_bitclk/U0/i_synth/i_baseip.i_xbip_counter/i_dsp48.i_dsp/i_vx7.i_dsp48e_wrap/i_primitive: DSP48E2 is not using the Multiplier (USE_MULT = NONE). For improved power characteristics, set DREG and ADREG to '1', tie CED, CEAD, and RSTD to logic '0'.
Related violations: <none>

AVAL-156#7 Advisory
enum_USE_MULT_NONE__enum_DREG_ADREG_0_connects_CED_CEAD_RSTD_GND  
i_db6_mainboard_interface/i_db6_adc_interface/gen_adc_channels[4].i_counter_binary_adc_channel_bitclk/U0/i_synth/i_baseip.i_xbip_counter/i_dsp48.i_dsp/i_vx7.i_dsp48e_wrap/i_primitive: DSP48E2 is not using the Multiplier (USE_MULT = NONE). For improved power characteristics, set DREG and ADREG to '1', tie CED, CEAD, and RSTD to logic '0'.
Related violations: <none>

AVAL-156#8 Advisory
enum_USE_MULT_NONE__enum_DREG_ADREG_0_connects_CED_CEAD_RSTD_GND  
i_db6_mainboard_interface/i_db6_adc_interface/gen_adc_channels[5].i_counter_binary_adc_channel_bitclk/U0/i_synth/i_baseip.i_xbip_counter/i_dsp48.i_dsp/i_vx7.i_dsp48e_wrap/i_primitive: DSP48E2 is not using the Multiplier (USE_MULT = NONE). For improved power characteristics, set DREG and ADREG to '1', tie CED, CEAD, and RSTD to logic '0'.
Related violations: <none>

REQP-1681#1 Advisory
with_OPMODE_USE_MULT_NONE  
i_db6_sem_interface/i_sem_wrapper/i_sem_support_wrapper/example_support/nolabel_line277/inst/controller/controller_timer/timer_timer_ctr/DSP48E2_inst: To save power with this DSP48E2 OPMODE input pin programming the USE_MULT attribute should be set to NONE.
Related violations: <none>


