verilog xil_defaultlib  \
"../../../ip/xlx_ku_mgt_commbus/sim/gtwizard_ultrascale_v1_7_gthe3_channel.v" \
"../../../ip/xlx_ku_mgt_commbus/sim/xlx_ku_mgt_commbus_gthe3_channel_wrapper.v" \
"../../../ip/xlx_ku_mgt_commbus/sim/gtwizard_ultrascale_v1_7_gthe3_common.v" \
"../../../ip/xlx_ku_mgt_commbus/sim/xlx_ku_mgt_commbus_gthe3_common_wrapper.v" \
"../../../ip/xlx_ku_mgt_commbus/sim/xlx_ku_mgt_commbus_gtwizard_gthe3.v" \
"../../../ip/xlx_ku_mgt_commbus/sim/xlx_ku_mgt_commbus_gtwizard_top.v" \
"../../../ip/xlx_ku_mgt_commbus/sim/xlx_ku_mgt_commbus.v" \

verilog xil_defaultlib "glbl.v"

nosort
