verilog sem_ultra_v3_1_12 --include "../../../ipstatic/hdl/xilinx8" --include "../../../ipstatic/hdl/xilinx8/db_rowmap" --include "../../../ipstatic/hdl/diablo" --include "../../../ipstatic/hdl/diablo/db_rowmap" --include "../../../ipstatic/hdl/diablo_ssi/db_rowmap" --include "../../../ipstatic/hdl/hood_ssi/db_rowmap" --include "../../../ipstatic/hdl/hood_ssi" --include "../../../ipstatic/hdl/diablo_ssi" --include "../../../ipstatic/hdl/simonly" --include "../../../ip/sem/source" \
"../../../ipstatic/hdl/sem_ultra_v3_1_vl_rfs.v" \

verilog xil_defaultlib --include "../../../ipstatic/hdl/xilinx8" --include "../../../ipstatic/hdl/xilinx8/db_rowmap" --include "../../../ipstatic/hdl/diablo" --include "../../../ipstatic/hdl/diablo/db_rowmap" --include "../../../ipstatic/hdl/diablo_ssi/db_rowmap" --include "../../../ipstatic/hdl/hood_ssi/db_rowmap" --include "../../../ipstatic/hdl/hood_ssi" --include "../../../ipstatic/hdl/diablo_ssi" --include "../../../ipstatic/hdl/simonly" --include "../../../ip/sem/source" \
"../../../ip/sem/synth/sem.v" \

verilog xil_defaultlib "glbl.v"

nosort
