xpm_cdc.sv,systemverilog,xpm,../../../../../../../../../../apps/xilinx/Vivado/2019.2/data/ip/xpm/xpm_cdc/hdl/xpm_cdc.sv,
xpm_memory.sv,systemverilog,xpm,../../../../../../../../../../apps/xilinx/Vivado/2019.2/data/ip/xpm/xpm_memory/hdl/xpm_memory.sv,
xpm_VCOMP.vhd,vhdl,xpm,../../../../../../../../../../apps/xilinx/Vivado/2019.2/data/ip/xpm/xpm_VCOMP.vhd,
blk_mem_gen_v8_4.v,verilog,blk_mem_gen_v8_4_4,../../../ipstatic/simulation/blk_mem_gen_v8_4.v,
xlx_ku_rx_dpram.v,verilog,xil_defaultlib,../../../ip/gbt_rx/sim/xlx_ku_rx_dpram.v,
glbl.v,Verilog,xil_defaultlib,glbl.v
