Copyright 1986-2019 Xilinx, Inc. All Rights Reserved.
-----------------------------------------------------------------------------------------------------------------------------------------------------------
| Tool Version : Vivado v.2019.2_AR72614 (lin64) Build 2708876 Wed Nov  6 21:39:14 MST 2019
| Date         : Tue Jul  7 15:30:40 2020
| Host         : Piro-Office-PC running 64-bit Ubuntu 20.04 LTS
| Command      : report_methodology -file db6_top_methodology_drc_routed.rpt -pb db6_top_methodology_drc_routed.pb -rpx db6_top_methodology_drc_routed.rpx
| Design       : db6_top
| Device       : xcku035-fbva676-1-c
| Speed File   : -1
| Design State : Fully Routed
-----------------------------------------------------------------------------------------------------------------------------------------------------------

Report Methodology

Table of Contents
-----------------
1. REPORT SUMMARY
2. REPORT DETAILS

1. REPORT SUMMARY
-----------------
            Netlist: netlist
          Floorplan: design_1
      Design limits: <entire design considered>
             Max violations: <unlimited>
             Violations found: 168
+-----------+------------------+-------------------------------------------------------------------+------------+
| Rule      | Severity         | Description                                                       | Violations |
+-----------+------------------+-------------------------------------------------------------------+------------+
| TIMING-2  | Critical Warning | Invalid primary clock source pin                                  | 2          |
| TIMING-4  | Critical Warning | Invalid primary clock redefinition on a clock tree                | 9          |
| TIMING-7  | Critical Warning | No common node between related clocks                             | 1          |
| TIMING-14 | Critical Warning | LUT on the clock tree                                             | 3          |
| TIMING-27 | Critical Warning | Invalid primary clock on hierarchical pin                         | 3          |
| CKLD-2    | Warning          | Clock Net has IO Driver, not a Clock Buf, and/or non-Clock loads  | 2          |
| LUTAR-1   | Warning          | LUT drives async reset alert                                      | 7          |
| TIMING-9  | Warning          | Unknown CDC Logic                                                 | 1          |
| TIMING-10 | Warning          | Missing property on synchronizer                                  | 1          |
| TIMING-18 | Warning          | Missing input or output delay                                     | 82         |
| TIMING-28 | Warning          | Auto-derived clock referenced by a timing constraint              | 51         |
| TIMING-47 | Warning          | False path or asynchronous clock group between synchronous clocks | 2          |
| CLKC-5    | Advisory         | BUFGCE with constant CE has BUFG driver                           | 1          |
| CLKC-27   | Advisory         | MMCME3 with BUF_IN drives sequential IO not with CLKOUT0          | 1          |
| CLKC-36   | Advisory         | BUFGCTRL with MMCM-PLL driver in same region with BUFGCE          | 1          |
| CLKC-57   | Advisory         | PLLE3 with global clock driver has no LOC                         | 1          |
+-----------+------------------+-------------------------------------------------------------------+------------+

2. REPORT DETAILS
-----------------
TIMING-2#1 Critical Warning
Invalid primary clock source pin  
A primary clock i_db6_clock_interface/i_mmcm_gbt40_mb_q0/inst/p_clk_in is created on an inappropriate pin i_db6_clock_interface/i_mmcm_gbt40_mb_q0/inst/p_clk_in. It is recommended to create a primary clock only on a proper clock source (input port or primitive output pin with no timing arc)
Related violations: <none>

TIMING-2#2 Critical Warning
Invalid primary clock source pin  
A primary clock i_db6_clock_interface/i_mmcm_gbt40_mb_q1/inst/p_clk_in is created on an inappropriate pin i_db6_clock_interface/i_mmcm_gbt40_mb_q1/inst/p_clk_in. It is recommended to create a primary clock only on a proper clock source (input port or primitive output pin with no timing arc)
Related violations: <none>

TIMING-4#1 Critical Warning
Invalid primary clock redefinition on a clock tree  
Invalid clock redefinition on a clock tree. The primary clock i_db6_clock_interface/i_mmcm_gbt40_cfgbus/inst/p_clk_in is defined downstream of clock p_gbt_cfgbus_clk40_local_in[p] and overrides its insertion delay and/or waveform definition
Related violations: <none>

TIMING-4#2 Critical Warning
Invalid primary clock redefinition on a clock tree  
Invalid clock redefinition on a clock tree. The primary clock i_db6_clock_interface/i_mmcm_gbt40_cfgbus/inst/p_clk_in is defined downstream of clock p_gbt_cfgbus_clk40_remote_in[p] and overrides its insertion delay and/or waveform definition
Related violations: <none>

TIMING-4#3 Critical Warning
Invalid primary clock redefinition on a clock tree  
Invalid clock redefinition on a clock tree. The primary clock i_db6_clock_interface/i_mmcm_gbt40_mb_q0/inst/p_clk_in is defined downstream of clock p_gbt_mb_q0_clk40_local_in[p] and overrides its insertion delay and/or waveform definition
Related violations: <none>

TIMING-4#4 Critical Warning
Invalid primary clock redefinition on a clock tree  
Invalid clock redefinition on a clock tree. The primary clock i_db6_clock_interface/i_mmcm_gbt40_mb_q0/inst/p_clk_in is defined downstream of clock p_gbt_mb_q0_clk40_remote_in[p] and overrides its insertion delay and/or waveform definition
Related violations: <none>

TIMING-4#5 Critical Warning
Invalid primary clock redefinition on a clock tree  
Invalid clock redefinition on a clock tree. The primary clock i_db6_clock_interface/i_mmcm_gbt40_mb_q1/inst/p_clk_in is defined downstream of clock p_gbt_mb_q1_clk40_local_in[p] and overrides its insertion delay and/or waveform definition
Related violations: <none>

TIMING-4#6 Critical Warning
Invalid primary clock redefinition on a clock tree  
Invalid clock redefinition on a clock tree. The primary clock i_db6_clock_interface/i_mmcm_gbt40_mb_q1/inst/p_clk_in is defined downstream of clock p_gbt_mb_q1_clk40_remote_in[p] and overrides its insertion delay and/or waveform definition
Related violations: <none>

TIMING-4#7 Critical Warning
Invalid primary clock redefinition on a clock tree  
Invalid clock redefinition on a clock tree. The primary clock i_db6_clock_interface/i_pll_osc_clk/inst/p_clk_in is defined downstream of clock p_osc_clk_in[p] and overrides its insertion delay and/or waveform definition
Related violations: <none>

TIMING-4#8 Critical Warning
Invalid primary clock redefinition on a clock tree  
Invalid clock redefinition on a clock tree. The primary clock i_db6_commbus_interface/i_db6_commbus_ddr_interface/i_pll_commbus_clk_out/inst/p_clk_in is defined downstream of clock p_clk80_out_mmcm_gbt40_cfgbus and overrides its insertion delay and/or waveform definition
Related violations: <none>

TIMING-4#9 Critical Warning
Invalid primary clock redefinition on a clock tree  
Invalid clock redefinition on a clock tree. The primary clock i_db6_commbus_interface/i_db6_commbus_ddr_interface/i_pll_commbus_clk_out/inst/p_clk_in is defined downstream of clock p_clk80_out_pll_osc_clk and overrides its insertion delay and/or waveform definition
Related violations: <none>

TIMING-7#1 Critical Warning
No common node between related clocks  
The clocks txoutclk_out[0]_1 and rxoutclk_out[0]_1 are related (timed together) but they have no common node. The design could fail in hardware. To find a timing path between these clocks, run the following command: report_timing -from [get_clocks txoutclk_out[0]_1] -to [get_clocks rxoutclk_out[0]_1]
Related violations: <none>

TIMING-14#1 Critical Warning
LUT on the clock tree  
The LUT i_db6_sfp_interface/i_db6_gbt_gth_interface/s_db6_gbt_bank[gbt_txframeclk_i]_inst has been found on the clock tree. Run opt_design to optimize the clock trees, then re-run report_methodology. If LUT(s) are still present in the clock trees, modify the RTL or the synthesis options accordingly to move the clock gating logic to dedicated clock enable resources. Keep in mind that post-opt_design database cannot be used for pin-planning tasks
Related violations: <none>

TIMING-14#2 Critical Warning
LUT on the clock tree  
The LUT i_db6_sfp_interface/i_db6_gbt_gth_interface/s_db6_gbt_bank[gbt_txframeclk_i]_inst__0 has been found on the clock tree. Run opt_design to optimize the clock trees, then re-run report_methodology. If LUT(s) are still present in the clock trees, modify the RTL or the synthesis options accordingly to move the clock gating logic to dedicated clock enable resources. Keep in mind that post-opt_design database cannot be used for pin-planning tasks
Related violations: <none>

TIMING-14#3 Critical Warning
LUT on the clock tree  
The LUT i_db6_sfp_interface/i_db6_gbt_gth_interface/s_db6_gbt_bank[gbt_txframeclk_i]_inst__1 has been found on the clock tree. Run opt_design to optimize the clock trees, then re-run report_methodology. If LUT(s) are still present in the clock trees, modify the RTL or the synthesis options accordingly to move the clock gating logic to dedicated clock enable resources. Keep in mind that post-opt_design database cannot be used for pin-planning tasks
Related violations: <none>

TIMING-27#1 Critical Warning
Invalid primary clock on hierarchical pin  
A primary clock i_db6_clock_interface/i_mmcm_gbt40_cfgbus/inst/p_clk_in is created on an inappropriate internal pin i_db6_clock_interface/i_mmcm_gbt40_cfgbus/inst/p_clk_in. It is not recommended to create a primary clock on a hierarchical pin when its driver pin has a fanout connected to multiple clock pins
Related violations: <none>

TIMING-27#2 Critical Warning
Invalid primary clock on hierarchical pin  
A primary clock i_db6_clock_interface/i_pll_osc_clk/inst/p_clk_in is created on an inappropriate internal pin i_db6_clock_interface/i_pll_osc_clk/inst/p_clk_in. It is not recommended to create a primary clock on a hierarchical pin when its driver pin has a fanout connected to multiple clock pins
Related violations: <none>

TIMING-27#3 Critical Warning
Invalid primary clock on hierarchical pin  
A primary clock i_db6_commbus_interface/i_db6_commbus_ddr_interface/i_pll_commbus_clk_out/inst/p_clk_in is created on an inappropriate internal pin i_db6_commbus_interface/i_db6_commbus_ddr_interface/i_pll_commbus_clk_out/inst/p_clk_in. It is not recommended to create a primary clock on a hierarchical pin when its driver pin has a fanout connected to multiple clock pins
Related violations: <none>

CKLD-2#1 Warning
Clock Net has IO Driver, not a Clock Buf, and/or non-Clock loads  
Clock net i_db6_clock_interface/i_ibufds_cfgbus_local/O is directly driven by an IO rather than a Clock Buffer or may be an IO driving a mix of Clock Buffer and non-Clock loads. This connectivity should be reviewed and corrected as appropriate. Driver(s): i_db6_clock_interface/i_ibufds_cfgbus_local/O
Related violations: <none>

CKLD-2#2 Warning
Clock Net has IO Driver, not a Clock Buf, and/or non-Clock loads  
Clock net i_db6_clock_interface/i_ibufds_cfgbus_remote/O is directly driven by an IO rather than a Clock Buffer or may be an IO driving a mix of Clock Buffer and non-Clock loads. This connectivity should be reviewed and corrected as appropriate. Driver(s): i_db6_clock_interface/i_ibufds_cfgbus_remote/O
Related violations: <none>

LUTAR-1#1 Warning
LUT drives async reset alert  
LUT cell i_db6_commbus_interface/i_db6_commbus_mgt_interface/i_xlx_ku_mgt_commbus/inst/gen_gtwizard_gthe3_top.xlx_ku_mgt_commbus_gtwizard_gthe3_inst/gen_gtwizard_gthe3.gen_reset_controller_internal.gen_single_instance.gtwiz_reset_inst/reset_synchronizer_gtwiz_reset_rx_any_inst/rst_in_out_i_1__0, with 2 or more inputs, drives asynchronous preset/clear pin(s) i_db6_commbus_interface/i_db6_commbus_mgt_interface/i_xlx_ku_mgt_commbus/inst/gen_gtwizard_gthe3_top.xlx_ku_mgt_commbus_gtwizard_gthe3_inst/gen_gtwizard_gthe3.gen_reset_controller_internal.gen_single_instance.gtwiz_reset_inst/reset_synchronizer_gtwiz_reset_rx_any_inst/rst_in_meta_reg/PRE, i_db6_commbus_interface/i_db6_commbus_mgt_interface/i_xlx_ku_mgt_commbus/inst/gen_gtwizard_gthe3_top.xlx_ku_mgt_commbus_gtwizard_gthe3_inst/gen_gtwizard_gthe3.gen_reset_controller_internal.gen_single_instance.gtwiz_reset_inst/reset_synchronizer_gtwiz_reset_rx_any_inst/rst_in_out_reg/PRE, i_db6_commbus_interface/i_db6_commbus_mgt_interface/i_xlx_ku_mgt_commbus/inst/gen_gtwizard_gthe3_top.xlx_ku_mgt_commbus_gtwizard_gthe3_inst/gen_gtwizard_gthe3.gen_reset_controller_internal.gen_single_instance.gtwiz_reset_inst/reset_synchronizer_gtwiz_reset_rx_any_inst/rst_in_sync1_reg/PRE, i_db6_commbus_interface/i_db6_commbus_mgt_interface/i_xlx_ku_mgt_commbus/inst/gen_gtwizard_gthe3_top.xlx_ku_mgt_commbus_gtwizard_gthe3_inst/gen_gtwizard_gthe3.gen_reset_controller_internal.gen_single_instance.gtwiz_reset_inst/reset_synchronizer_gtwiz_reset_rx_any_inst/rst_in_sync2_reg/PRE, i_db6_commbus_interface/i_db6_commbus_mgt_interface/i_xlx_ku_mgt_commbus/inst/gen_gtwizard_gthe3_top.xlx_ku_mgt_commbus_gtwizard_gthe3_inst/gen_gtwizard_gthe3.gen_reset_controller_internal.gen_single_instance.gtwiz_reset_inst/reset_synchronizer_gtwiz_reset_rx_any_inst/rst_in_sync3_reg/PRE. The LUT may glitch and trigger an unexpected reset, even if it is a properly timed path.
Related violations: <none>

LUTAR-1#2 Warning
LUT drives async reset alert  
LUT cell i_db6_sfp_interface/i_db6_gbt_gth_interface/i_db6_gbt_bank/mgt_inst/gtxLatOpt_gen[1].resetDoneSynch_rx/rst_in_meta_i_1, with 2 or more inputs, drives asynchronous preset/clear pin(s) i_db6_sfp_interface/i_db6_gbt_gth_interface/i_db6_gbt_bank/mgt_inst/gtxLatOpt_gen[1].resetDoneSynch_rx/rst_in_meta_reg/PRE, i_db6_sfp_interface/i_db6_gbt_gth_interface/i_db6_gbt_bank/mgt_inst/gtxLatOpt_gen[1].resetDoneSynch_rx/rst_in_out_reg/PRE, i_db6_sfp_interface/i_db6_gbt_gth_interface/i_db6_gbt_bank/mgt_inst/gtxLatOpt_gen[1].resetDoneSynch_rx/rst_in_sync1_reg/PRE, i_db6_sfp_interface/i_db6_gbt_gth_interface/i_db6_gbt_bank/mgt_inst/gtxLatOpt_gen[1].resetDoneSynch_rx/rst_in_sync2_reg/PRE, i_db6_sfp_interface/i_db6_gbt_gth_interface/i_db6_gbt_bank/mgt_inst/gtxLatOpt_gen[1].resetDoneSynch_rx/rst_in_sync3_reg/PRE. The LUT may glitch and trigger an unexpected reset, even if it is a properly timed path.
Related violations: <none>

LUTAR-1#3 Warning
LUT drives async reset alert  
LUT cell i_db6_sfp_interface/i_db6_gbt_gth_interface/i_db6_gbt_bank/mgt_inst/gtxLatOpt_gen[3].patternSearch/FSM_onehot_state[2]_i_2, with 2 or more inputs, drives asynchronous preset/clear pin(s) i_db6_sfp_interface/i_db6_gbt_gth_interface/i_db6_gbt_bank/mgt_inst/gtxLatOpt_gen[1].patternSearch/FSM_sequential_state_reg[0]/CLR, i_db6_sfp_interface/i_db6_gbt_gth_interface/i_db6_gbt_bank/mgt_inst/gtxLatOpt_gen[1].patternSearch/FSM_sequential_state_reg[1]/CLR, i_db6_sfp_interface/i_db6_gbt_gth_interface/i_db6_gbt_bank/mgt_inst/gtxLatOpt_gen[1].patternSearch/RX_HEADER_LOCKED_O_reg/CLR, i_db6_sfp_interface/i_db6_gbt_gth_interface/i_db6_gbt_bank/mgt_inst/gtxLatOpt_gen[1].patternSearch/bitSlipCmd_reg/CLR, i_db6_sfp_interface/i_db6_gbt_gth_interface/i_db6_gbt_bank/mgt_inst/gtxLatOpt_gen[1].patternSearch/bitSlipCnt_reg[0]/CLR, i_db6_sfp_interface/i_db6_gbt_gth_interface/i_db6_gbt_bank/mgt_inst/gtxLatOpt_gen[1].patternSearch/bitSlipCnt_reg[1]/CLR, i_db6_sfp_interface/i_db6_gbt_gth_interface/i_db6_gbt_bank/mgt_inst/gtxLatOpt_gen[1].patternSearch/bitSlipCnt_reg[2]/CLR, i_db6_sfp_interface/i_db6_gbt_gth_interface/i_db6_gbt_bank/mgt_inst/gtxLatOpt_gen[1].patternSearch/bitSlipCnt_reg[3]/CLR, i_db6_sfp_interface/i_db6_gbt_gth_interface/i_db6_gbt_bank/mgt_inst/gtxLatOpt_gen[1].patternSearch/bitSlipCnt_reg[4]/CLR, i_db6_sfp_interface/i_db6_gbt_gth_interface/i_db6_gbt_bank/mgt_inst/gtxLatOpt_gen[1].patternSearch/bitSlipCnt_reg[5]/CLR, i_db6_sfp_interface/i_db6_gbt_gth_interface/i_db6_gbt_bank/mgt_inst/gtxLatOpt_gen[1].patternSearch/psAddress_reg[0]/CLR, i_db6_sfp_interface/i_db6_gbt_gth_interface/i_db6_gbt_bank/mgt_inst/gtxLatOpt_gen[1].patternSearch/psAddress_reg[1]/CLR, i_db6_sfp_interface/i_db6_gbt_gth_interface/i_db6_gbt_bank/mgt_inst/gtxLatOpt_gen[1].patternSearch/RX_BITSLIPISEVEN_s_reg/PRE, i_db6_sfp_interface/i_db6_gbt_gth_interface/i_db6_gbt_bank/mgt_inst/gtxLatOpt_gen[1].patternSearch/shiftPsAddr_reg_inv/PRE, i_db6_sfp_interface/i_db6_gbt_gth_interface/i_db6_gbt_bank/mgt_inst/gtxLatOpt_gen[1].rxBitSlipControl/FSM_onehot_state_reg[1]/CLR (the first 15 of 54 listed). The LUT may glitch and trigger an unexpected reset, even if it is a properly timed path.
Related violations: <none>

LUTAR-1#4 Warning
LUT drives async reset alert  
LUT cell i_db6_sfp_interface/i_db6_gbt_gth_interface/i_db6_gbt_bank/mgt_inst/xlx_ku_mgt_std_i/inst/gen_gtwizard_gthe3_top.xlx_ku_mgt_ip_gtwizard_gthe3_inst/gen_gtwizard_gthe3.gen_reset_controller_internal.gen_single_instance.gtwiz_reset_inst/reset_synchronizer_gtwiz_reset_rx_any_inst/rst_in_out_i_1__0, with 2 or more inputs, drives asynchronous preset/clear pin(s) i_db6_sfp_interface/i_db6_gbt_gth_interface/i_db6_gbt_bank/mgt_inst/xlx_ku_mgt_std_i/inst/gen_gtwizard_gthe3_top.xlx_ku_mgt_ip_gtwizard_gthe3_inst/gen_gtwizard_gthe3.gen_reset_controller_internal.gen_single_instance.gtwiz_reset_inst/reset_synchronizer_gtwiz_reset_rx_any_inst/rst_in_meta_reg/PRE, i_db6_sfp_interface/i_db6_gbt_gth_interface/i_db6_gbt_bank/mgt_inst/xlx_ku_mgt_std_i/inst/gen_gtwizard_gthe3_top.xlx_ku_mgt_ip_gtwizard_gthe3_inst/gen_gtwizard_gthe3.gen_reset_controller_internal.gen_single_instance.gtwiz_reset_inst/reset_synchronizer_gtwiz_reset_rx_any_inst/rst_in_out_reg/PRE, i_db6_sfp_interface/i_db6_gbt_gth_interface/i_db6_gbt_bank/mgt_inst/xlx_ku_mgt_std_i/inst/gen_gtwizard_gthe3_top.xlx_ku_mgt_ip_gtwizard_gthe3_inst/gen_gtwizard_gthe3.gen_reset_controller_internal.gen_single_instance.gtwiz_reset_inst/reset_synchronizer_gtwiz_reset_rx_any_inst/rst_in_sync1_reg/PRE, i_db6_sfp_interface/i_db6_gbt_gth_interface/i_db6_gbt_bank/mgt_inst/xlx_ku_mgt_std_i/inst/gen_gtwizard_gthe3_top.xlx_ku_mgt_ip_gtwizard_gthe3_inst/gen_gtwizard_gthe3.gen_reset_controller_internal.gen_single_instance.gtwiz_reset_inst/reset_synchronizer_gtwiz_reset_rx_any_inst/rst_in_sync2_reg/PRE, i_db6_sfp_interface/i_db6_gbt_gth_interface/i_db6_gbt_bank/mgt_inst/xlx_ku_mgt_std_i/inst/gen_gtwizard_gthe3_top.xlx_ku_mgt_ip_gtwizard_gthe3_inst/gen_gtwizard_gthe3.gen_reset_controller_internal.gen_single_instance.gtwiz_reset_inst/reset_synchronizer_gtwiz_reset_rx_any_inst/rst_in_sync3_reg/PRE. The LUT may glitch and trigger an unexpected reset, even if it is a properly timed path.
Related violations: <none>

LUTAR-1#5 Warning
LUT drives async reset alert  
LUT cell i_db6_sfp_interface/i_db6_gbt_gth_interface/i_db6_gbt_bank/mgt_inst/xlx_ku_mgt_std_i/inst/gen_gtwizard_gthe3_top.xlx_ku_mgt_ip_gtwizard_gthe3_inst/gen_gtwizard_gthe3.gen_reset_controller_internal.gen_single_instance.gtwiz_reset_inst/reset_synchronizer_gtwiz_reset_rx_datapath_inst/rst_in_meta_i_1__1, with 2 or more inputs, drives asynchronous preset/clear pin(s) i_db6_sfp_interface/i_db6_gbt_gth_interface/i_db6_gbt_bank/mgt_inst/xlx_ku_mgt_std_i/inst/gen_gtwizard_gthe3_top.xlx_ku_mgt_ip_gtwizard_gthe3_inst/gen_gtwizard_gthe3.gen_reset_controller_internal.gen_single_instance.gtwiz_reset_inst/reset_synchronizer_gtwiz_reset_rx_datapath_inst/rst_in_meta_reg/PRE, i_db6_sfp_interface/i_db6_gbt_gth_interface/i_db6_gbt_bank/mgt_inst/xlx_ku_mgt_std_i/inst/gen_gtwizard_gthe3_top.xlx_ku_mgt_ip_gtwizard_gthe3_inst/gen_gtwizard_gthe3.gen_reset_controller_internal.gen_single_instance.gtwiz_reset_inst/reset_synchronizer_gtwiz_reset_rx_datapath_inst/rst_in_out_reg/PRE, i_db6_sfp_interface/i_db6_gbt_gth_interface/i_db6_gbt_bank/mgt_inst/xlx_ku_mgt_std_i/inst/gen_gtwizard_gthe3_top.xlx_ku_mgt_ip_gtwizard_gthe3_inst/gen_gtwizard_gthe3.gen_reset_controller_internal.gen_single_instance.gtwiz_reset_inst/reset_synchronizer_gtwiz_reset_rx_datapath_inst/rst_in_sync1_reg/PRE, i_db6_sfp_interface/i_db6_gbt_gth_interface/i_db6_gbt_bank/mgt_inst/xlx_ku_mgt_std_i/inst/gen_gtwizard_gthe3_top.xlx_ku_mgt_ip_gtwizard_gthe3_inst/gen_gtwizard_gthe3.gen_reset_controller_internal.gen_single_instance.gtwiz_reset_inst/reset_synchronizer_gtwiz_reset_rx_datapath_inst/rst_in_sync2_reg/PRE, i_db6_sfp_interface/i_db6_gbt_gth_interface/i_db6_gbt_bank/mgt_inst/xlx_ku_mgt_std_i/inst/gen_gtwizard_gthe3_top.xlx_ku_mgt_ip_gtwizard_gthe3_inst/gen_gtwizard_gthe3.gen_reset_controller_internal.gen_single_instance.gtwiz_reset_inst/reset_synchronizer_gtwiz_reset_rx_datapath_inst/rst_in_sync3_reg/PRE. The LUT may glitch and trigger an unexpected reset, even if it is a properly timed path.
Related violations: <none>

LUTAR-1#6 Warning
LUT drives async reset alert  
LUT cell i_db6_sfp_interface/i_db6_gbt_gth_interface/i_db6_gbt_bank/mgt_inst/xlx_ku_mgt_std_i/inst/gen_gtwizard_gthe3_top.xlx_ku_mgt_ip_gtwizard_gthe3_inst/gen_gtwizard_gthe3.gen_reset_controller_internal.gen_single_instance.gtwiz_reset_inst/reset_synchronizer_gtwiz_reset_tx_any_inst/rst_in_out_i_1, with 2 or more inputs, drives asynchronous preset/clear pin(s) i_db6_sfp_interface/i_db6_gbt_gth_interface/i_db6_gbt_bank/mgt_inst/xlx_ku_mgt_std_i/inst/gen_gtwizard_gthe3_top.xlx_ku_mgt_ip_gtwizard_gthe3_inst/gen_gtwizard_gthe3.gen_reset_controller_internal.gen_single_instance.gtwiz_reset_inst/reset_synchronizer_gtwiz_reset_tx_any_inst/rst_in_meta_reg/PRE, i_db6_sfp_interface/i_db6_gbt_gth_interface/i_db6_gbt_bank/mgt_inst/xlx_ku_mgt_std_i/inst/gen_gtwizard_gthe3_top.xlx_ku_mgt_ip_gtwizard_gthe3_inst/gen_gtwizard_gthe3.gen_reset_controller_internal.gen_single_instance.gtwiz_reset_inst/reset_synchronizer_gtwiz_reset_tx_any_inst/rst_in_out_reg/PRE, i_db6_sfp_interface/i_db6_gbt_gth_interface/i_db6_gbt_bank/mgt_inst/xlx_ku_mgt_std_i/inst/gen_gtwizard_gthe3_top.xlx_ku_mgt_ip_gtwizard_gthe3_inst/gen_gtwizard_gthe3.gen_reset_controller_internal.gen_single_instance.gtwiz_reset_inst/reset_synchronizer_gtwiz_reset_tx_any_inst/rst_in_sync1_reg/PRE, i_db6_sfp_interface/i_db6_gbt_gth_interface/i_db6_gbt_bank/mgt_inst/xlx_ku_mgt_std_i/inst/gen_gtwizard_gthe3_top.xlx_ku_mgt_ip_gtwizard_gthe3_inst/gen_gtwizard_gthe3.gen_reset_controller_internal.gen_single_instance.gtwiz_reset_inst/reset_synchronizer_gtwiz_reset_tx_any_inst/rst_in_sync2_reg/PRE, i_db6_sfp_interface/i_db6_gbt_gth_interface/i_db6_gbt_bank/mgt_inst/xlx_ku_mgt_std_i/inst/gen_gtwizard_gthe3_top.xlx_ku_mgt_ip_gtwizard_gthe3_inst/gen_gtwizard_gthe3.gen_reset_controller_internal.gen_single_instance.gtwiz_reset_inst/reset_synchronizer_gtwiz_reset_tx_any_inst/rst_in_sync3_reg/PRE. The LUT may glitch and trigger an unexpected reset, even if it is a properly timed path.
Related violations: <none>

LUTAR-1#7 Warning
LUT drives async reset alert  
LUT cell i_db6_sfp_interface/i_db6_gbt_gth_interface/i_db6_gbt_bank/mgt_inst/xlx_ku_mgt_std_i/inst/gen_gtwizard_gthe3_top.xlx_ku_mgt_ip_gtwizard_gthe3_inst/gen_gtwizard_gthe3.gen_reset_controller_internal.gen_single_instance.gtwiz_reset_inst/reset_synchronizer_gtwiz_reset_tx_pll_and_datapath_inst/rst_in_meta_i_1, with 2 or more inputs, drives asynchronous preset/clear pin(s) i_db6_sfp_interface/i_db6_gbt_gth_interface/i_db6_gbt_bank/mgt_inst/xlx_ku_mgt_std_i/inst/gen_gtwizard_gthe3_top.xlx_ku_mgt_ip_gtwizard_gthe3_inst/gen_gtwizard_gthe3.gen_reset_controller_internal.gen_single_instance.gtwiz_reset_inst/reset_synchronizer_gtwiz_reset_tx_pll_and_datapath_inst/rst_in_meta_reg/PRE, i_db6_sfp_interface/i_db6_gbt_gth_interface/i_db6_gbt_bank/mgt_inst/xlx_ku_mgt_std_i/inst/gen_gtwizard_gthe3_top.xlx_ku_mgt_ip_gtwizard_gthe3_inst/gen_gtwizard_gthe3.gen_reset_controller_internal.gen_single_instance.gtwiz_reset_inst/reset_synchronizer_gtwiz_reset_tx_pll_and_datapath_inst/rst_in_out_reg/PRE, i_db6_sfp_interface/i_db6_gbt_gth_interface/i_db6_gbt_bank/mgt_inst/xlx_ku_mgt_std_i/inst/gen_gtwizard_gthe3_top.xlx_ku_mgt_ip_gtwizard_gthe3_inst/gen_gtwizard_gthe3.gen_reset_controller_internal.gen_single_instance.gtwiz_reset_inst/reset_synchronizer_gtwiz_reset_tx_pll_and_datapath_inst/rst_in_sync1_reg/PRE, i_db6_sfp_interface/i_db6_gbt_gth_interface/i_db6_gbt_bank/mgt_inst/xlx_ku_mgt_std_i/inst/gen_gtwizard_gthe3_top.xlx_ku_mgt_ip_gtwizard_gthe3_inst/gen_gtwizard_gthe3.gen_reset_controller_internal.gen_single_instance.gtwiz_reset_inst/reset_synchronizer_gtwiz_reset_tx_pll_and_datapath_inst/rst_in_sync2_reg/PRE, i_db6_sfp_interface/i_db6_gbt_gth_interface/i_db6_gbt_bank/mgt_inst/xlx_ku_mgt_std_i/inst/gen_gtwizard_gthe3_top.xlx_ku_mgt_ip_gtwizard_gthe3_inst/gen_gtwizard_gthe3.gen_reset_controller_internal.gen_single_instance.gtwiz_reset_inst/reset_synchronizer_gtwiz_reset_tx_pll_and_datapath_inst/rst_in_sync3_reg/PRE. The LUT may glitch and trigger an unexpected reset, even if it is a properly timed path.
Related violations: <none>

TIMING-9#1 Warning
Unknown CDC Logic  
One or more asynchronous Clock Domain Crossing has been detected between 2 clock domains through a set_false_path or a set_clock_groups or set_max_delay -datapath_only constraint but no double-registers logic synchronizer has been found on the side of the capture clock. It is recommended to run report_cdc for a complete and detailed CDC coverage. Please consider using XPM_CDC to avoid Critical severities
Related violations: <none>

TIMING-10#1 Warning
Missing property on synchronizer  
One or more logic synchronizer has been detected between 2 clock domains but the synchronizer does not have the property ASYNC_REG defined on one or both registers. It is recommended to run report_cdc for a complete and detailed CDC coverage
Related violations: <none>

TIMING-18#1 Warning
Missing input or output delay  
An input delay is missing on p_adc_frameclk_in[0][n] relative to clock(s) p_adc_bitclk_in[0][p]
Related violations: <none>

TIMING-18#2 Warning
Missing input or output delay  
An input delay is missing on p_adc_frameclk_in[0][p] relative to clock(s) p_adc_bitclk_in[0][p]
Related violations: <none>

TIMING-18#3 Warning
Missing input or output delay  
An input delay is missing on p_adc_frameclk_in[1][n] relative to clock(s) p_adc_bitclk_in[1][p]
Related violations: <none>

TIMING-18#4 Warning
Missing input or output delay  
An input delay is missing on p_adc_frameclk_in[1][p] relative to clock(s) p_adc_bitclk_in[1][p]
Related violations: <none>

TIMING-18#5 Warning
Missing input or output delay  
An input delay is missing on p_adc_frameclk_in[2][n] relative to clock(s) p_adc_bitclk_in[2][p]
Related violations: <none>

TIMING-18#6 Warning
Missing input or output delay  
An input delay is missing on p_adc_frameclk_in[2][p] relative to clock(s) p_adc_bitclk_in[2][p]
Related violations: <none>

TIMING-18#7 Warning
Missing input or output delay  
An input delay is missing on p_adc_frameclk_in[3][n] relative to clock(s) p_adc_bitclk_in[3][p]
Related violations: <none>

TIMING-18#8 Warning
Missing input or output delay  
An input delay is missing on p_adc_frameclk_in[3][p] relative to clock(s) p_adc_bitclk_in[3][p]
Related violations: <none>

TIMING-18#9 Warning
Missing input or output delay  
An input delay is missing on p_adc_frameclk_in[4][n] relative to clock(s) p_adc_bitclk_in[4][p]
Related violations: <none>

TIMING-18#10 Warning
Missing input or output delay  
An input delay is missing on p_adc_frameclk_in[4][p] relative to clock(s) p_adc_bitclk_in[4][p]
Related violations: <none>

TIMING-18#11 Warning
Missing input or output delay  
An input delay is missing on p_adc_frameclk_in[5][n] relative to clock(s) p_adc_bitclk_in[5][p]
Related violations: <none>

TIMING-18#12 Warning
Missing input or output delay  
An input delay is missing on p_adc_frameclk_in[5][p] relative to clock(s) p_adc_bitclk_in[5][p]
Related violations: <none>

TIMING-18#13 Warning
Missing input or output delay  
An input delay is missing on p_adc_hg_data_in[0][n] relative to clock(s) p_adc_bitclk_in[0][p]
Related violations: <none>

TIMING-18#14 Warning
Missing input or output delay  
An input delay is missing on p_adc_hg_data_in[0][p] relative to clock(s) p_adc_bitclk_in[0][p]
Related violations: <none>

TIMING-18#15 Warning
Missing input or output delay  
An input delay is missing on p_adc_hg_data_in[1][n] relative to clock(s) p_adc_bitclk_in[1][p]
Related violations: <none>

TIMING-18#16 Warning
Missing input or output delay  
An input delay is missing on p_adc_hg_data_in[1][p] relative to clock(s) p_adc_bitclk_in[1][p]
Related violations: <none>

TIMING-18#17 Warning
Missing input or output delay  
An input delay is missing on p_adc_hg_data_in[2][n] relative to clock(s) p_adc_bitclk_in[2][p]
Related violations: <none>

TIMING-18#18 Warning
Missing input or output delay  
An input delay is missing on p_adc_hg_data_in[2][p] relative to clock(s) p_adc_bitclk_in[2][p]
Related violations: <none>

TIMING-18#19 Warning
Missing input or output delay  
An input delay is missing on p_adc_hg_data_in[3][n] relative to clock(s) p_adc_bitclk_in[3][p]
Related violations: <none>

TIMING-18#20 Warning
Missing input or output delay  
An input delay is missing on p_adc_hg_data_in[3][p] relative to clock(s) p_adc_bitclk_in[3][p]
Related violations: <none>

TIMING-18#21 Warning
Missing input or output delay  
An input delay is missing on p_adc_hg_data_in[4][n] relative to clock(s) p_adc_bitclk_in[4][p]
Related violations: <none>

TIMING-18#22 Warning
Missing input or output delay  
An input delay is missing on p_adc_hg_data_in[4][p] relative to clock(s) p_adc_bitclk_in[4][p]
Related violations: <none>

TIMING-18#23 Warning
Missing input or output delay  
An input delay is missing on p_adc_hg_data_in[5][n] relative to clock(s) p_adc_bitclk_in[5][p]
Related violations: <none>

TIMING-18#24 Warning
Missing input or output delay  
An input delay is missing on p_adc_hg_data_in[5][p] relative to clock(s) p_adc_bitclk_in[5][p]
Related violations: <none>

TIMING-18#25 Warning
Missing input or output delay  
An input delay is missing on p_adc_lg_data_in[0][n] relative to clock(s) p_adc_bitclk_in[0][p]
Related violations: <none>

TIMING-18#26 Warning
Missing input or output delay  
An input delay is missing on p_adc_lg_data_in[0][p] relative to clock(s) p_adc_bitclk_in[0][p]
Related violations: <none>

TIMING-18#27 Warning
Missing input or output delay  
An input delay is missing on p_adc_lg_data_in[1][n] relative to clock(s) p_adc_bitclk_in[1][p]
Related violations: <none>

TIMING-18#28 Warning
Missing input or output delay  
An input delay is missing on p_adc_lg_data_in[1][p] relative to clock(s) p_adc_bitclk_in[1][p]
Related violations: <none>

TIMING-18#29 Warning
Missing input or output delay  
An input delay is missing on p_adc_lg_data_in[2][n] relative to clock(s) p_adc_bitclk_in[2][p]
Related violations: <none>

TIMING-18#30 Warning
Missing input or output delay  
An input delay is missing on p_adc_lg_data_in[2][p] relative to clock(s) p_adc_bitclk_in[2][p]
Related violations: <none>

TIMING-18#31 Warning
Missing input or output delay  
An input delay is missing on p_adc_lg_data_in[3][n] relative to clock(s) p_adc_bitclk_in[3][p]
Related violations: <none>

TIMING-18#32 Warning
Missing input or output delay  
An input delay is missing on p_adc_lg_data_in[3][p] relative to clock(s) p_adc_bitclk_in[3][p]
Related violations: <none>

TIMING-18#33 Warning
Missing input or output delay  
An input delay is missing on p_adc_lg_data_in[4][n] relative to clock(s) p_adc_bitclk_in[4][p]
Related violations: <none>

TIMING-18#34 Warning
Missing input or output delay  
An input delay is missing on p_adc_lg_data_in[4][p] relative to clock(s) p_adc_bitclk_in[4][p]
Related violations: <none>

TIMING-18#35 Warning
Missing input or output delay  
An input delay is missing on p_adc_lg_data_in[5][n] relative to clock(s) p_adc_bitclk_in[5][p]
Related violations: <none>

TIMING-18#36 Warning
Missing input or output delay  
An input delay is missing on p_adc_lg_data_in[5][p] relative to clock(s) p_adc_bitclk_in[5][p]
Related violations: <none>

TIMING-18#37 Warning
Missing input or output delay  
An input delay is missing on p_cfgbus_data_local_in[0][n] relative to clock(s) p_gbt_cfgbus_clk40_local_in[p]
Related violations: <none>

TIMING-18#38 Warning
Missing input or output delay  
An input delay is missing on p_cfgbus_data_local_in[0][p] relative to clock(s) p_gbt_cfgbus_clk40_local_in[p]
Related violations: <none>

TIMING-18#39 Warning
Missing input or output delay  
An input delay is missing on p_cfgbus_data_local_in[1][n] relative to clock(s) p_gbt_cfgbus_clk40_local_in[p]
Related violations: <none>

TIMING-18#40 Warning
Missing input or output delay  
An input delay is missing on p_cfgbus_data_local_in[1][p] relative to clock(s) p_gbt_cfgbus_clk40_local_in[p]
Related violations: <none>

TIMING-18#41 Warning
Missing input or output delay  
An input delay is missing on p_cfgbus_data_local_in[2][n] relative to clock(s) p_gbt_cfgbus_clk40_local_in[p]
Related violations: <none>

TIMING-18#42 Warning
Missing input or output delay  
An input delay is missing on p_cfgbus_data_local_in[2][p] relative to clock(s) p_gbt_cfgbus_clk40_local_in[p]
Related violations: <none>

TIMING-18#43 Warning
Missing input or output delay  
An input delay is missing on p_cfgbus_data_local_in[3][n] relative to clock(s) p_gbt_cfgbus_clk40_local_in[p]
Related violations: <none>

TIMING-18#44 Warning
Missing input or output delay  
An input delay is missing on p_cfgbus_data_local_in[3][p] relative to clock(s) p_gbt_cfgbus_clk40_local_in[p]
Related violations: <none>

TIMING-18#45 Warning
Missing input or output delay  
An input delay is missing on p_cfgbus_data_local_in[4][n] relative to clock(s) p_gbt_cfgbus_clk40_local_in[p]
Related violations: <none>

TIMING-18#46 Warning
Missing input or output delay  
An input delay is missing on p_cfgbus_data_local_in[4][p] relative to clock(s) p_gbt_cfgbus_clk40_local_in[p]
Related violations: <none>

TIMING-18#47 Warning
Missing input or output delay  
An input delay is missing on p_cfgbus_data_local_in[5][n] relative to clock(s) p_gbt_cfgbus_clk40_local_in[p]
Related violations: <none>

TIMING-18#48 Warning
Missing input or output delay  
An input delay is missing on p_cfgbus_data_local_in[5][p] relative to clock(s) p_gbt_cfgbus_clk40_local_in[p]
Related violations: <none>

TIMING-18#49 Warning
Missing input or output delay  
An input delay is missing on p_cfgbus_data_local_in[6][n] relative to clock(s) p_gbt_cfgbus_clk40_local_in[p]
Related violations: <none>

TIMING-18#50 Warning
Missing input or output delay  
An input delay is missing on p_cfgbus_data_local_in[6][p] relative to clock(s) p_gbt_cfgbus_clk40_local_in[p]
Related violations: <none>

TIMING-18#51 Warning
Missing input or output delay  
An input delay is missing on p_cfgbus_data_local_in[7][n] relative to clock(s) p_gbt_cfgbus_clk40_local_in[p]
Related violations: <none>

TIMING-18#52 Warning
Missing input or output delay  
An input delay is missing on p_cfgbus_data_local_in[7][p] relative to clock(s) p_gbt_cfgbus_clk40_local_in[p]
Related violations: <none>

TIMING-18#53 Warning
Missing input or output delay  
An input delay is missing on p_cfgbus_data_remote_in[0][n] relative to clock(s) p_gbt_cfgbus_clk40_remote_in[p]
Related violations: <none>

TIMING-18#54 Warning
Missing input or output delay  
An input delay is missing on p_cfgbus_data_remote_in[0][p] relative to clock(s) p_gbt_cfgbus_clk40_remote_in[p]
Related violations: <none>

TIMING-18#55 Warning
Missing input or output delay  
An input delay is missing on p_cfgbus_data_remote_in[1][n] relative to clock(s) p_gbt_cfgbus_clk40_remote_in[p]
Related violations: <none>

TIMING-18#56 Warning
Missing input or output delay  
An input delay is missing on p_cfgbus_data_remote_in[1][p] relative to clock(s) p_gbt_cfgbus_clk40_remote_in[p]
Related violations: <none>

TIMING-18#57 Warning
Missing input or output delay  
An input delay is missing on p_cfgbus_data_remote_in[2][n] relative to clock(s) p_gbt_cfgbus_clk40_remote_in[p]
Related violations: <none>

TIMING-18#58 Warning
Missing input or output delay  
An input delay is missing on p_cfgbus_data_remote_in[2][p] relative to clock(s) p_gbt_cfgbus_clk40_remote_in[p]
Related violations: <none>

TIMING-18#59 Warning
Missing input or output delay  
An input delay is missing on p_cfgbus_data_remote_in[3][n] relative to clock(s) p_gbt_cfgbus_clk40_remote_in[p]
Related violations: <none>

TIMING-18#60 Warning
Missing input or output delay  
An input delay is missing on p_cfgbus_data_remote_in[3][p] relative to clock(s) p_gbt_cfgbus_clk40_remote_in[p]
Related violations: <none>

TIMING-18#61 Warning
Missing input or output delay  
An input delay is missing on p_cfgbus_data_remote_in[4][n] relative to clock(s) p_gbt_cfgbus_clk40_remote_in[p]
Related violations: <none>

TIMING-18#62 Warning
Missing input or output delay  
An input delay is missing on p_cfgbus_data_remote_in[4][p] relative to clock(s) p_gbt_cfgbus_clk40_remote_in[p]
Related violations: <none>

TIMING-18#63 Warning
Missing input or output delay  
An input delay is missing on p_cfgbus_data_remote_in[5][n] relative to clock(s) p_gbt_cfgbus_clk40_remote_in[p]
Related violations: <none>

TIMING-18#64 Warning
Missing input or output delay  
An input delay is missing on p_cfgbus_data_remote_in[5][p] relative to clock(s) p_gbt_cfgbus_clk40_remote_in[p]
Related violations: <none>

TIMING-18#65 Warning
Missing input or output delay  
An input delay is missing on p_cfgbus_data_remote_in[6][n] relative to clock(s) p_gbt_cfgbus_clk40_remote_in[p]
Related violations: <none>

TIMING-18#66 Warning
Missing input or output delay  
An input delay is missing on p_cfgbus_data_remote_in[6][p] relative to clock(s) p_gbt_cfgbus_clk40_remote_in[p]
Related violations: <none>

TIMING-18#67 Warning
Missing input or output delay  
An input delay is missing on p_cfgbus_data_remote_in[7][n] relative to clock(s) p_gbt_cfgbus_clk40_remote_in[p]
Related violations: <none>

TIMING-18#68 Warning
Missing input or output delay  
An input delay is missing on p_cfgbus_data_remote_in[7][p] relative to clock(s) p_gbt_cfgbus_clk40_remote_in[p]
Related violations: <none>

TIMING-18#69 Warning
Missing input or output delay  
An input delay is missing on p_commbus_ddr_rx_in[n] relative to clock(s) p_commbus_ddr_clk_in[p]
Related violations: <none>

TIMING-18#70 Warning
Missing input or output delay  
An input delay is missing on p_commbus_ddr_rx_in[p] relative to clock(s) p_commbus_ddr_clk_in[p]
Related violations: <none>

TIMING-18#71 Warning
Missing input or output delay  
An input delay is missing on p_gbtx_rxready_in[0] relative to clock(s) p_gbt_cfgbus_clk40_local_in[p], p_gbt_cfgbus_clk40_remote_in[p], p_gbt_mb_q0_clk40_local_in[p], p_gbt_mb_q0_clk40_remote_in[p], p_gbt_mb_q1_clk40_local_in[p], p_gbt_mb_q1_clk40_remote_in[p], p_gbt_tp_q0_clk40_local_in[p], p_gbt_tp_q0_clk40_remote_in[p], p_gbt_tp_q1_clk40_local_in[p], p_gbt_tp_q1_clk40_remote_in[p]
Related violations: <none>

TIMING-18#72 Warning
Missing input or output delay  
An input delay is missing on p_gbtx_rxready_in[1] relative to clock(s) p_gbt_cfgbus_clk40_local_in[p], p_gbt_cfgbus_clk40_remote_in[p], p_gbt_mb_q0_clk40_local_in[p], p_gbt_mb_q0_clk40_remote_in[p], p_gbt_mb_q1_clk40_local_in[p], p_gbt_mb_q1_clk40_remote_in[p], p_gbt_tp_q0_clk40_local_in[p], p_gbt_tp_q0_clk40_remote_in[p], p_gbt_tp_q1_clk40_local_in[p], p_gbt_tp_q1_clk40_remote_in[p]
Related violations: <none>

TIMING-18#73 Warning
Missing input or output delay  
An output delay is missing on p_commbus_ddr_tx_out[n] relative to clock(s) p_commbus_ddr_clk_out[p]
Related violations: <none>

TIMING-18#74 Warning
Missing input or output delay  
An output delay is missing on p_commbus_ddr_tx_out[p] relative to clock(s) p_commbus_ddr_clk_out[p]
Related violations: <none>

TIMING-18#75 Warning
Missing input or output delay  
An output delay is missing on p_tph_out[q0][n] relative to clock(s) p_gbt_tp_q0_clk40_local_in[p], p_gbt_tp_q0_clk40_remote_in[p]
Related violations: <none>

TIMING-18#76 Warning
Missing input or output delay  
An output delay is missing on p_tph_out[q0][p] relative to clock(s) p_gbt_tp_q0_clk40_local_in[p], p_gbt_tp_q0_clk40_remote_in[p]
Related violations: <none>

TIMING-18#77 Warning
Missing input or output delay  
An output delay is missing on p_tph_out[q1][n] relative to clock(s) p_gbt_tp_q1_clk40_local_in[p], p_gbt_tp_q1_clk40_remote_in[p]
Related violations: <none>

TIMING-18#78 Warning
Missing input or output delay  
An output delay is missing on p_tph_out[q1][p] relative to clock(s) p_gbt_tp_q1_clk40_local_in[p], p_gbt_tp_q1_clk40_remote_in[p]
Related violations: <none>

TIMING-18#79 Warning
Missing input or output delay  
An output delay is missing on p_tpl_out[q0][n] relative to clock(s) p_gbt_tp_q0_clk40_local_in[p], p_gbt_tp_q0_clk40_remote_in[p]
Related violations: <none>

TIMING-18#80 Warning
Missing input or output delay  
An output delay is missing on p_tpl_out[q0][p] relative to clock(s) p_gbt_tp_q0_clk40_local_in[p], p_gbt_tp_q0_clk40_remote_in[p]
Related violations: <none>

TIMING-18#81 Warning
Missing input or output delay  
An output delay is missing on p_tpl_out[q1][n] relative to clock(s) p_gbt_tp_q1_clk40_local_in[p], p_gbt_tp_q1_clk40_remote_in[p]
Related violations: <none>

TIMING-18#82 Warning
Missing input or output delay  
An output delay is missing on p_tpl_out[q1][p] relative to clock(s) p_gbt_tp_q1_clk40_local_in[p], p_gbt_tp_q1_clk40_remote_in[p]
Related violations: <none>

TIMING-28#1 Warning
Auto-derived clock referenced by a timing constraint  
The auto-derived clock p_bitclk_out_pll_commbus_2 is referenced by name inside timing constraint (see constraint position 166 in the Timing Constraint window in Vivado IDE). It is recommended to reference an auto-derived clock by the pin name attached to the clock: get_clocks -of_objects [get_pins i_db6_commbus_interface/i_db6_commbus_ddr_interface/i_pll_commbus_clk_out/inst/plle3_adv_inst/CLKOUT1]
Related violations: <none>

TIMING-28#2 Warning
Auto-derived clock referenced by a timing constraint  
The auto-derived clock p_bitclk_out_pll_commbus_2 is referenced by name inside timing constraint (see constraint position 167 in the Timing Constraint window in Vivado IDE). It is recommended to reference an auto-derived clock by the pin name attached to the clock: get_clocks -of_objects [get_pins i_db6_commbus_interface/i_db6_commbus_ddr_interface/i_pll_commbus_clk_out/inst/plle3_adv_inst/CLKOUT1]
Related violations: <none>

TIMING-28#3 Warning
Auto-derived clock referenced by a timing constraint  
The auto-derived clock p_bitclk_out_pll_commbus_2 is referenced by name inside timing constraint (see constraint position 168 in the Timing Constraint window in Vivado IDE). It is recommended to reference an auto-derived clock by the pin name attached to the clock: get_clocks -of_objects [get_pins i_db6_commbus_interface/i_db6_commbus_ddr_interface/i_pll_commbus_clk_out/inst/plle3_adv_inst/CLKOUT1]
Related violations: <none>

TIMING-28#4 Warning
Auto-derived clock referenced by a timing constraint  
The auto-derived clock p_clk40_out_mmcm_gbt40_cfgbus is referenced by name inside timing constraint (see constraint position 67 in the Timing Constraint window in Vivado IDE). It is recommended to reference an auto-derived clock by the pin name attached to the clock: get_clocks -of_objects [get_pins i_db6_clock_interface/i_mmcm_gbt40_cfgbus/inst/mmcme3_adv_inst/CLKOUT0]
Related violations: <none>

TIMING-28#5 Warning
Auto-derived clock referenced by a timing constraint  
The auto-derived clock p_clk40_out_mmcm_gbt40_cfgbus is referenced by name inside timing constraint (see constraint position 68 in the Timing Constraint window in Vivado IDE). It is recommended to reference an auto-derived clock by the pin name attached to the clock: get_clocks -of_objects [get_pins i_db6_clock_interface/i_mmcm_gbt40_cfgbus/inst/mmcme3_adv_inst/CLKOUT0]
Related violations: <none>

TIMING-28#6 Warning
Auto-derived clock referenced by a timing constraint  
The auto-derived clock p_clk40_out_mmcm_gbt40_cfgbus is referenced by name inside timing constraint (see constraint position 69 in the Timing Constraint window in Vivado IDE). It is recommended to reference an auto-derived clock by the pin name attached to the clock: get_clocks -of_objects [get_pins i_db6_clock_interface/i_mmcm_gbt40_cfgbus/inst/mmcme3_adv_inst/CLKOUT0]
Related violations: <none>

TIMING-28#7 Warning
Auto-derived clock referenced by a timing constraint  
The auto-derived clock p_clk40_out_mmcm_gbt40_cfgbus is referenced by name inside timing constraint (see constraint position 70 in the Timing Constraint window in Vivado IDE). It is recommended to reference an auto-derived clock by the pin name attached to the clock: get_clocks -of_objects [get_pins i_db6_clock_interface/i_mmcm_gbt40_cfgbus/inst/mmcme3_adv_inst/CLKOUT0]
Related violations: <none>

TIMING-28#8 Warning
Auto-derived clock referenced by a timing constraint  
The auto-derived clock p_clk40_out_mmcm_gbt40_cfgbus is referenced by name inside timing constraint (see constraint position 71 in the Timing Constraint window in Vivado IDE). It is recommended to reference an auto-derived clock by the pin name attached to the clock: get_clocks -of_objects [get_pins i_db6_clock_interface/i_mmcm_gbt40_cfgbus/inst/mmcme3_adv_inst/CLKOUT0]
Related violations: <none>

TIMING-28#9 Warning
Auto-derived clock referenced by a timing constraint  
The auto-derived clock p_clk40_out_mmcm_gbt40_cfgbus is referenced by name inside timing constraint (see constraint position 72 in the Timing Constraint window in Vivado IDE). It is recommended to reference an auto-derived clock by the pin name attached to the clock: get_clocks -of_objects [get_pins i_db6_clock_interface/i_mmcm_gbt40_cfgbus/inst/mmcme3_adv_inst/CLKOUT0]
Related violations: <none>

TIMING-28#10 Warning
Auto-derived clock referenced by a timing constraint  
The auto-derived clock p_clk40_out_mmcm_gbt40_cfgbus is referenced by name inside timing constraint (see constraint position 73 in the Timing Constraint window in Vivado IDE). It is recommended to reference an auto-derived clock by the pin name attached to the clock: get_clocks -of_objects [get_pins i_db6_clock_interface/i_mmcm_gbt40_cfgbus/inst/mmcme3_adv_inst/CLKOUT0]
Related violations: <none>

TIMING-28#11 Warning
Auto-derived clock referenced by a timing constraint  
The auto-derived clock p_clk40_out_mmcm_gbt40_cfgbus is referenced by name inside timing constraint (see constraint position 74 in the Timing Constraint window in Vivado IDE). It is recommended to reference an auto-derived clock by the pin name attached to the clock: get_clocks -of_objects [get_pins i_db6_clock_interface/i_mmcm_gbt40_cfgbus/inst/mmcme3_adv_inst/CLKOUT0]
Related violations: <none>

TIMING-28#12 Warning
Auto-derived clock referenced by a timing constraint  
The auto-derived clock p_clk40_out_mmcm_gbt40_cfgbus is referenced by name inside timing constraint (see constraint position 88 in the Timing Constraint window in Vivado IDE). It is recommended to reference an auto-derived clock by the pin name attached to the clock: get_clocks -of_objects [get_pins i_db6_clock_interface/i_mmcm_gbt40_cfgbus/inst/mmcme3_adv_inst/CLKOUT0]
Related violations: <none>

TIMING-28#13 Warning
Auto-derived clock referenced by a timing constraint  
The auto-derived clock p_clk40_out_mmcm_gbt40_cfgbus is referenced by name inside timing constraint (see constraint position 89 in the Timing Constraint window in Vivado IDE). It is recommended to reference an auto-derived clock by the pin name attached to the clock: get_clocks -of_objects [get_pins i_db6_clock_interface/i_mmcm_gbt40_cfgbus/inst/mmcme3_adv_inst/CLKOUT0]
Related violations: <none>

TIMING-28#14 Warning
Auto-derived clock referenced by a timing constraint  
The auto-derived clock p_clk40_out_mmcm_gbt40_cfgbus is referenced by name inside timing constraint (see constraint position 90 in the Timing Constraint window in Vivado IDE). It is recommended to reference an auto-derived clock by the pin name attached to the clock: get_clocks -of_objects [get_pins i_db6_clock_interface/i_mmcm_gbt40_cfgbus/inst/mmcme3_adv_inst/CLKOUT0]
Related violations: <none>

TIMING-28#15 Warning
Auto-derived clock referenced by a timing constraint  
The auto-derived clock p_clk40_out_mmcm_gbt40_cfgbus is referenced by name inside timing constraint (see constraint position 91 in the Timing Constraint window in Vivado IDE). It is recommended to reference an auto-derived clock by the pin name attached to the clock: get_clocks -of_objects [get_pins i_db6_clock_interface/i_mmcm_gbt40_cfgbus/inst/mmcme3_adv_inst/CLKOUT0]
Related violations: <none>

TIMING-28#16 Warning
Auto-derived clock referenced by a timing constraint  
The auto-derived clock p_clk40_out_pll_osc_clk is referenced by name inside timing constraint (see constraint position 113 in the Timing Constraint window in Vivado IDE). It is recommended to reference an auto-derived clock by the pin name attached to the clock: get_clocks -of_objects [get_pins i_db6_clock_interface/i_pll_osc_clk/inst/plle3_adv_inst/CLKOUT0]
Related violations: <none>

TIMING-28#17 Warning
Auto-derived clock referenced by a timing constraint  
The auto-derived clock p_clk40_out_pll_osc_clk is referenced by name inside timing constraint (see constraint position 114 in the Timing Constraint window in Vivado IDE). It is recommended to reference an auto-derived clock by the pin name attached to the clock: get_clocks -of_objects [get_pins i_db6_clock_interface/i_pll_osc_clk/inst/plle3_adv_inst/CLKOUT0]
Related violations: <none>

TIMING-28#18 Warning
Auto-derived clock referenced by a timing constraint  
The auto-derived clock p_clk40_out_pll_osc_clk is referenced by name inside timing constraint (see constraint position 115 in the Timing Constraint window in Vivado IDE). It is recommended to reference an auto-derived clock by the pin name attached to the clock: get_clocks -of_objects [get_pins i_db6_clock_interface/i_pll_osc_clk/inst/plle3_adv_inst/CLKOUT0]
Related violations: <none>

TIMING-28#19 Warning
Auto-derived clock referenced by a timing constraint  
The auto-derived clock p_clk40_out_pll_osc_clk is referenced by name inside timing constraint (see constraint position 116 in the Timing Constraint window in Vivado IDE). It is recommended to reference an auto-derived clock by the pin name attached to the clock: get_clocks -of_objects [get_pins i_db6_clock_interface/i_pll_osc_clk/inst/plle3_adv_inst/CLKOUT0]
Related violations: <none>

TIMING-28#20 Warning
Auto-derived clock referenced by a timing constraint  
The auto-derived clock p_clk40_out_pll_osc_clk is referenced by name inside timing constraint (see constraint position 117 in the Timing Constraint window in Vivado IDE). It is recommended to reference an auto-derived clock by the pin name attached to the clock: get_clocks -of_objects [get_pins i_db6_clock_interface/i_pll_osc_clk/inst/plle3_adv_inst/CLKOUT0]
Related violations: <none>

TIMING-28#21 Warning
Auto-derived clock referenced by a timing constraint  
The auto-derived clock p_clk40_out_pll_osc_clk is referenced by name inside timing constraint (see constraint position 118 in the Timing Constraint window in Vivado IDE). It is recommended to reference an auto-derived clock by the pin name attached to the clock: get_clocks -of_objects [get_pins i_db6_clock_interface/i_pll_osc_clk/inst/plle3_adv_inst/CLKOUT0]
Related violations: <none>

TIMING-28#22 Warning
Auto-derived clock referenced by a timing constraint  
The auto-derived clock p_clk40_out_pll_osc_clk is referenced by name inside timing constraint (see constraint position 119 in the Timing Constraint window in Vivado IDE). It is recommended to reference an auto-derived clock by the pin name attached to the clock: get_clocks -of_objects [get_pins i_db6_clock_interface/i_pll_osc_clk/inst/plle3_adv_inst/CLKOUT0]
Related violations: <none>

TIMING-28#23 Warning
Auto-derived clock referenced by a timing constraint  
The auto-derived clock p_clk40_out_pll_osc_clk is referenced by name inside timing constraint (see constraint position 120 in the Timing Constraint window in Vivado IDE). It is recommended to reference an auto-derived clock by the pin name attached to the clock: get_clocks -of_objects [get_pins i_db6_clock_interface/i_pll_osc_clk/inst/plle3_adv_inst/CLKOUT0]
Related violations: <none>

TIMING-28#24 Warning
Auto-derived clock referenced by a timing constraint  
The auto-derived clock p_clk40_out_pll_osc_clk is referenced by name inside timing constraint (see constraint position 121 in the Timing Constraint window in Vivado IDE). It is recommended to reference an auto-derived clock by the pin name attached to the clock: get_clocks -of_objects [get_pins i_db6_clock_interface/i_pll_osc_clk/inst/plle3_adv_inst/CLKOUT0]
Related violations: <none>

TIMING-28#25 Warning
Auto-derived clock referenced by a timing constraint  
The auto-derived clock p_clk40_out_pll_osc_clk is referenced by name inside timing constraint (see constraint position 122 in the Timing Constraint window in Vivado IDE). It is recommended to reference an auto-derived clock by the pin name attached to the clock: get_clocks -of_objects [get_pins i_db6_clock_interface/i_pll_osc_clk/inst/plle3_adv_inst/CLKOUT0]
Related violations: <none>

TIMING-28#26 Warning
Auto-derived clock referenced by a timing constraint  
The auto-derived clock p_clk40_out_pll_osc_clk is referenced by name inside timing constraint (see constraint position 123 in the Timing Constraint window in Vivado IDE). It is recommended to reference an auto-derived clock by the pin name attached to the clock: get_clocks -of_objects [get_pins i_db6_clock_interface/i_pll_osc_clk/inst/plle3_adv_inst/CLKOUT0]
Related violations: <none>

TIMING-28#27 Warning
Auto-derived clock referenced by a timing constraint  
The auto-derived clock p_clk40_out_pll_osc_clk is referenced by name inside timing constraint (see constraint position 124 in the Timing Constraint window in Vivado IDE). It is recommended to reference an auto-derived clock by the pin name attached to the clock: get_clocks -of_objects [get_pins i_db6_clock_interface/i_pll_osc_clk/inst/plle3_adv_inst/CLKOUT0]
Related violations: <none>

TIMING-28#28 Warning
Auto-derived clock referenced by a timing constraint  
The auto-derived clock p_clk40_out_pll_osc_clk is referenced by name inside timing constraint (see constraint position 127 in the Timing Constraint window in Vivado IDE). It is recommended to reference an auto-derived clock by the pin name attached to the clock: get_clocks -of_objects [get_pins i_db6_clock_interface/i_pll_osc_clk/inst/plle3_adv_inst/CLKOUT0]
Related violations: <none>

TIMING-28#29 Warning
Auto-derived clock referenced by a timing constraint  
The auto-derived clock p_clk40_out_pll_osc_clk is referenced by name inside timing constraint (see constraint position 131 in the Timing Constraint window in Vivado IDE). It is recommended to reference an auto-derived clock by the pin name attached to the clock: get_clocks -of_objects [get_pins i_db6_clock_interface/i_pll_osc_clk/inst/plle3_adv_inst/CLKOUT0]
Related violations: <none>

TIMING-28#30 Warning
Auto-derived clock referenced by a timing constraint  
The auto-derived clock p_clk40_out_pll_osc_clk is referenced by name inside timing constraint (see constraint position 135 in the Timing Constraint window in Vivado IDE). It is recommended to reference an auto-derived clock by the pin name attached to the clock: get_clocks -of_objects [get_pins i_db6_clock_interface/i_pll_osc_clk/inst/plle3_adv_inst/CLKOUT0]
Related violations: <none>

TIMING-28#31 Warning
Auto-derived clock referenced by a timing constraint  
The auto-derived clock p_clk40_out_pll_osc_clk is referenced by name inside timing constraint (see constraint position 138 in the Timing Constraint window in Vivado IDE). It is recommended to reference an auto-derived clock by the pin name attached to the clock: get_clocks -of_objects [get_pins i_db6_clock_interface/i_pll_osc_clk/inst/plle3_adv_inst/CLKOUT0]
Related violations: <none>

TIMING-28#32 Warning
Auto-derived clock referenced by a timing constraint  
The auto-derived clock p_clk80_out_mmcm_gbt40_cfgbus is referenced by name inside timing constraint (see constraint position 109 in the Timing Constraint window in Vivado IDE). It is recommended to reference an auto-derived clock by the pin name attached to the clock: get_clocks -of_objects [get_pins i_db6_clock_interface/i_mmcm_gbt40_cfgbus/inst/mmcme3_adv_inst/CLKOUT4]
Related violations: <none>

TIMING-28#33 Warning
Auto-derived clock referenced by a timing constraint  
The auto-derived clock p_clk80_out_mmcm_gbt40_cfgbus is referenced by name inside timing constraint (see constraint position 110 in the Timing Constraint window in Vivado IDE). It is recommended to reference an auto-derived clock by the pin name attached to the clock: get_clocks -of_objects [get_pins i_db6_clock_interface/i_mmcm_gbt40_cfgbus/inst/mmcme3_adv_inst/CLKOUT4]
Related violations: <none>

TIMING-28#34 Warning
Auto-derived clock referenced by a timing constraint  
The auto-derived clock p_clk80_out_mmcm_gbt40_cfgbus is referenced by name inside timing constraint (see constraint position 119 in the Timing Constraint window in Vivado IDE). It is recommended to reference an auto-derived clock by the pin name attached to the clock: get_clocks -of_objects [get_pins i_db6_clock_interface/i_mmcm_gbt40_cfgbus/inst/mmcme3_adv_inst/CLKOUT4]
Related violations: <none>

TIMING-28#35 Warning
Auto-derived clock referenced by a timing constraint  
The auto-derived clock p_clk80_out_mmcm_gbt40_cfgbus is referenced by name inside timing constraint (see constraint position 124 in the Timing Constraint window in Vivado IDE). It is recommended to reference an auto-derived clock by the pin name attached to the clock: get_clocks -of_objects [get_pins i_db6_clock_interface/i_mmcm_gbt40_cfgbus/inst/mmcme3_adv_inst/CLKOUT4]
Related violations: <none>

TIMING-28#36 Warning
Auto-derived clock referenced by a timing constraint  
The auto-derived clock p_clk80_out_mmcm_gbt40_cfgbus is referenced by name inside timing constraint (see constraint position 147 in the Timing Constraint window in Vivado IDE). It is recommended to reference an auto-derived clock by the pin name attached to the clock: get_clocks -of_objects [get_pins i_db6_clock_interface/i_mmcm_gbt40_cfgbus/inst/mmcme3_adv_inst/CLKOUT4]
Related violations: <none>

TIMING-28#37 Warning
Auto-derived clock referenced by a timing constraint  
The auto-derived clock p_clk80_out_pll_osc_clk is referenced by name inside timing constraint (see constraint position 125 in the Timing Constraint window in Vivado IDE). It is recommended to reference an auto-derived clock by the pin name attached to the clock: get_clocks -of_objects [get_pins i_db6_clock_interface/i_pll_osc_clk/inst/plle3_adv_inst/CLKOUT1]
Related violations: <none>

TIMING-28#38 Warning
Auto-derived clock referenced by a timing constraint  
The auto-derived clock p_clk80_out_pll_osc_clk is referenced by name inside timing constraint (see constraint position 126 in the Timing Constraint window in Vivado IDE). It is recommended to reference an auto-derived clock by the pin name attached to the clock: get_clocks -of_objects [get_pins i_db6_clock_interface/i_pll_osc_clk/inst/plle3_adv_inst/CLKOUT1]
Related violations: <none>

TIMING-28#39 Warning
Auto-derived clock referenced by a timing constraint  
The auto-derived clock p_clk80_out_pll_osc_clk is referenced by name inside timing constraint (see constraint position 128 in the Timing Constraint window in Vivado IDE). It is recommended to reference an auto-derived clock by the pin name attached to the clock: get_clocks -of_objects [get_pins i_db6_clock_interface/i_pll_osc_clk/inst/plle3_adv_inst/CLKOUT1]
Related violations: <none>

TIMING-28#40 Warning
Auto-derived clock referenced by a timing constraint  
The auto-derived clock p_clk80_out_pll_osc_clk is referenced by name inside timing constraint (see constraint position 132 in the Timing Constraint window in Vivado IDE). It is recommended to reference an auto-derived clock by the pin name attached to the clock: get_clocks -of_objects [get_pins i_db6_clock_interface/i_pll_osc_clk/inst/plle3_adv_inst/CLKOUT1]
Related violations: <none>

TIMING-28#41 Warning
Auto-derived clock referenced by a timing constraint  
The auto-derived clock p_clk80_out_pll_osc_clk is referenced by name inside timing constraint (see constraint position 154 in the Timing Constraint window in Vivado IDE). It is recommended to reference an auto-derived clock by the pin name attached to the clock: get_clocks -of_objects [get_pins i_db6_clock_interface/i_pll_osc_clk/inst/plle3_adv_inst/CLKOUT1]
Related violations: <none>

TIMING-28#42 Warning
Auto-derived clock referenced by a timing constraint  
The auto-derived clock rxoutclk_out[0]_1 is referenced by name inside timing constraint (see constraint position 156 in the Timing Constraint window in Vivado IDE). It is recommended to reference an auto-derived clock by the pin name attached to the clock: get_clocks -of_objects [get_pins i_db6_sfp_interface/i_db6_gbt_gth_interface/i_db6_gbt_bank/mgt_inst/xlx_ku_mgt_std_i/inst/gen_gtwizard_gthe3_top.xlx_ku_mgt_ip_gtwizard_gthe3_inst/gen_gtwizard_gthe3.gen_channel_container[0].gen_enabled_channel.gthe3_channel_wrapper_inst/channel_inst/gthe3_channel_gen.gen_gthe3_channel_inst[0].GTHE3_CHANNEL_PRIM_INST/RXOUTCLK]
Related violations: <none>

TIMING-28#43 Warning
Auto-derived clock referenced by a timing constraint  
The auto-derived clock rxoutclk_out[0]_1 is referenced by name inside timing constraint (see constraint position 162 in the Timing Constraint window in Vivado IDE). It is recommended to reference an auto-derived clock by the pin name attached to the clock: get_clocks -of_objects [get_pins i_db6_sfp_interface/i_db6_gbt_gth_interface/i_db6_gbt_bank/mgt_inst/xlx_ku_mgt_std_i/inst/gen_gtwizard_gthe3_top.xlx_ku_mgt_ip_gtwizard_gthe3_inst/gen_gtwizard_gthe3.gen_channel_container[0].gen_enabled_channel.gthe3_channel_wrapper_inst/channel_inst/gthe3_channel_gen.gen_gthe3_channel_inst[0].GTHE3_CHANNEL_PRIM_INST/RXOUTCLK]
Related violations: <none>

TIMING-28#44 Warning
Auto-derived clock referenced by a timing constraint  
The auto-derived clock rxoutclk_out[0]_1 is referenced by name inside timing constraint (see constraint position 163 in the Timing Constraint window in Vivado IDE). It is recommended to reference an auto-derived clock by the pin name attached to the clock: get_clocks -of_objects [get_pins i_db6_sfp_interface/i_db6_gbt_gth_interface/i_db6_gbt_bank/mgt_inst/xlx_ku_mgt_std_i/inst/gen_gtwizard_gthe3_top.xlx_ku_mgt_ip_gtwizard_gthe3_inst/gen_gtwizard_gthe3.gen_channel_container[0].gen_enabled_channel.gthe3_channel_wrapper_inst/channel_inst/gthe3_channel_gen.gen_gthe3_channel_inst[0].GTHE3_CHANNEL_PRIM_INST/RXOUTCLK]
Related violations: <none>

TIMING-28#45 Warning
Auto-derived clock referenced by a timing constraint  
The auto-derived clock rxoutclk_out[1]_1 is referenced by name inside timing constraint (see constraint position 157 in the Timing Constraint window in Vivado IDE). It is recommended to reference an auto-derived clock by the pin name attached to the clock: get_clocks -of_objects [get_pins i_db6_sfp_interface/i_db6_gbt_gth_interface/i_db6_gbt_bank/mgt_inst/xlx_ku_mgt_std_i/inst/gen_gtwizard_gthe3_top.xlx_ku_mgt_ip_gtwizard_gthe3_inst/gen_gtwizard_gthe3.gen_channel_container[0].gen_enabled_channel.gthe3_channel_wrapper_inst/channel_inst/gthe3_channel_gen.gen_gthe3_channel_inst[1].GTHE3_CHANNEL_PRIM_INST/RXOUTCLK]
Related violations: <none>

TIMING-28#46 Warning
Auto-derived clock referenced by a timing constraint  
The auto-derived clock rxoutclk_out[1]_1 is referenced by name inside timing constraint (see constraint position 162 in the Timing Constraint window in Vivado IDE). It is recommended to reference an auto-derived clock by the pin name attached to the clock: get_clocks -of_objects [get_pins i_db6_sfp_interface/i_db6_gbt_gth_interface/i_db6_gbt_bank/mgt_inst/xlx_ku_mgt_std_i/inst/gen_gtwizard_gthe3_top.xlx_ku_mgt_ip_gtwizard_gthe3_inst/gen_gtwizard_gthe3.gen_channel_container[0].gen_enabled_channel.gthe3_channel_wrapper_inst/channel_inst/gthe3_channel_gen.gen_gthe3_channel_inst[1].GTHE3_CHANNEL_PRIM_INST/RXOUTCLK]
Related violations: <none>

TIMING-28#47 Warning
Auto-derived clock referenced by a timing constraint  
The auto-derived clock rxoutclk_out[2]_1 is referenced by name inside timing constraint (see constraint position 158 in the Timing Constraint window in Vivado IDE). It is recommended to reference an auto-derived clock by the pin name attached to the clock: get_clocks -of_objects [get_pins i_db6_sfp_interface/i_db6_gbt_gth_interface/i_db6_gbt_bank/mgt_inst/xlx_ku_mgt_std_i/inst/gen_gtwizard_gthe3_top.xlx_ku_mgt_ip_gtwizard_gthe3_inst/gen_gtwizard_gthe3.gen_channel_container[0].gen_enabled_channel.gthe3_channel_wrapper_inst/channel_inst/gthe3_channel_gen.gen_gthe3_channel_inst[2].GTHE3_CHANNEL_PRIM_INST/RXOUTCLK]
Related violations: <none>

TIMING-28#48 Warning
Auto-derived clock referenced by a timing constraint  
The auto-derived clock rxoutclk_out[2]_1 is referenced by name inside timing constraint (see constraint position 163 in the Timing Constraint window in Vivado IDE). It is recommended to reference an auto-derived clock by the pin name attached to the clock: get_clocks -of_objects [get_pins i_db6_sfp_interface/i_db6_gbt_gth_interface/i_db6_gbt_bank/mgt_inst/xlx_ku_mgt_std_i/inst/gen_gtwizard_gthe3_top.xlx_ku_mgt_ip_gtwizard_gthe3_inst/gen_gtwizard_gthe3.gen_channel_container[0].gen_enabled_channel.gthe3_channel_wrapper_inst/channel_inst/gthe3_channel_gen.gen_gthe3_channel_inst[2].GTHE3_CHANNEL_PRIM_INST/RXOUTCLK]
Related violations: <none>

TIMING-28#49 Warning
Auto-derived clock referenced by a timing constraint  
The auto-derived clock txoutclk_out[0]_1 is referenced by name inside timing constraint (see constraint position 159 in the Timing Constraint window in Vivado IDE). It is recommended to reference an auto-derived clock by the pin name attached to the clock: get_clocks -of_objects [get_pins i_db6_sfp_interface/i_db6_gbt_gth_interface/i_db6_gbt_bank/mgt_inst/xlx_ku_mgt_std_i/inst/gen_gtwizard_gthe3_top.xlx_ku_mgt_ip_gtwizard_gthe3_inst/gen_gtwizard_gthe3.gen_channel_container[0].gen_enabled_channel.gthe3_channel_wrapper_inst/channel_inst/gthe3_channel_gen.gen_gthe3_channel_inst[0].GTHE3_CHANNEL_PRIM_INST/TXOUTCLK]
Related violations: <none>

TIMING-28#50 Warning
Auto-derived clock referenced by a timing constraint  
The auto-derived clock txoutclk_out[1]_1 is referenced by name inside timing constraint (see constraint position 160 in the Timing Constraint window in Vivado IDE). It is recommended to reference an auto-derived clock by the pin name attached to the clock: get_clocks -of_objects [get_pins i_db6_sfp_interface/i_db6_gbt_gth_interface/i_db6_gbt_bank/mgt_inst/xlx_ku_mgt_std_i/inst/gen_gtwizard_gthe3_top.xlx_ku_mgt_ip_gtwizard_gthe3_inst/gen_gtwizard_gthe3.gen_channel_container[0].gen_enabled_channel.gthe3_channel_wrapper_inst/channel_inst/gthe3_channel_gen.gen_gthe3_channel_inst[1].GTHE3_CHANNEL_PRIM_INST/TXOUTCLK]
Related violations: <none>

TIMING-28#51 Warning
Auto-derived clock referenced by a timing constraint  
The auto-derived clock txoutclk_out[2]_1 is referenced by name inside timing constraint (see constraint position 161 in the Timing Constraint window in Vivado IDE). It is recommended to reference an auto-derived clock by the pin name attached to the clock: get_clocks -of_objects [get_pins i_db6_sfp_interface/i_db6_gbt_gth_interface/i_db6_gbt_bank/mgt_inst/xlx_ku_mgt_std_i/inst/gen_gtwizard_gthe3_top.xlx_ku_mgt_ip_gtwizard_gthe3_inst/gen_gtwizard_gthe3.gen_channel_container[0].gen_enabled_channel.gthe3_channel_wrapper_inst/channel_inst/gthe3_channel_gen.gen_gthe3_channel_inst[2].GTHE3_CHANNEL_PRIM_INST/TXOUTCLK]
Related violations: <none>

TIMING-47#1 Warning
False path or asynchronous clock group between synchronous clocks  
A Clock Group timing constraint is set between synchronous clocks p_clk40_out_pll_osc_clk_Gen and p_clk80_out_pll_osc_clk (see constraint position 154 in the Timing Constraint window in Vivado IDE). It is not recommended to cover synchronous clock domains with constraints that prevent timing analysis as the design could fail in hardware.
Related violations: <none>

TIMING-47#2 Warning
False path or asynchronous clock group between synchronous clocks  
A Clock Group timing constraint is set between synchronous clocks p_clk80_out_pll_osc_clk and p_clk40_out_pll_osc_clk_Gen (see constraint position 154 in the Timing Constraint window in Vivado IDE). It is not recommended to cover synchronous clock domains with constraints that prevent timing analysis as the design could fail in hardware.
Related violations: <none>

CLKC-5#1 Advisory
BUFGCE with constant CE has BUFG driver  
The BUFGCE cell i_db6_sem_interface/i_sem_wrapper/i_sem_support_wrapper/example_bufg i_db6_sem_interface/i_sem_wrapper/i_sem_support_wrapper/example_bufg/I pin (and CE pin not ACTIVE) is driven by BUFGCTRL clock buffer i_db6_clock_interface/i_BUFGMUX_CTRL_db_clk80. This may be an unnecessary use of multiple clocking resources and should be reviewed. Cascaded buffers introduce skew that can lead to difficult or impossible timing closure.
Related violations: <none>

CLKC-27#1 Advisory
MMCME3 with BUF_IN drives sequential IO not with CLKOUT0  
The MMCME3 cell i_db6_clock_interface/i_mmcm_gbt40_cfgbus/inst/mmcme3_adv_inst has COMPENSATION value BUF_IN, but CLKOUT4 output drives sequential IO cells. (The problem cell is p_tdo_remote_in_IBUF_inst/IBUFCTRL_INST (in p_tdo_remote_in_IBUF_inst macro).) In order to achieve insertion delay and phase-alignment for the IO sequential cells, a COMPENSATION of ZHOLD must be used and CLKOUT0 output must be the driver%STR
Related violations: <none>

CLKC-36#1 Advisory
BUFGCTRL with MMCM-PLL driver in same region with BUFGCE  
The BUFGCTRL cell i_db6_clock_interface/i_BUFGMUX_CTRL_db_clk80 is driven by BUFGCTRL i_db6_clock_interface/i_mmcm_gbt40_cfgbus/inst/mmcme3_adv_inst in the same CLOCK_REGION, but with an intervening BUFGCE i_db6_clock_interface/i_mmcm_gbt40_cfgbus/inst/clkout5_buf. This BUFGCE is not needed and should be removed.MMCME3_ADV
Related violations: <none>

CLKC-57#1 Advisory
PLLE3 with global clock driver has no LOC  
The PLLE3_ADV cell i_db6_commbus_interface/i_db6_commbus_ddr_interface/i_pll_commbus_clk_out/inst/plle3_adv_inst CLKIN pin is driven by global Clock buffer i_db6_clock_interface/i_BUFGMUX_CTRL_db_clk80 and does not have a LOC constraint. It is recommended to LOC the PLL and use the CLOCK_DEDICATED_ROUTE constraint on the net driven by the global Clock buffer.
Related violations: <none>


