Copyright 1986-2019 Xilinx, Inc. All Rights Reserved.
-----------------------------------------------------------------------------------------------------------------------------------------------------------
| Tool Version      : Vivado v.2019.2_AR72614 (lin64) Build 2708876 Wed Nov  6 21:39:14 MST 2019
| Date              : Tue Jul  7 15:30:59 2020
| Host              : Piro-Office-PC running 64-bit Ubuntu 20.04 LTS
| Command           : report_bus_skew -warn_on_violation -file db6_top_bus_skew_routed.rpt -pb db6_top_bus_skew_routed.pb -rpx db6_top_bus_skew_routed.rpx
| Design            : db6_top
| Device            : xcku035-fbva676
| Speed File        : -1  PRODUCTION 1.25 12-04-2018
| Temperature Grade : C
-----------------------------------------------------------------------------------------------------------------------------------------------------------

Bus Skew Report

No bus skew constraints

